HDMI_to_Matrix_FPGA/Test_Project/Nano9K_Test/sim/column_select_tb.vcd
$date
	Sat Mar 22 23:05:49 2025
$end
$version
	Icarus Verilog
$end
$timescale
	1s
$end
$scope module column_select_tb $end
$var wire 1 ! stcp $end
$var wire 1 " ser_clk $end
$var wire 1 # ser $end
$var wire 1 $ ready $end
$var wire 1 % enable $end
$var parameter 32 & COLUMN_NUMBER $end
$var reg 1 ' clk $end
$var reg 1 ( extra_bit $end
$var reg 1 ) rst $end
$var reg 1 * select_first $end
$var reg 1 + select_next $end
$scope module cs $end
$var wire 1 ' clk $end
$var wire 1 ( extra_bit $end
$var wire 1 ) rst $end
$var wire 1 * select_first $end
$var wire 1 + select_next $end
$var wire 1 , tx_finish $end
$var wire 1 # ser_data $end
$var wire 1 " ser_clk $end
$var reg 8 - column_data [7:0] $end
$var reg 2 . counter [1:0] $end
$var reg 3 / next_state [2:0] $end
$var reg 1 $ ready $end
$var reg 1 % ser_n_enable $end
$var reg 1 ! ser_stcp $end
$var reg 1 0 start_tx $end
$var reg 3 1 state [2:0] $end
$scope module shift_reg $end
$var wire 1 ' clk $end
$var wire 1 ) rst $end
$var wire 1 0 start_tx $end
$var parameter 32 2 CHANNEL_NUMBER $end
$var parameter 32 3 COUNTER_WIDTH $end
$var parameter 32 4 MSB_FIRST $end
$var parameter 32 5 SPI_SIZE $end
$var reg 4 6 counter [3:0] $end
$var reg 1 7 counter_overflow_flag $end
$var reg 1 8 next $end
$var reg 2 9 next_state [1:0] $end
$var reg 1 " spi_clk $end
$var reg 1 # spi_mosi $end
$var reg 1 : start_tx_internal $end
$var reg 2 ; state [1:0] $end
$var reg 1 , tx_finish $end
$scope begin $ivl_for_loop4 $end
$var integer 32 < i [31:0] $end
$scope begin $ivl_for_loop5 $end
$var integer 32 = j [31:0] $end
$upscope $end
$upscope $end
$scope begin $ivl_for_loop6 $end
$upscope $end
$scope begin $ivl_for_loop7 $end
$var integer 32 > i [31:0] $end
$upscope $end
$scope begin $ivl_for_loop8 $end
$var integer 32 ? i [31:0] $end
$upscope $end
$upscope $end
$upscope $end
$scope begin $ivl_for_loop0 $end
$var integer 32 @ i [31:0] $end
$upscope $end
$scope begin $ivl_for_loop1 $end
$var integer 32 A i [31:0] $end
$scope begin $ivl_for_loop2 $end
$var integer 32 B j [31:0] $end
$upscope $end
$scope begin $ivl_for_loop3 $end
$var integer 32 C j [31:0] $end
$upscope $end
$upscope $end
$upscope $end
$enddefinitions $end
$comment Show the parameter values. $end
$dumpall
b1000 5
b1 4
b100 3
b1 2
b11 &
$end
#0
$dumpvars
b0 C
b0 B
b0 A
b0 @
b0 ?
b0 >
b0 =
b0 <
b0 ;
0:
b0 9
18
07
b0 6
b0 1
00
b1 /
b0 .
b0 -
0,
0+
0*
1)
0(
0'
1%
0$
0#
0"
0!
$end
#5
b1 @
1'
#10
b10 @
0'
#15
b11 @
1'
#20
b100 @
0'
0)
#25
b10 /
b1 1
1,
b101 @
1'
#30
b110 @
0'
#35
b11 /
1!
b10 1
b111 @
1'
#40
b1000 @
0'
b1 B
#45
1$
0!
b11 1
b1001 @
1'
#50
b100 /
b1010 @
0'
1*
#55
b110 /
0$
b100 1
b1 .
b1011 @
1'
#60
b1100 @
0'
0*
#65
10
b110 1
b1101 @
1'
#70
b1110 @
0'
b1 C
#75
b1 9
b1 <
b1000 =
1:
b1111 @
1'
#80
b10000 @
0'
b10 C
#85
b10 9
b1 /
b1 ;
0,
b10001 @
1'
#90
b10010 @
0'
b11 C
#95
00
b10 ;
b1 1
b1 >
b10011 @
1'
#100
b10100 @
0'
b100 C
#105
08
b1 ?
b10101 @
1'
#110
b10110 @
0'
b101 C
#115
b1 6
1"
18
b10111 @
1'
#120
b11000 @
0'
b110 C
#125
0"
08
b1 ?
b11001 @
1'
#130
b11010 @
0'
b111 C
#135
b10 6
1"
18
b11011 @
1'
#140
b11100 @
0'
b1000 C
#145
0"
08
b1 ?
b11101 @
1'
#150
b11110 @
0'
b1001 C
#155
b11 6
1"
18
b11111 @
1'
#160
b100000 @
0'
b1010 C
#165
0"
08
b1 ?
b100001 @
1'
#170
b100010 @
0'
b1011 C
#175
b100 6
1"
18
b100011 @
1'
#180
b100100 @
0'
b1100 C
#185
0"
08
b1 ?
b100101 @
1'
#190
b100110 @
0'
b1101 C
#195
b101 6
1"
18
b100111 @
1'
#200
b101000 @
0'
b1110 C
#205
0"
08
b1 ?
b101001 @
1'
#210
b101010 @
0'
b1111 C
#215
b110 6
1"
18
b101011 @
1'
#220
b101100 @
0'
b10000 C
#225
0"
08
b1 ?
b101101 @
1'
#230
b101110 @
0'
b10001 C
#235
b111 6
1"
18
b101111 @
1'
#240
b110000 @
0'
b10010 C
#245
b0 9
0"
08
17
b1 ?
b110001 @
1'
#250
b110010 @
0'
b10011 C
#255
b10 /
0:
1,
07
b0 6
b0 ;
1"
18
b110011 @
1'
#260
b110100 @
0'
b10100 C
#265
b11 /
1!
0"
b10 1
b110101 @
1'
#270
b110110 @
0'
b10101 C
#275
1$
0!
b11 1
b110111 @
1'
#280
b101 /
b111000 @
0'
1+
#285
b110 /
0$
b101 1
b1 -
b111001 @
1'
#290
b111010 @
0'
b0 B
b1 A
0+
#295
10
b110 1
b111011 @
1'
#300
b111100 @
0'
b1 B
#305
b1 9
b1000 =
b1 <
1:
b111101 @
1'
#310
b111110 @
0'
b10 B
#315
b1 /
b10 9
0,
b1 ;
b111111 @
1'
#320
b1000000 @
0'
b11 B
#325
00
b1 1
b10 ;
b1 >
b1000001 @
1'
#330
b1000010 @
0'
b100 B
#335
08
b1 ?
b1000011 @
1'
#340
b1000100 @
0'
b101 B
#345
b1 6
1"
18
b1000101 @
1'
#350
b1000110 @
0'
b110 B
#355
0"
08
b1 ?
b1000111 @
1'
#360
b1001000 @
0'
b111 B
#365
b10 6
1"
18
b1001001 @
1'
#370
b1001010 @
0'
b1000 B
#375
0"
08
b1 ?
b1001011 @
1'
#380
b1001100 @
0'
b1001 B
#385
b11 6
1"
18
b1001101 @
1'
#390
b1001110 @
0'
b1010 B
#395
0"
08
b1 ?
b1001111 @
1'
#400
b1010000 @
0'
b1011 B
#405
b100 6
1"
18
b1010001 @
1'
#410
b1010010 @
0'
b1100 B
#415
0"
08
b1 ?
b1010011 @
1'
#420
b1010100 @
0'
b1101 B
#425
b101 6
1"
18
b1010101 @
1'
#430
b1010110 @
0'
b1110 B
#435
0"
08
b1 ?
b1010111 @
1'
#440
b1011000 @
0'
b1111 B
#445
b110 6
1"
18
b1011001 @
1'
#450
b1011010 @
0'
b10000 B
#455
0"
08
b1 ?
b1011011 @
1'
#460
b1011100 @
0'
b10001 B
#465
b111 6
1"
18
b1011101 @
1'
#470
b1011110 @
0'
b10010 B
#475
b0 9
1#
0"
08
17
b1 ?
b1011111 @
1'
#480
b1100000 @
0'
b10011 B
#485
b10 /
b0 ;
07
b0 6
1,
0:
1"
18
b1100001 @
1'
#490
b1100010 @
0'
b10100 B
#495
b11 /
1!
0#
0"
b10 1
b1100011 @
1'
#500
b1100100 @
0'
b10101 B
#505
1$
0!
b11 1
b1100101 @
1'
#510
b100 /
b1100110 @
0'
1*
#515
b110 /
0$
b100 1
b0 -
b10 .
b1100111 @
1'
#520
b1101000 @
0'
b0 C
0*
#525
10
b110 1
b1101001 @
1'
#530
b1101010 @
0'
b1 C
#535
b1 9
b1000 =
b1 <
1:
b1101011 @
1'
#540
b1101100 @
0'
b10 C
#545
b10 9
b1 /
b1 ;
0,
b1101101 @
1'
#550
b1101110 @
0'
b11 C
#555
00
b10 ;
b1 1
b1 >
b1101111 @
1'
#560
b1110000 @
0'
b100 C
#565
08
b1 ?
b1110001 @
1'
#570
b1110010 @
0'
b101 C
#575
b1 6
1"
18
b1110011 @
1'
#580
b1110100 @
0'
b110 C
#585
0"
08
b1 ?
b1110101 @
1'
#590
b1110110 @
0'
b111 C
#595
b10 6
1"
18
b1110111 @
1'
#600
b1111000 @
0'
b1000 C
#605
0"
08
b1 ?
b1111001 @
1'
#610
b1111010 @
0'
b1001 C
#615
b11 6
1"
18
b1111011 @
1'
#620
b1111100 @
0'
b1010 C
#625
0"
08
b1 ?
b1111101 @
1'
#630
b1111110 @
0'
b1011 C
#635
b100 6
1"
18
b1111111 @
1'
#640
b10000000 @
0'
b1100 C
#645
0"
08
b1 ?
b10000001 @
1'
#650
b10000010 @
0'
b1101 C
#655
b101 6
1"
18
b10000011 @
1'
#660
b10000100 @
0'
b1110 C
#665
0"
08
b1 ?
b10000101 @
1'
#670
b10000110 @
0'
b1111 C
#675
b110 6
1"
18
b10000111 @
1'
#680
b10001000 @
0'
b10000 C
#685
0"
08
b1 ?
b10001001 @
1'
#690
b10001010 @
0'
b10001 C
#695
b111 6
1"
18
b10001011 @
1'
#700
b10001100 @
0'
b10010 C
#705
b0 9
0"
08
17
b1 ?
b10001101 @
1'
#710
b10001110 @
0'
b10011 C
#715
b10 /
0:
1,
07
b0 6
b0 ;
1"
18
b10001111 @
1'
#720
b10010000 @
0'
b10100 C
#725
b11 /
1!
0"
b10 1
b10010001 @
1'
#730
b10010010 @
0'
b10101 C
#735
1$
0!
b11 1
b10010011 @
1'
#740
b101 /
b10010100 @
0'
1+
#745
b110 /
0$
b101 1
b1 -
b10010101 @
1'
#750
b10010110 @
0'
b0 B
b10 A
0+
#755
10
b110 1
b10010111 @
1'
#760
b10011000 @
0'
b1 B
#765
b1 9
b1000 =
b1 <
1:
b10011001 @
1'
#770
b10011010 @
0'
b10 B
#775
b1 /
b10 9
0,
b1 ;
b10011011 @
1'
#780
b10011100 @
0'
b11 B
#785
00
b1 1
b10 ;
b1 >
b10011101 @
1'
#790
b10011110 @
0'
b100 B
#795
08
b1 ?
b10011111 @
1'
#800
b10100000 @
0'
b101 B
#805
b1 6
1"
18
b10100001 @
1'
#810
b10100010 @
0'
b110 B
#815
0"
08
b1 ?
b10100011 @
1'
#820
b10100100 @
0'
b111 B
#825
b10 6
1"
18
b10100101 @
1'
#830
b10100110 @
0'
b1000 B
#835
0"
08
b1 ?
b10100111 @
1'
#840
b10101000 @
0'
b1001 B
#845
b11 6
1"
18
b10101001 @
1'
#850
b10101010 @
0'
b1010 B
#855
0"
08
b1 ?
b10101011 @
1'
#860
b10101100 @
0'
b1011 B
#865
b100 6
1"
18
b10101101 @
1'
#870
b10101110 @
0'
b1100 B
#875
0"
08
b1 ?
b10101111 @
1'
#880
b10110000 @
0'
b1101 B
#885
b101 6
1"
18
b10110001 @
1'
#890
b10110010 @
0'
b1110 B
#895
0"
08
b1 ?
b10110011 @
1'
#900
b10110100 @
0'
b1111 B
#905
b110 6
1"
18
b10110101 @
1'
#910
b10110110 @
0'
b10000 B
#915
0"
08
b1 ?
b10110111 @
1'
#920
b10111000 @
0'
b10001 B
#925
b111 6
1"
18
b10111001 @
1'
#930
b10111010 @
0'
b10010 B
#935
b0 9
1#
0"
08
17
b1 ?
b10111011 @
1'
#940
b10111100 @
0'
b10011 B
#945
b10 /
b0 ;
07
b0 6
1,
0:
1"
18
b10111101 @
1'
#950
b10111110 @
0'
b10100 B
#955
b11 /
1!
0#
0"
b10 1
b10111111 @
1'
#960
b11000000 @
0'
b10101 B
#965
1$
0!
b11 1
b11000001 @
1'
#970
b100 /
b11000010 @
0'
1*
#975
b110 /
0$
b100 1
b0 -
0%
b11000011 @
1'
#980
b11000100 @
0'
b0 C
0*
#985
10
b110 1
b11000101 @
1'
#990
b11000110 @
0'
b1 C
#995
b1 9
b1000 =
b1 <
1:
b11000111 @
1'
#1000
b11001000 @
0'
b10 C
#1005
b10 9
b1 /
b1 ;
0,
b11001001 @
1'
#1010
b11001010 @
0'
b11 C
#1015
00
b10 ;
b1 1
b1 >
b11001011 @
1'
#1020
b11001100 @
0'
b100 C
#1025
08
b1 ?
b11001101 @
1'
#1030
b11001110 @
0'
b101 C
#1035
b1 6
1"
18
b11001111 @
1'
#1040
b11010000 @
0'
b110 C
#1045
0"
08
b1 ?
b11010001 @
1'
#1050
b11010010 @
0'
b111 C
#1055
b10 6
1"
18
b11010011 @
1'
#1060
b11010100 @
0'
b1000 C
#1065
0"
08
b1 ?
b11010101 @
1'
#1070
b11010110 @
0'
b1001 C
#1075
b11 6
1"
18
b11010111 @
1'
#1080
b11011000 @
0'
b1010 C
#1085
0"
08
b1 ?
b11011001 @
1'
#1090
b11011010 @
0'
b1011 C
#1095
b100 6
1"
18
b11011011 @
1'
#1100
b11011100 @
0'
b1100 C
#1105
0"
08
b1 ?
b11011101 @
1'
#1110
b11011110 @
0'
b1101 C
#1115
b101 6
1"
18
b11011111 @
1'
#1120
b11100000 @
0'
b1110 C
#1125
0"
08
b1 ?
b11100001 @
1'
#1130
b11100010 @
0'
b1111 C
#1135
b110 6
1"
18
b11100011 @
1'
#1140
b11100100 @
0'
b10000 C
#1145
0"
08
b1 ?
b11100101 @
1'
#1150
b11100110 @
0'
b10001 C
#1155
b111 6
1"
18
b11100111 @
1'
#1160
b11101000 @
0'
b10010 C
#1165
b0 9
0"
08
17
b1 ?
b11101001 @
1'
#1170
b11101010 @
0'
b10011 C
#1175
b10 /
0:
1,
07
b0 6
b0 ;
1"
18
b11101011 @
1'
#1180
b11101100 @
0'
b10100 C
#1185
b11 /
1!
0"
b10 1
b11101101 @
1'
#1190
b11101110 @
0'
b10101 C
#1195
1$
0!
b11 1
b11101111 @
1'
#1200
b101 /
b11110000 @
0'
1+
#1205
b110 /
0$
b101 1
b1 -
b11110001 @
1'
#1210
b11110010 @
0'
b11 A
0+
#1215
10
b110 1
b11110011 @
1'
#1220
b11110100 @
0'
#1225
b1 9
b1000 =
b1 <
1:
b11110101 @
1'
#1230
b11110110 @
0'
#1235
b1 /
b10 9
0,
b1 ;
b11110111 @
1'
#1240
b11111000 @
0'
#1245
00
b1 1
b10 ;
b1 >
b11111001 @
1'
#1250
b11111010 @
0'
#1255
08
b1 ?
b11111011 @
1'
#1260
b11111100 @
0'
#1265
b1 6
1"
18
b11111101 @
1'
#1270
b11111110 @
0'
#1275
0"
08
b1 ?
b11111111 @
1'
#1280
b100000000 @
0'
#1285
b10 6
1"
18
b100000001 @
1'
#1290
b100000010 @
0'
#1295
0"
08
b1 ?
b100000011 @
1'
#1300
b100000100 @
0'
#1305
b11 6
1"
18
b100000101 @
1'
#1310
b100000110 @
0'
#1315
0"
08
b1 ?
b100000111 @
1'
#1320
b100001000 @
0'
#1325
b100 6
1"
18
b100001001 @
1'
#1330
b100001010 @
0'
#1335
0"
08
b1 ?
b100001011 @
1'
#1340
b100001100 @
0'
#1345
b101 6
1"
18
b100001101 @
1'
#1350
b100001110 @
0'
#1355
0"
08
b1 ?
b100001111 @
1'
#1360
b100010000 @
0'
#1365
b110 6
1"
18
b100010001 @
1'
#1370
b100010010 @
0'
#1375
0"
08
b1 ?
b100010011 @
1'
#1380
b100010100 @
0'
#1385
b111 6
1"
18
b100010101 @
1'
#1390
b100010110 @
0'
#1395
b0 9
1#
0"
08
17
b1 ?
b100010111 @
1'
#1400
b100011000 @
0'
#1405
b10 /
b0 ;
07
b0 6
1,
0:
1"
18
b100011001 @
1'
#1410
b100011010 @
0'
#1415
b11 /
1!
0#
0"
b10 1
b100011011 @
1'
#1420
b100011100 @
0'
#1425
1$
0!
b11 1
b100011101 @
1'
#1430
b100011110 @
0'
#1435
b100011111 @
1'
#1440
b100100000 @
0'
#1445
b100100001 @
1'
#1450
b100100010 @
0'
#1455
b100100011 @
1'
#1460
b100100100 @
0'
#1465
b100100101 @
1'
#1470
b100100110 @
0'
#1475
b100100111 @
1'
#1480
b100101000 @
0'
#1485
b100101001 @
1'
#1490
b100101010 @
0'
#1495
b100101011 @
1'
#1500
b100101100 @
0'
#1505
b100101101 @
1'
#1510
b100101110 @
0'
#1515
b100101111 @
1'
#1520
b100110000 @
0'
#1525
b100110001 @
1'
#1530
b100110010 @
0'
#1535
b100110011 @
1'
#1540
b100110100 @
0'
#1545
b100110101 @
1'
#1550
b100110110 @
0'
#1555
b100110111 @
1'
#1560
b100111000 @
0'
#1565
b100111001 @
1'
#1570
b100111010 @
0'
#1575
b100111011 @
1'
#1580
b100111100 @
0'
#1585
b100111101 @
1'
#1590
b100111110 @
0'
#1595
b100111111 @
1'
#1600
b101000000 @
0'
#1605
b101000001 @
1'
#1610
b101000010 @
0'
#1615
b101000011 @
1'
#1620
b101000100 @
0'
#1625
b101000101 @
1'
#1630
b101000110 @
0'
#1635
b101000111 @
1'
#1640
b101001000 @
0'
#1645
b101001001 @
1'
#1650
b101001010 @
0'
#1655
b101001011 @
1'
#1660
b101001100 @
0'
#1665
b101001101 @
1'
#1670
b101001110 @
0'
#1675
b101001111 @
1'
#1680
b101010000 @
0'
#1685
b101010001 @
1'
#1690
b101010010 @
0'
#1695
b101010011 @
1'
#1700
b101010100 @
0'
#1705
b101010101 @
1'
#1710
b101010110 @
0'
#1715
b101010111 @
1'
#1720
b101011000 @
0'
#1725
b101011001 @
1'
#1730
b101011010 @
0'
#1735
b101011011 @
1'
#1740
b101011100 @
0'
#1745
b101011101 @
1'
#1750
b101011110 @
0'
#1755
b101011111 @
1'
#1760
b101100000 @
0'
#1765
b101100001 @
1'
#1770
b101100010 @
0'
#1775
b101100011 @
1'
#1780
b101100100 @
0'
#1785
b101100101 @
1'
#1790
b101100110 @
0'
#1795
b101100111 @
1'
#1800
b101101000 @
0'
#1805
b101101001 @
1'
#1810
b101101010 @
0'
#1815
b101101011 @
1'
#1820
b101101100 @
0'
#1825
b101101101 @
1'
#1830
b101101110 @
0'
#1835
b101101111 @
1'
#1840
b101110000 @
0'
#1845
b101110001 @
1'
#1850
b101110010 @
0'
#1855
b101110011 @
1'
#1860
b101110100 @
0'
#1865
b101110101 @
1'
#1870
b101110110 @
0'
#1875
b101110111 @
1'
#1880
b101111000 @
0'
#1885
b101111001 @
1'
#1890
b101111010 @
0'
#1895
b101111011 @
1'
#1900
b101111100 @
0'
#1905
b101111101 @
1'
#1910
b101111110 @
0'
#1915
b101111111 @
1'
#1920
b110000000 @
0'
#1925
b110000001 @
1'
#1930
b110000010 @
0'
#1935
b110000011 @
1'
#1940
b110000100 @
0'
#1945
b110000101 @
1'
#1950
b110000110 @
0'
#1955
b110000111 @
1'
#1960
b110001000 @
0'
#1965
b110001001 @
1'
#1970
b110001010 @
0'
#1975
b110001011 @
1'
#1980
b110001100 @
0'
#1985
b110001101 @
1'
#1990
b110001110 @
0'
#1995
b110001111 @
1'
#2000
b110010000 @
0'
#2005
b110010001 @
1'
#2010
b110010010 @
0'
#2015
b110010011 @
1'
#2020
b110010100 @
0'
#2025
b110010101 @
1'
#2030
b110010110 @
0'
#2035
b110010111 @
1'
#2040
b110011000 @
0'
#2045
b110011001 @
1'
#2050
b110011010 @
0'
#2055
b110011011 @
1'
#2060
b110011100 @
0'
#2065
b110011101 @
1'
#2070
b110011110 @
0'
#2075
b110011111 @
1'
#2080
b110100000 @
0'
#2085
b110100001 @
1'
#2090
b110100010 @
0'
#2095
b110100011 @
1'
#2100
b110100100 @
0'
#2105
b110100101 @
1'
#2110
b110100110 @
0'
#2115
b110100111 @
1'
#2120
b110101000 @
0'
#2125
b110101001 @
1'
#2130
b110101010 @
0'
#2135
b110101011 @
1'
#2140
b110101100 @
0'
#2145
b110101101 @
1'
#2150
b110101110 @
0'
#2155
b110101111 @
1'
#2160
b110110000 @
0'
#2165
b110110001 @
1'
#2170
b110110010 @
0'
#2175
b110110011 @
1'
#2180
b110110100 @
0'
#2185
b110110101 @
1'
#2190
b110110110 @
0'
#2195
b110110111 @
1'
#2200
b110111000 @
0'
#2205
b110111001 @
1'
#2210
b110111010 @
0'
#2215
b110111011 @
1'
#2220
b110111100 @
0'
#2225
b110111101 @
1'
#2230
b110111110 @
0'
#2235
b110111111 @
1'
#2240
b111000000 @
0'
#2245
b111000001 @
1'
#2250
b111000010 @
0'
#2255
b111000011 @
1'
#2260
b111000100 @
0'
#2265
b111000101 @
1'
#2270
b111000110 @
0'
#2275
b111000111 @
1'
#2280
b111001000 @
0'
#2285
b111001001 @
1'
#2290
b111001010 @
0'
#2295
b111001011 @
1'
#2300
b111001100 @
0'
#2305
b111001101 @
1'
#2310
b111001110 @
0'
#2315
b111001111 @
1'
#2320
b111010000 @
0'
#2325
b111010001 @
1'
#2330
b111010010 @
0'
#2335
b111010011 @
1'
#2340
b111010100 @
0'
#2345
b111010101 @
1'
#2350
b111010110 @
0'
#2355
b111010111 @
1'
#2360
b111011000 @
0'
#2365
b111011001 @
1'
#2370
b111011010 @
0'
#2375
b111011011 @
1'
#2380
b111011100 @
0'
#2385
b111011101 @
1'
#2390
b111011110 @
0'
#2395
b111011111 @
1'
#2400
b111100000 @
0'
#2405
b111100001 @
1'
#2410
b111100010 @
0'
#2415
b111100011 @
1'
#2420
b111100100 @
0'
#2425
b111100101 @
1'
#2430
b111100110 @
0'
#2435
b111100111 @
1'
#2440
b111101000 @
0'
#2445
b111101001 @
1'
#2450
b111101010 @
0'
#2455
b111101011 @
1'
#2460
b111101100 @
0'
#2465
b111101101 @
1'
#2470
b111101110 @
0'
#2475
b111101111 @
1'
#2480
b111110000 @
0'
#2485
b111110001 @
1'
#2490
b111110010 @
0'
#2495
b111110011 @
1'
#2500
b111110100 @
0'
#2505
b111110101 @
1'
#2510
b111110110 @
0'
#2515
b111110111 @
1'
#2520
b111111000 @
0'
#2525
b111111001 @
1'
#2530
b111111010 @
0'
#2535
b111111011 @
1'
#2540
b111111100 @
0'
#2545
b111111101 @
1'
#2550
b111111110 @
0'
#2555
b111111111 @
1'
#2560
b1000000000 @
0'
#2565
b1000000001 @
1'
#2570
b1000000010 @
0'
#2575
b1000000011 @
1'
#2580
b1000000100 @
0'
#2585
b1000000101 @
1'
#2590
b1000000110 @
0'
#2595
b1000000111 @
1'
#2600
b1000001000 @
0'
#2605
b1000001001 @
1'
#2610
b1000001010 @
0'
#2615
b1000001011 @
1'
#2620
b1000001100 @
0'
#2625
b1000001101 @
1'
#2630
b1000001110 @
0'
#2635
b1000001111 @
1'
#2640
b1000010000 @
0'
#2645
b1000010001 @
1'
#2650
b1000010010 @
0'
#2655
b1000010011 @
1'
#2660
b1000010100 @
0'
#2665
b1000010101 @
1'
#2670
b1000010110 @
0'
#2675
b1000010111 @
1'
#2680
b1000011000 @
0'
#2685
b1000011001 @
1'
#2690
b1000011010 @
0'
#2695
b1000011011 @
1'
#2700
b1000011100 @
0'
#2705
b1000011101 @
1'
#2710
b1000011110 @
0'
#2715
b1000011111 @
1'
#2720
b1000100000 @
0'
#2725
b1000100001 @
1'
#2730
b1000100010 @
0'
#2735
b1000100011 @
1'
#2740
b1000100100 @
0'
#2745
b1000100101 @
1'
#2750
b1000100110 @
0'
#2755
b1000100111 @
1'
#2760
b1000101000 @
0'
#2765
b1000101001 @
1'
#2770
b1000101010 @
0'
#2775
b1000101011 @
1'
#2780
b1000101100 @
0'
#2785
b1000101101 @
1'
#2790
b1000101110 @
0'
#2795
b1000101111 @
1'
#2800
b1000110000 @
0'
#2805
b1000110001 @
1'
#2810
b1000110010 @
0'
#2815
b1000110011 @
1'
#2820
b1000110100 @
0'
#2825
b1000110101 @
1'
#2830
b1000110110 @
0'
#2835
b1000110111 @
1'
#2840
b1000111000 @
0'
#2845
b1000111001 @
1'
#2850
b1000111010 @
0'
#2855
b1000111011 @
1'
#2860
b1000111100 @
0'
#2865
b1000111101 @
1'
#2870
b1000111110 @
0'
#2875
b1000111111 @
1'
#2880
b1001000000 @
0'
#2885
b1001000001 @
1'
#2890
b1001000010 @
0'
#2895
b1001000011 @
1'
#2900
b1001000100 @
0'
#2905
b1001000101 @
1'
#2910
b1001000110 @
0'
#2915
b1001000111 @
1'
#2920
b1001001000 @
0'
#2925
b1001001001 @
1'
#2930
b1001001010 @
0'
#2935
b1001001011 @
1'
#2940
b1001001100 @
0'
#2945
b1001001101 @
1'
#2950
b1001001110 @
0'
#2955
b1001001111 @
1'
#2960
b1001010000 @
0'
#2965
b1001010001 @
1'
#2970
b1001010010 @
0'
#2975
b1001010011 @
1'
#2980
b1001010100 @
0'
#2985
b1001010101 @
1'
#2990
b1001010110 @
0'
#2995
b1001010111 @
1'
#3000
b1001011000 @
0'
#3005
b1001011001 @
1'
#3010
b1001011010 @
0'
#3015
b1001011011 @
1'
#3020
b1001011100 @
0'
#3025
b1001011101 @
1'
#3030
b1001011110 @
0'
#3035
b1001011111 @
1'
#3040
b1001100000 @
0'
#3045
b1001100001 @
1'
#3050
b1001100010 @
0'
#3055
b1001100011 @
1'
#3060
b1001100100 @
0'
#3065
b1001100101 @
1'
#3070
b1001100110 @
0'
#3075
b1001100111 @
1'
#3080
b1001101000 @
0'
#3085
b1001101001 @
1'
#3090
b1001101010 @
0'
#3095
b1001101011 @
1'
#3100
b1001101100 @
0'
#3105
b1001101101 @
1'
#3110
b1001101110 @
0'
#3115
b1001101111 @
1'
#3120
b1001110000 @
0'
#3125
b1001110001 @
1'
#3130
b1001110010 @
0'
#3135
b1001110011 @
1'
#3140
b1001110100 @
0'
#3145
b1001110101 @
1'
#3150
b1001110110 @
0'
#3155
b1001110111 @
1'
#3160
b1001111000 @
0'
#3165
b1001111001 @
1'
#3170
b1001111010 @
0'
#3175
b1001111011 @
1'
#3180
b1001111100 @
0'
#3185
b1001111101 @
1'
#3190
b1001111110 @
0'
#3195
b1001111111 @
1'
#3200
b1010000000 @
0'
#3205
b1010000001 @
1'
#3210
b1010000010 @
0'
#3215
b1010000011 @
1'
#3220
b1010000100 @
0'
#3225
b1010000101 @
1'
#3230
b1010000110 @
0'
#3235
b1010000111 @
1'
#3240
b1010001000 @
0'
#3245
b1010001001 @
1'
#3250
b1010001010 @
0'
#3255
b1010001011 @
1'
#3260
b1010001100 @
0'
#3265
b1010001101 @
1'
#3270
b1010001110 @
0'
#3275
b1010001111 @
1'
#3280
b1010010000 @
0'
#3285
b1010010001 @
1'
#3290
b1010010010 @
0'
#3295
b1010010011 @
1'
#3300
b1010010100 @
0'
#3305
b1010010101 @
1'
#3310
b1010010110 @
0'
#3315
b1010010111 @
1'
#3320
b1010011000 @
0'
#3325
b1010011001 @
1'
#3330
b1010011010 @
0'
#3335
b1010011011 @
1'
#3340
b1010011100 @
0'
#3345
b1010011101 @
1'
#3350
b1010011110 @
0'
#3355
b1010011111 @
1'
#3360
b1010100000 @
0'
#3365
b1010100001 @
1'
#3370
b1010100010 @
0'
#3375
b1010100011 @
1'
#3380
b1010100100 @
0'
#3385
b1010100101 @
1'
#3390
b1010100110 @
0'
#3395
b1010100111 @
1'
#3400
b1010101000 @
0'
#3405
b1010101001 @
1'
#3410
b1010101010 @
0'
#3415
b1010101011 @
1'
#3420
b1010101100 @
0'
#3425
b1010101101 @
1'
#3430
b1010101110 @
0'
#3435
b1010101111 @
1'
#3440
b1010110000 @
0'
#3445
b1010110001 @
1'
#3450
b1010110010 @
0'
#3455
b1010110011 @
1'
#3460
b1010110100 @
0'
#3465
b1010110101 @
1'
#3470
b1010110110 @
0'
#3475
b1010110111 @
1'
#3480
b1010111000 @
0'
#3485
b1010111001 @
1'
#3490
b1010111010 @
0'
#3495
b1010111011 @
1'
#3500
b1010111100 @
0'
#3505
b1010111101 @
1'
#3510
b1010111110 @
0'
#3515
b1010111111 @
1'
#3520
b1011000000 @
0'
#3525
b1011000001 @
1'
#3530
b1011000010 @
0'
#3535
b1011000011 @
1'
#3540
b1011000100 @
0'
#3545
b1011000101 @
1'
#3550
b1011000110 @
0'
#3555
b1011000111 @
1'
#3560
b1011001000 @
0'
#3565
b1011001001 @
1'
#3570
b1011001010 @
0'
#3575
b1011001011 @
1'
#3580
b1011001100 @
0'
#3585
b1011001101 @
1'
#3590
b1011001110 @
0'
#3595
b1011001111 @
1'
#3600
b1011010000 @
0'
#3605
b1011010001 @
1'
#3610
b1011010010 @
0'
#3615
b1011010011 @
1'
#3620
b1011010100 @
0'
#3625
b1011010101 @
1'
#3630
b1011010110 @
0'
#3635
b1011010111 @
1'
#3640
b1011011000 @
0'
#3645
b1011011001 @
1'
#3650
b1011011010 @
0'
#3655
b1011011011 @
1'
#3660
b1011011100 @
0'
#3665
b1011011101 @
1'
#3670
b1011011110 @
0'
#3675
b1011011111 @
1'
#3680
b1011100000 @
0'
#3685
b1011100001 @
1'
#3690
b1011100010 @
0'
#3695
b1011100011 @
1'
#3700
b1011100100 @
0'
#3705
b1011100101 @
1'
#3710
b1011100110 @
0'
#3715
b1011100111 @
1'
#3720
b1011101000 @
0'
#3725
b1011101001 @
1'
#3730
b1011101010 @
0'
#3735
b1011101011 @
1'
#3740
b1011101100 @
0'
#3745
b1011101101 @
1'
#3750
b1011101110 @
0'
#3755
b1011101111 @
1'
#3760
b1011110000 @
0'
#3765
b1011110001 @
1'
#3770
b1011110010 @
0'
#3775
b1011110011 @
1'
#3780
b1011110100 @
0'
#3785
b1011110101 @
1'
#3790
b1011110110 @
0'
#3795
b1011110111 @
1'
#3800
b1011111000 @
0'
#3805
b1011111001 @
1'
#3810
b1011111010 @
0'
#3815
b1011111011 @
1'
#3820
b1011111100 @
0'
#3825
b1011111101 @
1'
#3830
b1011111110 @
0'
#3835
b1011111111 @
1'
#3840
b1100000000 @
0'
#3845
b1100000001 @
1'
#3850
b1100000010 @
0'
#3855
b1100000011 @
1'
#3860
b1100000100 @
0'
#3865
b1100000101 @
1'
#3870
b1100000110 @
0'
#3875
b1100000111 @
1'
#3880
b1100001000 @
0'
#3885
b1100001001 @
1'
#3890
b1100001010 @
0'
#3895
b1100001011 @
1'
#3900
b1100001100 @
0'
#3905
b1100001101 @
1'
#3910
b1100001110 @
0'
#3915
b1100001111 @
1'
#3920
b1100010000 @
0'
#3925
b1100010001 @
1'
