HDMI_to_Matrix_FPGA/Test_Project/Nano9K_Test/sim/column_select_tb.vcd
$date
	Thu Mar 20 18:03:29 2025
$end
$version
	Icarus Verilog
$end
$timescale
	1s
$end
$scope module column_select_tb $end
$var wire 1 ! stcp $end
$var wire 1 " ser_clk $end
$var wire 1 # ser $end
$var wire 1 $ ready $end
$var wire 1 % enable $end
$var parameter 32 & COLUMN_NUMBER $end
$var reg 1 ' clk $end
$var reg 1 ( extra_bit $end
$var reg 1 ) rst $end
$var reg 1 * select_first $end
$var reg 1 + select_next $end
$scope module cs $end
$var wire 1 ' clk $end
$var wire 1 ( extra_bit $end
$var wire 1 ) rst $end
$var wire 1 * select_first $end
$var wire 1 + select_next $end
$var wire 1 , tx_finish $end
$var wire 1 # ser_data $end
$var wire 1 " ser_clk $end
$var reg 8 - column_data [7:0] $end
$var reg 2 . counter [1:0] $end
$var reg 3 / next_state [2:0] $end
$var reg 1 $ ready $end
$var reg 1 % ser_n_enable $end
$var reg 1 ! ser_stcp $end
$var reg 1 0 start_tx $end
$var reg 3 1 state [2:0] $end
$scope module shift_reg $end
$var wire 1 ' clk $end
$var wire 1 ) rst $end
$var wire 1 0 start_tx $end
$var wire 1 2 w_xor_clk $end
$var parameter 32 3 CHANNEL_NUMBER $end
$var parameter 32 4 COUNTER_WIDTH $end
$var parameter 32 5 MSB_FIRST $end
$var parameter 32 6 SPI_SIZE $end
$var reg 4 7 counter [3:0] $end
$var reg 1 8 counter_overflow_flag $end
$var reg 2 9 next_state [1:0] $end
$var reg 1 : r_clk $end
$var reg 1 " spi_clk $end
$var reg 1 # spi_mosi $end
$var reg 1 ; start_tx_internal $end
$var reg 2 < state [1:0] $end
$var reg 1 , tx_finish $end
$scope begin $ivl_for_loop5 $end
$var integer 32 = i [31:0] $end
$scope begin $ivl_for_loop6 $end
$var integer 32 > j [31:0] $end
$upscope $end
$upscope $end
$scope begin $ivl_for_loop7 $end
$upscope $end
$scope begin $ivl_for_loop8 $end
$var integer 32 ? i [31:0] $end
$upscope $end
$scope begin $ivl_for_loop9 $end
$var integer 32 @ i [31:0] $end
$upscope $end
$upscope $end
$upscope $end
$scope begin $ivl_for_loop1 $end
$var integer 32 A i [31:0] $end
$upscope $end
$scope begin $ivl_for_loop2 $end
$var integer 32 B i [31:0] $end
$scope begin $ivl_for_loop3 $end
$var integer 32 C j [31:0] $end
$upscope $end
$scope begin $ivl_for_loop4 $end
$var integer 32 D j [31:0] $end
$upscope $end
$upscope $end
$upscope $end
$enddefinitions $end
$comment Show the parameter values. $end
$dumpall
b1000 6
b1 5
b100 4
b1 3
b11 &
$end
#0
$dumpvars
b0 D
b0 C
b0 B
b0 A
b0 @
b0 ?
b0 >
b0 =
b0 <
0;
0:
b0 9
08
b0 7
02
b0 1
00
b1 /
b0 .
b0 -
0,
0+
0*
1)
0(
0'
1%
0$
x#
x"
0!
$end
#5
0#
0"
1:
02
b1 A
1'
#10
0:
02
b10 A
0'
#15
1:
02
b11 A
1'
#20
0:
02
b100 A
0'
0)
#25
b10 /
1:
b1 1
1,
02
b101 A
1'
#30
0:
02
b110 A
0'
#35
b11 /
1!
1:
b10 1
02
b111 A
1'
#40
0:
02
b1000 A
0'
b1 C
#45
1$
0!
1:
b11 1
02
b1001 A
1'
#50
0:
02
b100 /
b1010 A
0'
1*
#55
b110 /
0$
1:
b100 1
02
b1 .
b1011 A
1'
#60
0:
02
b1100 A
0'
0*
#65
10
1:
b110 1
02
b1101 A
1'
#70
0:
02
b1110 A
0'
b1 D
#75
b1 9
b1 =
b1000 >
1:
1;
02
b1111 A
1'
#80
0:
02
b10000 A
0'
b10 D
#85
b10 9
b1 /
1:
b1 <
0,
02
b10001 A
1'
#90
0:
b1 ?
02
b10010 A
0'
b11 D
#95
00
1:
b1 7
b10 <
b1 1
b1 ?
02
b10011 A
1'
#100
1"
0:
02
b10100 A
0'
b100 D
#105
0"
1:
b10 7
b1 @
02
b10101 A
1'
#110
1"
0:
02
b10110 A
0'
b101 D
#115
0"
1:
b11 7
b1 @
02
b10111 A
1'
#120
1"
0:
02
b11000 A
0'
b110 D
#125
0"
1:
b100 7
b1 @
02
b11001 A
1'
#130
1"
0:
02
b11010 A
0'
b111 D
#135
0"
1:
b101 7
b1 @
02
b11011 A
1'
#140
1"
0:
02
b11100 A
0'
b1000 D
#145
0"
1:
b110 7
b1 @
02
b11101 A
1'
#150
1"
0:
02
b11110 A
0'
b1001 D
#155
0"
1:
b111 7
b1 @
02
b11111 A
1'
#160
1"
0:
02
b100000 A
0'
b1010 D
#165
b0 9
0"
1:
18
b1000 7
b1 @
02
b100001 A
1'
#170
1"
0:
02
b100010 A
0'
b1011 D
#175
b10 /
0"
1:
0;
1,
08
b0 7
b0 <
02
b100011 A
1'
#180
0:
02
b100100 A
0'
b1100 D
#185
b11 /
1!
1:
b10 1
02
b100101 A
1'
#190
0:
02
b100110 A
0'
b1101 D
#195
1$
0!
1:
b11 1
02
b100111 A
1'
#200
0:
02
b101 /
b101000 A
0'
1+
#205
b110 /
0$
1:
b101 1
02
b1 -
b101001 A
1'
#210
0:
02
b101010 A
0'
b0 C
b1 B
0+
#215
10
1:
b110 1
02
b101011 A
1'
#220
0:
02
b101100 A
0'
b1 C
#225
b1 9
b1000 >
b1 =
1:
1;
02
b101101 A
1'
#230
0:
02
b101110 A
0'
b10 C
#235
b1 /
b10 9
1:
0,
b1 <
02
b101111 A
1'
#240
0:
b1 ?
02
b110000 A
0'
b11 C
#245
00
1:
b1 1
b10 <
b1 7
b1 ?
02
b110001 A
1'
#250
1"
0:
02
b110010 A
0'
b100 C
#255
0"
1:
b10 7
b1 @
02
b110011 A
1'
#260
1"
0:
02
b110100 A
0'
b101 C
#265
0"
1:
b11 7
b1 @
02
b110101 A
1'
#270
1"
0:
02
b110110 A
0'
b110 C
#275
0"
1:
b100 7
b1 @
02
b110111 A
1'
#280
1"
0:
02
b111000 A
0'
b111 C
#285
0"
1:
b101 7
b1 @
02
b111001 A
1'
#290
1"
0:
02
b111010 A
0'
b1000 C
#295
0"
1:
b110 7
b1 @
02
b111011 A
1'
#300
1"
0:
02
b111100 A
0'
b1001 C
#305
0"
1:
b111 7
b1 @
02
b111101 A
1'
#310
1"
0:
02
b111110 A
0'
b1010 C
#315
b0 9
1#
0"
1:
18
b1000 7
b1 @
02
b111111 A
1'
#320
1"
0:
02
b1000000 A
0'
b1011 C
#325
b10 /
0#
0"
1:
b0 <
08
b0 7
1,
0;
02
b1000001 A
1'
#330
0:
02
b1000010 A
0'
b1100 C
#335
b11 /
1!
1:
b10 1
02
b1000011 A
1'
#340
0:
02
b1000100 A
0'
b1101 C
#345
1$
0!
1:
b11 1
02
b1000101 A
1'
#350
0:
02
b100 /
b1000110 A
0'
1*
#355
b110 /
0$
1:
b100 1
02
b0 -
b10 .
b1000111 A
1'
#360
0:
02
b1001000 A
0'
b0 D
0*
#365
10
1:
b110 1
02
b1001001 A
1'
#370
0:
02
b1001010 A
0'
b1 D
#375
b1 9
b1000 >
b1 =
1:
1;
02
b1001011 A
1'
#380
0:
02
b1001100 A
0'
b10 D
#385
b10 9
b1 /
1:
b1 <
0,
02
b1001101 A
1'
#390
0:
b1 ?
02
b1001110 A
0'
b11 D
#395
00
1:
b1 7
b10 <
b1 1
b1 ?
02
b1001111 A
1'
#400
1"
0:
02
b1010000 A
0'
b100 D
#405
0"
1:
b10 7
b1 @
02
b1010001 A
1'
#410
1"
0:
02
b1010010 A
0'
b101 D
#415
0"
1:
b11 7
b1 @
02
b1010011 A
1'
#420
1"
0:
02
b1010100 A
0'
b110 D
#425
0"
1:
b100 7
b1 @
02
b1010101 A
1'
#430
1"
0:
02
b1010110 A
0'
b111 D
#435
0"
1:
b101 7
b1 @
02
b1010111 A
1'
#440
1"
0:
02
b1011000 A
0'
b1000 D
#445
0"
1:
b110 7
b1 @
02
b1011001 A
1'
#450
1"
0:
02
b1011010 A
0'
b1001 D
#455
0"
1:
b111 7
b1 @
02
b1011011 A
1'
#460
1"
0:
02
b1011100 A
0'
b1010 D
#465
b0 9
0"
1:
18
b1000 7
b1 @
02
b1011101 A
1'
#470
1"
0:
02
b1011110 A
0'
b1011 D
#475
b10 /
0"
1:
0;
1,
08
b0 7
b0 <
02
b1011111 A
1'
#480
0:
02
b1100000 A
0'
b1100 D
#485
b11 /
1!
1:
b10 1
02
b1100001 A
1'
#490
0:
02
b1100010 A
0'
b1101 D
#495
1$
0!
1:
b11 1
02
b1100011 A
1'
#500
0:
02
b101 /
b1100100 A
0'
1+
#505
b110 /
0$
1:
b101 1
02
b1 -
b1100101 A
1'
#510
0:
02
b1100110 A
0'
b0 C
b10 B
0+
#515
10
1:
b110 1
02
b1100111 A
1'
#520
0:
02
b1101000 A
0'
b1 C
#525
b1 9
b1000 >
b1 =
1:
1;
02
b1101001 A
1'
#530
0:
02
b1101010 A
0'
b10 C
#535
b1 /
b10 9
1:
0,
b1 <
02
b1101011 A
1'
#540
0:
b1 ?
02
b1101100 A
0'
b11 C
#545
00
1:
b1 1
b10 <
b1 7
b1 ?
02
b1101101 A
1'
#550
1"
0:
02
b1101110 A
0'
b100 C
#555
0"
1:
b10 7
b1 @
02
b1101111 A
1'
#560
1"
0:
02
b1110000 A
0'
b101 C
#565
0"
1:
b11 7
b1 @
02
b1110001 A
1'
#570
1"
0:
02
b1110010 A
0'
b110 C
#575
0"
1:
b100 7
b1 @
02
b1110011 A
1'
#580
1"
0:
02
b1110100 A
0'
b111 C
#585
0"
1:
b101 7
b1 @
02
b1110101 A
1'
#590
1"
0:
02
b1110110 A
0'
b1000 C
#595
0"
1:
b110 7
b1 @
02
b1110111 A
1'
#600
1"
0:
02
b1111000 A
0'
b1001 C
#605
0"
1:
b111 7
b1 @
02
b1111001 A
1'
#610
1"
0:
02
b1111010 A
0'
b1010 C
#615
b0 9
1#
0"
1:
18
b1000 7
b1 @
02
b1111011 A
1'
#620
1"
0:
02
b1111100 A
0'
b1011 C
#625
b10 /
0#
0"
1:
b0 <
08
b0 7
1,
0;
02
b1111101 A
1'
#630
0:
02
b1111110 A
0'
b1100 C
#635
b11 /
1!
1:
b10 1
02
b1111111 A
1'
#640
0:
02
b10000000 A
0'
b1101 C
#645
1$
0!
1:
b11 1
02
b10000001 A
1'
#650
0:
02
b100 /
b10000010 A
0'
1*
#655
b110 /
0$
1:
b100 1
02
b0 -
0%
b10000011 A
1'
#660
0:
02
b10000100 A
0'
b0 D
0*
#665
10
1:
b110 1
02
b10000101 A
1'
#670
0:
02
b10000110 A
0'
b1 D
#675
b1 9
b1000 >
b1 =
1:
1;
02
b10000111 A
1'
#680
0:
02
b10001000 A
0'
b10 D
#685
b10 9
b1 /
1:
b1 <
0,
02
b10001001 A
1'
#690
0:
b1 ?
02
b10001010 A
0'
b11 D
#695
00
1:
b1 7
b10 <
b1 1
b1 ?
02
b10001011 A
1'
#700
1"
0:
02
b10001100 A
0'
b100 D
#705
0"
1:
b10 7
b1 @
02
b10001101 A
1'
#710
1"
0:
02
b10001110 A
0'
b101 D
#715
0"
1:
b11 7
b1 @
02
b10001111 A
1'
#720
1"
0:
02
b10010000 A
0'
b110 D
#725
0"
1:
b100 7
b1 @
02
b10010001 A
1'
#730
1"
0:
02
b10010010 A
0'
b111 D
#735
0"
1:
b101 7
b1 @
02
b10010011 A
1'
#740
1"
0:
02
b10010100 A
0'
b1000 D
#745
0"
1:
b110 7
b1 @
02
b10010101 A
1'
#750
1"
0:
02
b10010110 A
0'
b1001 D
#755
0"
1:
b111 7
b1 @
02
b10010111 A
1'
#760
1"
0:
02
b10011000 A
0'
b1010 D
#765
b0 9
0"
1:
18
b1000 7
b1 @
02
b10011001 A
1'
#770
1"
0:
02
b10011010 A
0'
b1011 D
#775
b10 /
0"
1:
0;
1,
08
b0 7
b0 <
02
b10011011 A
1'
#780
0:
02
b10011100 A
0'
b1100 D
#785
b11 /
1!
1:
b10 1
02
b10011101 A
1'
#790
0:
02
b10011110 A
0'
b1101 D
#795
1$
0!
1:
b11 1
02
b10011111 A
1'
#800
0:
02
b101 /
b10100000 A
0'
1+
#805
b110 /
0$
1:
b101 1
02
b1 -
b10100001 A
1'
#810
0:
02
b10100010 A
0'
b11 B
0+
#815
10
1:
b110 1
02
b10100011 A
1'
#820
0:
02
b10100100 A
0'
#825
b1 9
b1000 >
b1 =
1:
1;
02
b10100101 A
1'
#830
0:
02
b10100110 A
0'
#835
b1 /
b10 9
1:
0,
b1 <
02
b10100111 A
1'
#840
0:
b1 ?
02
b10101000 A
0'
#845
00
1:
b1 1
b10 <
b1 7
b1 ?
02
b10101001 A
1'
#850
1"
0:
02
b10101010 A
0'
#855
0"
1:
b10 7
b1 @
02
b10101011 A
1'
#860
1"
0:
02
b10101100 A
0'
#865
0"
1:
b11 7
b1 @
02
b10101101 A
1'
#870
1"
0:
02
b10101110 A
0'
#875
0"
1:
b100 7
b1 @
02
b10101111 A
1'
#880
1"
0:
02
b10110000 A
0'
#885
0"
1:
b101 7
b1 @
02
b10110001 A
1'
#890
1"
0:
02
b10110010 A
0'
#895
0"
1:
b110 7
b1 @
02
b10110011 A
1'
#900
1"
0:
02
b10110100 A
0'
#905
0"
1:
b111 7
b1 @
02
b10110101 A
1'
#910
1"
0:
02
b10110110 A
0'
#915
b0 9
1#
0"
1:
18
b1000 7
b1 @
02
b10110111 A
1'
#920
1"
0:
02
b10111000 A
0'
#925
b10 /
0#
0"
1:
b0 <
08
b0 7
1,
0;
02
b10111001 A
1'
#930
0:
02
b10111010 A
0'
#935
b11 /
1!
1:
b10 1
02
b10111011 A
1'
#940
0:
02
b10111100 A
0'
#945
1$
0!
1:
b11 1
02
b10111101 A
1'
#950
0:
02
b10111110 A
0'
#955
1:
02
b10111111 A
1'
#960
0:
02
b11000000 A
0'
#965
1:
02
b11000001 A
1'
#970
0:
02
b11000010 A
0'
#975
1:
02
b11000011 A
1'
#980
0:
02
b11000100 A
0'
#985
1:
02
b11000101 A
1'
#990
0:
02
b11000110 A
0'
#995
1:
02
b11000111 A
1'
#1000
0:
02
b11001000 A
0'
#1005
1:
02
b11001001 A
1'
#1010
0:
02
b11001010 A
0'
#1015
1:
02
b11001011 A
1'
#1020
0:
02
b11001100 A
0'
#1025
1:
02
b11001101 A
1'
#1030
0:
02
b11001110 A
0'
#1035
1:
02
b11001111 A
1'
#1040
0:
02
b11010000 A
0'
#1045
1:
02
b11010001 A
1'
#1050
0:
02
b11010010 A
0'
#1055
1:
02
b11010011 A
1'
#1060
0:
02
b11010100 A
0'
#1065
1:
02
b11010101 A
1'
#1070
0:
02
b11010110 A
0'
#1075
1:
02
b11010111 A
1'
#1080
0:
02
b11011000 A
0'
#1085
1:
02
b11011001 A
1'
#1090
0:
02
b11011010 A
0'
#1095
1:
02
b11011011 A
1'
#1100
0:
02
b11011100 A
0'
#1105
1:
02
b11011101 A
1'
#1110
0:
02
b11011110 A
0'
#1115
1:
02
b11011111 A
1'
#1120
0:
02
b11100000 A
0'
#1125
1:
02
b11100001 A
1'
#1130
0:
02
b11100010 A
0'
#1135
1:
02
b11100011 A
1'
#1140
0:
02
b11100100 A
0'
#1145
1:
02
b11100101 A
1'
#1150
0:
02
b11100110 A
0'
#1155
1:
02
b11100111 A
1'
#1160
0:
02
b11101000 A
0'
#1165
1:
02
b11101001 A
1'
#1170
0:
02
b11101010 A
0'
#1175
1:
02
b11101011 A
1'
#1180
0:
02
b11101100 A
0'
#1185
1:
02
b11101101 A
1'
#1190
0:
02
b11101110 A
0'
#1195
1:
02
b11101111 A
1'
#1200
0:
02
b11110000 A
0'
#1205
1:
02
b11110001 A
1'
#1210
0:
02
b11110010 A
0'
#1215
1:
02
b11110011 A
1'
#1220
0:
02
b11110100 A
0'
#1225
1:
02
b11110101 A
1'
#1230
0:
02
b11110110 A
0'
#1235
1:
02
b11110111 A
1'
#1240
0:
02
b11111000 A
0'
#1245
1:
02
b11111001 A
1'
#1250
0:
02
b11111010 A
0'
#1255
1:
02
b11111011 A
1'
#1260
0:
02
b11111100 A
0'
#1265
1:
02
b11111101 A
1'
#1270
0:
02
b11111110 A
0'
#1275
1:
02
b11111111 A
1'
#1280
0:
02
b100000000 A
0'
#1285
1:
02
b100000001 A
1'
#1290
0:
02
b100000010 A
0'
#1295
1:
02
b100000011 A
1'
#1300
0:
02
b100000100 A
0'
#1305
1:
02
b100000101 A
1'
#1310
0:
02
b100000110 A
0'
#1315
1:
02
b100000111 A
1'
#1320
0:
02
b100001000 A
0'
#1325
1:
02
b100001001 A
1'
#1330
0:
02
b100001010 A
0'
#1335
1:
02
b100001011 A
1'
#1340
0:
02
b100001100 A
0'
#1345
1:
02
b100001101 A
1'
#1350
0:
02
b100001110 A
0'
#1355
1:
02
b100001111 A
1'
#1360
0:
02
b100010000 A
0'
#1365
1:
02
b100010001 A
1'
#1370
0:
02
b100010010 A
0'
#1375
1:
02
b100010011 A
1'
#1380
0:
02
b100010100 A
0'
#1385
1:
02
b100010101 A
1'
#1390
0:
02
b100010110 A
0'
#1395
1:
02
b100010111 A
1'
#1400
0:
02
b100011000 A
0'
#1405
1:
02
b100011001 A
1'
#1410
0:
02
b100011010 A
0'
#1415
1:
02
b100011011 A
1'
#1420
0:
02
b100011100 A
0'
#1425
1:
02
b100011101 A
1'
#1430
0:
02
b100011110 A
0'
#1435
1:
02
b100011111 A
1'
#1440
0:
02
b100100000 A
0'
#1445
1:
02
b100100001 A
1'
#1450
0:
02
b100100010 A
0'
#1455
1:
02
b100100011 A
1'
#1460
0:
02
b100100100 A
0'
#1465
1:
02
b100100101 A
1'
#1470
0:
02
b100100110 A
0'
#1475
1:
02
b100100111 A
1'
#1480
0:
02
b100101000 A
0'
#1485
1:
02
b100101001 A
1'
#1490
0:
02
b100101010 A
0'
#1495
1:
02
b100101011 A
1'
#1500
0:
02
b100101100 A
0'
#1505
1:
02
b100101101 A
1'
#1510
0:
02
b100101110 A
0'
#1515
1:
02
b100101111 A
1'
#1520
0:
02
b100110000 A
0'
#1525
1:
02
b100110001 A
1'
#1530
0:
02
b100110010 A
0'
#1535
1:
02
b100110011 A
1'
#1540
0:
02
b100110100 A
0'
#1545
1:
02
b100110101 A
1'
#1550
0:
02
b100110110 A
0'
#1555
1:
02
b100110111 A
1'
#1560
0:
02
b100111000 A
0'
#1565
1:
02
b100111001 A
1'
#1570
0:
02
b100111010 A
0'
#1575
1:
02
b100111011 A
1'
#1580
0:
02
b100111100 A
0'
#1585
1:
02
b100111101 A
1'
#1590
0:
02
b100111110 A
0'
#1595
1:
02
b100111111 A
1'
#1600
0:
02
b101000000 A
0'
#1605
1:
02
b101000001 A
1'
#1610
0:
02
b101000010 A
0'
#1615
1:
02
b101000011 A
1'
#1620
0:
02
b101000100 A
0'
#1625
1:
02
b101000101 A
1'
#1630
0:
02
b101000110 A
0'
#1635
1:
02
b101000111 A
1'
#1640
0:
02
b101001000 A
0'
#1645
1:
02
b101001001 A
1'
#1650
0:
02
b101001010 A
0'
#1655
1:
02
b101001011 A
1'
#1660
0:
02
b101001100 A
0'
#1665
1:
02
b101001101 A
1'
#1670
0:
02
b101001110 A
0'
#1675
1:
02
b101001111 A
1'
#1680
0:
02
b101010000 A
0'
#1685
1:
02
b101010001 A
1'
#1690
0:
02
b101010010 A
0'
#1695
1:
02
b101010011 A
1'
#1700
0:
02
b101010100 A
0'
#1705
1:
02
b101010101 A
1'
#1710
0:
02
b101010110 A
0'
#1715
1:
02
b101010111 A
1'
#1720
0:
02
b101011000 A
0'
#1725
1:
02
b101011001 A
1'
#1730
0:
02
b101011010 A
0'
#1735
1:
02
b101011011 A
1'
#1740
0:
02
b101011100 A
0'
#1745
1:
02
b101011101 A
1'
#1750
0:
02
b101011110 A
0'
#1755
1:
02
b101011111 A
1'
#1760
0:
02
b101100000 A
0'
#1765
1:
02
b101100001 A
1'
#1770
0:
02
b101100010 A
0'
#1775
1:
02
b101100011 A
1'
#1780
0:
02
b101100100 A
0'
#1785
1:
02
b101100101 A
1'
#1790
0:
02
b101100110 A
0'
#1795
1:
02
b101100111 A
1'
#1800
0:
02
b101101000 A
0'
#1805
1:
02
b101101001 A
1'
#1810
0:
02
b101101010 A
0'
#1815
1:
02
b101101011 A
1'
#1820
0:
02
b101101100 A
0'
#1825
1:
02
b101101101 A
1'
#1830
0:
02
b101101110 A
0'
#1835
1:
02
b101101111 A
1'
#1840
0:
02
b101110000 A
0'
#1845
1:
02
b101110001 A
1'
#1850
0:
02
b101110010 A
0'
#1855
1:
02
b101110011 A
1'
#1860
0:
02
b101110100 A
0'
#1865
1:
02
b101110101 A
1'
#1870
0:
02
b101110110 A
0'
#1875
1:
02
b101110111 A
1'
#1880
0:
02
b101111000 A
0'
#1885
1:
02
b101111001 A
1'
#1890
0:
02
b101111010 A
0'
#1895
1:
02
b101111011 A
1'
#1900
0:
02
b101111100 A
0'
#1905
1:
02
b101111101 A
1'
#1910
0:
02
b101111110 A
0'
#1915
1:
02
b101111111 A
1'
#1920
0:
02
b110000000 A
0'
#1925
1:
02
b110000001 A
1'
#1930
0:
02
b110000010 A
0'
#1935
1:
02
b110000011 A
1'
#1940
0:
02
b110000100 A
0'
#1945
1:
02
b110000101 A
1'
#1950
0:
02
b110000110 A
0'
#1955
1:
02
b110000111 A
1'
#1960
0:
02
b110001000 A
0'
#1965
1:
02
b110001001 A
1'
#1970
0:
02
b110001010 A
0'
#1975
1:
02
b110001011 A
1'
#1980
0:
02
b110001100 A
0'
#1985
1:
02
b110001101 A
1'
#1990
0:
02
b110001110 A
0'
#1995
1:
02
b110001111 A
1'
#2000
0:
02
b110010000 A
0'
#2005
1:
02
b110010001 A
1'
#2010
0:
02
b110010010 A
0'
#2015
1:
02
b110010011 A
1'
#2020
0:
02
b110010100 A
0'
#2025
1:
02
b110010101 A
1'
#2030
0:
02
b110010110 A
0'
#2035
1:
02
b110010111 A
1'
#2040
0:
02
b110011000 A
0'
#2045
1:
02
b110011001 A
1'
#2050
0:
02
b110011010 A
0'
#2055
1:
02
b110011011 A
1'
#2060
0:
02
b110011100 A
0'
#2065
1:
02
b110011101 A
1'
#2070
0:
02
b110011110 A
0'
#2075
1:
02
b110011111 A
1'
#2080
0:
02
b110100000 A
0'
#2085
1:
02
b110100001 A
1'
#2090
0:
02
b110100010 A
0'
#2095
1:
02
b110100011 A
1'
#2100
0:
02
b110100100 A
0'
#2105
1:
02
b110100101 A
1'
#2110
0:
02
b110100110 A
0'
#2115
1:
02
b110100111 A
1'
#2120
0:
02
b110101000 A
0'
#2125
1:
02
b110101001 A
1'
#2130
0:
02
b110101010 A
0'
#2135
1:
02
b110101011 A
1'
#2140
0:
02
b110101100 A
0'
#2145
1:
02
b110101101 A
1'
#2150
0:
02
b110101110 A
0'
#2155
1:
02
b110101111 A
1'
#2160
0:
02
b110110000 A
0'
#2165
1:
02
b110110001 A
1'
#2170
0:
02
b110110010 A
0'
#2175
1:
02
b110110011 A
1'
#2180
0:
02
b110110100 A
0'
#2185
1:
02
b110110101 A
1'
#2190
0:
02
b110110110 A
0'
#2195
1:
02
b110110111 A
1'
#2200
0:
02
b110111000 A
0'
#2205
1:
02
b110111001 A
1'
#2210
0:
02
b110111010 A
0'
#2215
1:
02
b110111011 A
1'
#2220
0:
02
b110111100 A
0'
#2225
1:
02
b110111101 A
1'
#2230
0:
02
b110111110 A
0'
#2235
1:
02
b110111111 A
1'
#2240
0:
02
b111000000 A
0'
#2245
1:
02
b111000001 A
1'
#2250
0:
02
b111000010 A
0'
#2255
1:
02
b111000011 A
1'
#2260
0:
02
b111000100 A
0'
#2265
1:
02
b111000101 A
1'
#2270
0:
02
b111000110 A
0'
#2275
1:
02
b111000111 A
1'
#2280
0:
02
b111001000 A
0'
#2285
1:
02
b111001001 A
1'
#2290
0:
02
b111001010 A
0'
#2295
1:
02
b111001011 A
1'
#2300
0:
02
b111001100 A
0'
#2305
1:
02
b111001101 A
1'
#2310
0:
02
b111001110 A
0'
#2315
1:
02
b111001111 A
1'
#2320
0:
02
b111010000 A
0'
#2325
1:
02
b111010001 A
1'
#2330
0:
02
b111010010 A
0'
#2335
1:
02
b111010011 A
1'
#2340
0:
02
b111010100 A
0'
#2345
1:
02
b111010101 A
1'
#2350
0:
02
b111010110 A
0'
#2355
1:
02
b111010111 A
1'
#2360
0:
02
b111011000 A
0'
#2365
1:
02
b111011001 A
1'
#2370
0:
02
b111011010 A
0'
#2375
1:
02
b111011011 A
1'
#2380
0:
02
b111011100 A
0'
#2385
1:
02
b111011101 A
1'
#2390
0:
02
b111011110 A
0'
#2395
1:
02
b111011111 A
1'
#2400
0:
02
b111100000 A
0'
#2405
1:
02
b111100001 A
1'
#2410
0:
02
b111100010 A
0'
#2415
1:
02
b111100011 A
1'
#2420
0:
02
b111100100 A
0'
#2425
1:
02
b111100101 A
1'
#2430
0:
02
b111100110 A
0'
#2435
1:
02
b111100111 A
1'
#2440
0:
02
b111101000 A
0'
#2445
1:
02
b111101001 A
1'
#2450
0:
02
b111101010 A
0'
#2455
1:
02
b111101011 A
1'
#2460
0:
02
b111101100 A
0'
#2465
1:
02
b111101101 A
1'
#2470
0:
02
b111101110 A
0'
#2475
1:
02
b111101111 A
1'
#2480
0:
02
b111110000 A
0'
#2485
1:
02
b111110001 A
1'
#2490
0:
02
b111110010 A
0'
#2495
1:
02
b111110011 A
1'
#2500
0:
02
b111110100 A
0'
#2505
1:
02
b111110101 A
1'
#2510
0:
02
b111110110 A
0'
#2515
1:
02
b111110111 A
1'
#2520
0:
02
b111111000 A
0'
#2525
1:
02
b111111001 A
1'
#2530
0:
02
b111111010 A
0'
#2535
1:
02
b111111011 A
1'
#2540
0:
02
b111111100 A
0'
#2545
1:
02
b111111101 A
1'
#2550
0:
02
b111111110 A
0'
#2555
1:
02
b111111111 A
1'
#2560
0:
02
b1000000000 A
0'
#2565
1:
02
b1000000001 A
1'
#2570
0:
02
b1000000010 A
0'
#2575
1:
02
b1000000011 A
1'
#2580
0:
02
b1000000100 A
0'
#2585
1:
02
b1000000101 A
1'
#2590
0:
02
b1000000110 A
0'
#2595
1:
02
b1000000111 A
1'
#2600
0:
02
b1000001000 A
0'
#2605
1:
02
b1000001001 A
1'
#2610
0:
02
b1000001010 A
0'
#2615
1:
02
b1000001011 A
1'
#2620
0:
02
b1000001100 A
0'
#2625
1:
02
b1000001101 A
1'
#2630
0:
02
b1000001110 A
0'
#2635
1:
02
b1000001111 A
1'
#2640
0:
02
b1000010000 A
0'
#2645
1:
02
b1000010001 A
1'
#2650
0:
02
b1000010010 A
0'
#2655
1:
02
b1000010011 A
1'
#2660
0:
02
b1000010100 A
0'
#2665
1:
02
b1000010101 A
1'
#2670
0:
02
b1000010110 A
0'
#2675
1:
02
b1000010111 A
1'
#2680
0:
02
b1000011000 A
0'
#2685
1:
02
b1000011001 A
1'
#2690
0:
02
b1000011010 A
0'
#2695
1:
02
b1000011011 A
1'
#2700
0:
02
b1000011100 A
0'
#2705
1:
02
b1000011101 A
1'
#2710
0:
02
b1000011110 A
0'
#2715
1:
02
b1000011111 A
1'
#2720
0:
02
b1000100000 A
0'
#2725
1:
02
b1000100001 A
1'
#2730
0:
02
b1000100010 A
0'
#2735
1:
02
b1000100011 A
1'
#2740
0:
02
b1000100100 A
0'
#2745
1:
02
b1000100101 A
1'
#2750
0:
02
b1000100110 A
0'
#2755
1:
02
b1000100111 A
1'
#2760
0:
02
b1000101000 A
0'
#2765
1:
02
b1000101001 A
1'
#2770
0:
02
b1000101010 A
0'
#2775
1:
02
b1000101011 A
1'
#2780
0:
02
b1000101100 A
0'
#2785
1:
02
b1000101101 A
1'
#2790
0:
02
b1000101110 A
0'
#2795
1:
02
b1000101111 A
1'
#2800
0:
02
b1000110000 A
0'
#2805
1:
02
b1000110001 A
1'
#2810
0:
02
b1000110010 A
0'
#2815
1:
02
b1000110011 A
1'
#2820
0:
02
b1000110100 A
0'
#2825
1:
02
b1000110101 A
1'
#2830
0:
02
b1000110110 A
0'
#2835
1:
02
b1000110111 A
1'
#2840
0:
02
b1000111000 A
0'
#2845
1:
02
b1000111001 A
1'
#2850
0:
02
b1000111010 A
0'
#2855
1:
02
b1000111011 A
1'
#2860
0:
02
b1000111100 A
0'
#2865
1:
02
b1000111101 A
1'
#2870
0:
02
b1000111110 A
0'
#2875
1:
02
b1000111111 A
1'
#2880
0:
02
b1001000000 A
0'
#2885
1:
02
b1001000001 A
1'
#2890
0:
02
b1001000010 A
0'
#2895
1:
02
b1001000011 A
1'
#2900
0:
02
b1001000100 A
0'
#2905
1:
02
b1001000101 A
1'
#2910
0:
02
b1001000110 A
0'
#2915
1:
02
b1001000111 A
1'
#2920
0:
02
b1001001000 A
0'
#2925
1:
02
b1001001001 A
1'
#2930
0:
02
b1001001010 A
0'
#2935
1:
02
b1001001011 A
1'
#2940
0:
02
b1001001100 A
0'
#2945
1:
02
b1001001101 A
1'
#2950
0:
02
b1001001110 A
0'
#2955
1:
02
b1001001111 A
1'
#2960
0:
02
b1001010000 A
0'
#2965
1:
02
b1001010001 A
1'
#2970
0:
02
b1001010010 A
0'
#2975
1:
02
b1001010011 A
1'
#2980
0:
02
b1001010100 A
0'
#2985
1:
02
b1001010101 A
1'
#2990
0:
02
b1001010110 A
0'
#2995
1:
02
b1001010111 A
1'
#3000
0:
02
b1001011000 A
0'
#3005
1:
02
b1001011001 A
1'
#3010
0:
02
b1001011010 A
0'
#3015
1:
02
b1001011011 A
1'
#3020
0:
02
b1001011100 A
0'
#3025
1:
02
b1001011101 A
1'
#3030
0:
02
b1001011110 A
0'
#3035
1:
02
b1001011111 A
1'
#3040
0:
02
b1001100000 A
0'
#3045
1:
02
b1001100001 A
1'
#3050
0:
02
b1001100010 A
0'
