HDMI_to_Matrix_FPGA/Test_Project/Nano9K_Test/sim/column_select_tb.vcd
$date
	Thu Mar 20 15:49:08 2025
$end
$version
	Icarus Verilog
$end
$timescale
	1s
$end
$scope module column_select_tb $end
$var wire 1 ! stcp $end
$var wire 1 " ser_clk $end
$var wire 1 # ser $end
$var wire 1 $ ready $end
$var wire 1 % enable $end
$var parameter 32 & COLUMN_NUMBER $end
$var reg 1 ' clk $end
$var reg 1 ( extra_bit $end
$var reg 1 ) rst $end
$var reg 1 * select_first $end
$var reg 1 + select_next $end
$scope module cs $end
$var wire 1 ' clk $end
$var wire 1 ( extra_bit $end
$var wire 1 ) rst $end
$var wire 1 * select_first $end
$var wire 1 + select_next $end
$var wire 1 , tx_finish $end
$var wire 1 # ser_data $end
$var wire 1 " ser_clk $end
$var reg 8 - column_data [7:0] $end
$var reg 2 . counter [1:0] $end
$var reg 3 / next_state [2:0] $end
$var reg 1 $ ready $end
$var reg 1 % ser_n_enable $end
$var reg 1 ! ser_stcp $end
$var reg 1 0 start_tx $end
$var reg 3 1 state [2:0] $end
$scope module shift_reg $end
$var wire 1 ' clk $end
$var wire 1 ) rst $end
$var wire 1 0 start_tx $end
$var wire 1 2 w_xor_clk $end
$var parameter 32 3 CHANNEL_NUMBER $end
$var parameter 32 4 COUNTER_WIDTH $end
$var parameter 32 5 MSB_FIRST $end
$var parameter 32 6 SPI_SIZE $end
$var reg 4 7 counter [3:0] $end
$var reg 2 8 next_state [1:0] $end
$var reg 1 9 overflow_finish $end
$var reg 1 : r_clk $end
$var reg 1 " spi_clk $end
$var reg 1 # spi_mosi $end
$var reg 1 ; start_tx_internal $end
$var reg 2 < state [1:0] $end
$var reg 1 , tx_finish $end
$scope begin $ivl_for_loop5 $end
$var integer 32 = i [31:0] $end
$scope begin $ivl_for_loop6 $end
$var integer 32 > j [31:0] $end
$upscope $end
$upscope $end
$scope begin $ivl_for_loop7 $end
$upscope $end
$scope begin $ivl_for_loop8 $end
$var integer 32 ? i [31:0] $end
$upscope $end
$scope begin $ivl_for_loop9 $end
$var integer 32 @ i [31:0] $end
$upscope $end
$upscope $end
$upscope $end
$scope begin $ivl_for_loop1 $end
$var integer 32 A i [31:0] $end
$upscope $end
$scope begin $ivl_for_loop2 $end
$var integer 32 B i [31:0] $end
$scope begin $ivl_for_loop3 $end
$var integer 32 C j [31:0] $end
$upscope $end
$scope begin $ivl_for_loop4 $end
$var integer 32 D j [31:0] $end
$upscope $end
$upscope $end
$upscope $end
$enddefinitions $end
$comment Show the parameter values. $end
$dumpall
b1000 6
b1 5
b100 4
b1 3
b11 &
$end
#0
$dumpvars
b0 D
b0 C
b0 B
b0 A
b0 @
b0 ?
b0 >
b0 =
b0 <
0;
0:
09
b0 8
b0 7
02
b0 1
00
b1 /
b0 .
b0 -
x,
0+
0*
1)
0(
0'
1%
0$
x#
x"
0!
$end
#5
0#
0"
1:
1,
02
b1 A
1'
#10
0:
02
b10 A
0'
#15
1:
02
b11 A
1'
#20
0:
02
b100 A
0'
0)
#25
b10 /
1:
b1 1
02
b101 A
1'
#30
0:
02
b110 A
0'
#35
b11 /
1!
1:
b10 1
02
b111 A
1'
#40
0:
02
b1000 A
0'
b1 C
#45
1$
0!
1:
b11 1
02
b1001 A
1'
#50
0:
02
b100 /
b1010 A
0'
1*
#55
b110 /
0$
1:
b100 1
02
b1 .
b1011 A
1'
#60
0:
02
b1100 A
0'
0*
#65
b1 /
10
1:
b110 1
02
b1101 A
1'
#70
0:
02
b1110 A
0'
b1 D
#75
0,
b1 8
b1 =
b1000 >
b1 /
00
1:
1;
b1 1
02
b1111 A
1'
#80
0:
02
b10000 A
0'
b10 D
#85
b10 8
1:
b1 <
02
b10001 A
1'
#90
0:
b1 ?
02
b10010 A
0'
b11 D
#95
1:
b10 <
b1 ?
02
b10011 A
1'
#100
b1 7
1"
0:
02
b10100 A
0'
b100 D
#105
0"
1:
b1 @
02
b10101 A
1'
#110
b10 7
1"
0:
02
b10110 A
0'
b101 D
#115
0"
1:
b1 @
02
b10111 A
1'
#120
b11 7
1"
0:
02
b11000 A
0'
b110 D
#125
0"
1:
b1 @
02
b11001 A
1'
#130
b100 7
1"
0:
02
b11010 A
0'
b111 D
#135
0"
1:
b1 @
02
b11011 A
1'
#140
b101 7
1"
0:
02
b11100 A
0'
b1000 D
#145
0"
1:
b1 @
02
b11101 A
1'
#150
b110 7
1"
0:
02
b11110 A
0'
b1001 D
#155
0"
1:
b1 @
02
b11111 A
1'
#160
b111 7
1"
0:
02
b100000 A
0'
b1010 D
#165
0"
1:
b1 @
02
b100001 A
1'
#170
b0 8
b1000 7
1"
0:
02
b100010 A
0'
b1011 D
#175
b1 8
0"
1:
b0 <
02
b100011 A
1'
#180
0:
02
b100100 A
0'
b1100 D
#185
b10 8
1:
b1 <
02
b100101 A
1'
#190
x#
0:
b1 ?
02
b100110 A
0'
b1101 D
#195
b0 8
1:
0;
b10 <
b1 ?
02
19
b100111 A
1'
#200
b10 8
b1001 7
1"
0:
02
b101000 A
0'
b1110 D
#205
0#
0"
1:
02
b101001 A
1'
#210
b1010 7
1"
0:
02
b101010 A
0'
b1111 D
#215
0"
1:
02
b101011 A
1'
#220
b1011 7
1"
0:
02
b101100 A
0'
b10000 D
#225
0"
1:
02
b101101 A
1'
#230
b1100 7
1"
0:
02
b101110 A
0'
b10001 D
#235
0"
1:
02
b101111 A
1'
#240
b1101 7
1"
0:
02
b110000 A
0'
b10010 D
#245
0"
1:
02
b110001 A
1'
#250
b1110 7
1"
0:
02
b110010 A
0'
b10011 D
#255
0"
1:
02
b110011 A
1'
#260
b1111 7
1"
0:
02
b110100 A
0'
b10100 D
#265
0"
1:
02
b110101 A
1'
#270
b0 7
1"
0:
02
b110110 A
0'
b10101 D
#275
0"
1:
b1 @
02
b110111 A
1'
#280
b1 7
1"
0:
02
b111000 A
0'
b10110 D
#285
0"
1:
b1 @
02
b111001 A
1'
#290
b10 7
1"
0:
02
b111010 A
0'
b10111 D
#295
0"
1:
b1 @
02
b111011 A
1'
#300
b11 7
1"
0:
02
b111100 A
0'
b11000 D
#305
0"
1:
b1 @
02
b111101 A
1'
#310
b100 7
1"
0:
02
b111110 A
0'
b11001 D
#315
0"
1:
b1 @
02
b111111 A
1'
#320
b101 7
1"
0:
02
b1000000 A
0'
b11010 D
#325
0"
1:
b1 @
02
b1000001 A
1'
#330
b110 7
1"
0:
02
b1000010 A
0'
b11011 D
#335
0"
1:
b1 @
02
b1000011 A
1'
#340
b111 7
1"
0:
02
b1000100 A
0'
b11100 D
#345
0"
1:
b1 @
02
b1000101 A
1'
#350
b0 8
b1000 7
1"
0:
02
b1000110 A
0'
b11101 D
#355
0"
1:
b0 <
02
09
b1000111 A
1'
#360
0:
02
b1001000 A
0'
b11110 D
#365
b10 /
1:
1,
02
b1001001 A
1'
#370
0:
02
b1001010 A
0'
b11111 D
#375
b11 /
1!
1:
b10 1
02
b1001011 A
1'
#380
0:
02
b1001100 A
0'
b100000 D
#385
1$
0!
1:
b11 1
02
b1001101 A
1'
#390
0:
02
b101 /
b1001110 A
0'
1+
#395
b110 /
0$
1:
b101 1
02
b1 -
b1001111 A
1'
#400
0:
02
b1010000 A
0'
b0 C
b1 B
0+
#405
b1 /
10
1:
b110 1
02
b1010001 A
1'
#410
0:
02
b1010010 A
0'
b1 C
#415
b0 7
0,
b1 8
b1000 >
b1 =
b1 /
00
1:
1;
b1 1
02
b1010011 A
1'
#420
0:
02
b1010100 A
0'
b10 C
#425
b10 8
1:
b1 <
02
b1010101 A
1'
#430
0:
b1 ?
02
b1010110 A
0'
b11 C
#435
1:
b10 <
b1 ?
02
b1010111 A
1'
#440
b1 7
1"
0:
02
b1011000 A
0'
b100 C
#445
0"
1:
b1 @
02
b1011001 A
1'
#450
b10 7
1"
0:
02
b1011010 A
0'
b101 C
#455
0"
1:
b1 @
02
b1011011 A
1'
#460
b11 7
1"
0:
02
b1011100 A
0'
b110 C
#465
0"
1:
b1 @
02
b1011101 A
1'
#470
b100 7
1"
0:
02
b1011110 A
0'
b111 C
#475
0"
1:
b1 @
02
b1011111 A
1'
#480
b101 7
1"
0:
02
b1100000 A
0'
b1000 C
#485
0"
1:
b1 @
02
b1100001 A
1'
#490
b110 7
1"
0:
02
b1100010 A
0'
b1001 C
#495
0"
1:
b1 @
02
b1100011 A
1'
#500
b111 7
1"
0:
02
b1100100 A
0'
b1010 C
#505
1#
0"
1:
b1 @
02
b1100101 A
1'
#510
b0 8
b1000 7
1"
0:
02
b1100110 A
0'
b1011 C
#515
b1 8
0#
0"
1:
b0 <
02
b1100111 A
1'
#520
0:
02
b1101000 A
0'
b1100 C
#525
b10 8
1:
b1 <
02
b1101001 A
1'
#530
x#
0:
b1 ?
02
b1101010 A
0'
b1101 C
#535
b0 8
1:
0;
b10 <
b1 ?
02
19
b1101011 A
1'
#540
b10 8
b1001 7
1"
0:
02
b1101100 A
0'
b1110 C
#545
0#
0"
1:
02
b1101101 A
1'
#550
b1010 7
1"
0:
02
b1101110 A
0'
b1111 C
#555
0"
1:
02
b1101111 A
1'
#560
b1011 7
1"
0:
02
b1110000 A
0'
b10000 C
#565
0"
1:
02
b1110001 A
1'
#570
b1100 7
1"
0:
02
b1110010 A
0'
b10001 C
#575
0"
1:
02
b1110011 A
1'
#580
b1101 7
1"
0:
02
b1110100 A
0'
b10010 C
#585
0"
1:
02
b1110101 A
1'
#590
b1110 7
1"
0:
02
b1110110 A
0'
b10011 C
#595
0"
1:
02
b1110111 A
1'
#600
b1111 7
1"
0:
02
b1111000 A
0'
b10100 C
#605
0"
1:
02
b1111001 A
1'
#610
b0 7
1"
0:
02
b1111010 A
0'
b10101 C
#615
0"
1:
b1 @
02
b1111011 A
1'
#620
b1 7
1"
0:
02
b1111100 A
0'
b10110 C
#625
0"
1:
b1 @
02
b1111101 A
1'
#630
b10 7
1"
0:
02
b1111110 A
0'
b10111 C
#635
0"
1:
b1 @
02
b1111111 A
1'
#640
b11 7
1"
0:
02
b10000000 A
0'
b11000 C
#645
0"
1:
b1 @
02
b10000001 A
1'
#650
b100 7
1"
0:
02
b10000010 A
0'
b11001 C
#655
0"
1:
b1 @
02
b10000011 A
1'
#660
b101 7
1"
0:
02
b10000100 A
0'
b11010 C
#665
0"
1:
b1 @
02
b10000101 A
1'
#670
b110 7
1"
0:
02
b10000110 A
0'
b11011 C
#675
0"
1:
b1 @
02
b10000111 A
1'
#680
b111 7
1"
0:
02
b10001000 A
0'
b11100 C
#685
1#
0"
1:
b1 @
02
b10001001 A
1'
#690
b0 8
b1000 7
1"
0:
02
b10001010 A
0'
b11101 C
#695
0#
0"
1:
b0 <
02
09
b10001011 A
1'
#700
0:
02
b10001100 A
0'
b11110 C
#705
b10 /
1:
1,
02
b10001101 A
1'
#710
0:
02
b10001110 A
0'
b11111 C
#715
b11 /
1!
1:
b10 1
02
b10001111 A
1'
#720
0:
02
b10010000 A
0'
b100000 C
#725
1$
0!
1:
b11 1
02
b10010001 A
1'
#730
0:
02
b100 /
b10010010 A
0'
1*
#735
b110 /
0$
1:
b100 1
02
b0 -
b10 .
b10010011 A
1'
#740
0:
02
b10010100 A
0'
b0 D
0*
#745
b1 /
10
1:
b110 1
02
b10010101 A
1'
#750
0:
02
b10010110 A
0'
b1 D
#755
b0 7
0,
b1 8
b1000 >
b1 =
b1 /
00
1:
1;
b1 1
02
b10010111 A
1'
#760
0:
02
b10011000 A
0'
b10 D
#765
b10 8
1:
b1 <
02
b10011001 A
1'
#770
0:
b1 ?
02
b10011010 A
0'
b11 D
#775
1:
b10 <
b1 ?
02
b10011011 A
1'
#780
b1 7
1"
0:
02
b10011100 A
0'
b100 D
#785
0"
1:
b1 @
02
b10011101 A
1'
#790
b10 7
1"
0:
02
b10011110 A
0'
b101 D
#795
0"
1:
b1 @
02
b10011111 A
1'
#800
b11 7
1"
0:
02
b10100000 A
0'
b110 D
#805
0"
1:
b1 @
02
b10100001 A
1'
#810
b100 7
1"
0:
02
b10100010 A
0'
b111 D
#815
0"
1:
b1 @
02
b10100011 A
1'
#820
b101 7
1"
0:
02
b10100100 A
0'
b1000 D
#825
0"
1:
b1 @
02
b10100101 A
1'
#830
b110 7
1"
0:
02
b10100110 A
0'
b1001 D
#835
0"
1:
b1 @
02
b10100111 A
1'
#840
b111 7
1"
0:
02
b10101000 A
0'
b1010 D
#845
0"
1:
b1 @
02
b10101001 A
1'
#850
b0 8
b1000 7
1"
0:
02
b10101010 A
0'
b1011 D
#855
b1 8
0"
1:
b0 <
02
b10101011 A
1'
#860
0:
02
b10101100 A
0'
b1100 D
#865
b10 8
1:
b1 <
02
b10101101 A
1'
#870
x#
0:
b1 ?
02
b10101110 A
0'
b1101 D
#875
b0 8
1:
0;
b10 <
b1 ?
02
19
b10101111 A
1'
#880
b10 8
b1001 7
1"
0:
02
b10110000 A
0'
b1110 D
#885
0#
0"
1:
02
b10110001 A
1'
#890
b1010 7
1"
0:
02
b10110010 A
0'
b1111 D
#895
0"
1:
02
b10110011 A
1'
#900
b1011 7
1"
0:
02
b10110100 A
0'
b10000 D
#905
0"
1:
02
b10110101 A
1'
#910
b1100 7
1"
0:
02
b10110110 A
0'
b10001 D
#915
0"
1:
02
b10110111 A
1'
#920
b1101 7
1"
0:
02
b10111000 A
0'
b10010 D
#925
0"
1:
02
b10111001 A
1'
#930
b1110 7
1"
0:
02
b10111010 A
0'
b10011 D
#935
0"
1:
02
b10111011 A
1'
#940
b1111 7
1"
0:
02
b10111100 A
0'
b10100 D
#945
0"
1:
02
b10111101 A
1'
#950
b0 7
1"
0:
02
b10111110 A
0'
b10101 D
#955
0"
1:
b1 @
02
b10111111 A
1'
#960
b1 7
1"
0:
02
b11000000 A
0'
b10110 D
#965
0"
1:
b1 @
02
b11000001 A
1'
#970
b10 7
1"
0:
02
b11000010 A
0'
b10111 D
#975
0"
1:
b1 @
02
b11000011 A
1'
#980
b11 7
1"
0:
02
b11000100 A
0'
b11000 D
#985
0"
1:
b1 @
02
b11000101 A
1'
#990
b100 7
1"
0:
02
b11000110 A
0'
b11001 D
#995
0"
1:
b1 @
02
b11000111 A
1'
#1000
b101 7
1"
0:
02
b11001000 A
0'
b11010 D
#1005
0"
1:
b1 @
02
b11001001 A
1'
#1010
b110 7
1"
0:
02
b11001010 A
0'
b11011 D
#1015
0"
1:
b1 @
02
b11001011 A
1'
#1020
b111 7
1"
0:
02
b11001100 A
0'
b11100 D
#1025
0"
1:
b1 @
02
b11001101 A
1'
#1030
b0 8
b1000 7
1"
0:
02
b11001110 A
0'
b11101 D
#1035
0"
1:
b0 <
02
09
b11001111 A
1'
#1040
0:
02
b11010000 A
0'
b11110 D
#1045
b10 /
1:
1,
02
b11010001 A
1'
#1050
0:
02
b11010010 A
0'
b11111 D
#1055
b11 /
1!
1:
b10 1
02
b11010011 A
1'
#1060
0:
02
b11010100 A
0'
b100000 D
#1065
1$
0!
1:
b11 1
02
b11010101 A
1'
#1070
0:
02
b101 /
b11010110 A
0'
1+
#1075
b110 /
0$
1:
b101 1
02
b1 -
b11010111 A
1'
#1080
0:
02
b11011000 A
0'
b0 C
b10 B
0+
#1085
b1 /
10
1:
b110 1
02
b11011001 A
1'
#1090
0:
02
b11011010 A
0'
b1 C
#1095
b0 7
0,
b1 8
b1000 >
b1 =
b1 /
00
1:
1;
b1 1
02
b11011011 A
1'
#1100
0:
02
b11011100 A
0'
b10 C
#1105
b10 8
1:
b1 <
02
b11011101 A
1'
#1110
0:
b1 ?
02
b11011110 A
0'
b11 C
#1115
1:
b10 <
b1 ?
02
b11011111 A
1'
#1120
b1 7
1"
0:
02
b11100000 A
0'
b100 C
#1125
0"
1:
b1 @
02
b11100001 A
1'
#1130
b10 7
1"
0:
02
b11100010 A
0'
b101 C
#1135
0"
1:
b1 @
02
b11100011 A
1'
#1140
b11 7
1"
0:
02
b11100100 A
0'
b110 C
#1145
0"
1:
b1 @
02
b11100101 A
1'
#1150
b100 7
1"
0:
02
b11100110 A
0'
b111 C
#1155
0"
1:
b1 @
02
b11100111 A
1'
#1160
b101 7
1"
0:
02
b11101000 A
0'
b1000 C
#1165
0"
1:
b1 @
02
b11101001 A
1'
#1170
b110 7
1"
0:
02
b11101010 A
0'
b1001 C
#1175
0"
1:
b1 @
02
b11101011 A
1'
#1180
b111 7
1"
0:
02
b11101100 A
0'
b1010 C
#1185
1#
0"
1:
b1 @
02
b11101101 A
1'
#1190
b0 8
b1000 7
1"
0:
02
b11101110 A
0'
b1011 C
#1195
b1 8
0#
0"
1:
b0 <
02
b11101111 A
1'
#1200
0:
02
b11110000 A
0'
b1100 C
#1205
b10 8
1:
b1 <
02
b11110001 A
1'
#1210
x#
0:
b1 ?
02
b11110010 A
0'
b1101 C
#1215
b0 8
1:
0;
b10 <
b1 ?
02
19
b11110011 A
1'
#1220
b10 8
b1001 7
1"
0:
02
b11110100 A
0'
b1110 C
#1225
0#
0"
1:
02
b11110101 A
1'
#1230
b1010 7
1"
0:
02
b11110110 A
0'
b1111 C
#1235
0"
1:
02
b11110111 A
1'
#1240
b1011 7
1"
0:
02
b11111000 A
0'
b10000 C
#1245
0"
1:
02
b11111001 A
1'
#1250
b1100 7
1"
0:
02
b11111010 A
0'
b10001 C
#1255
0"
1:
02
b11111011 A
1'
#1260
b1101 7
1"
0:
02
b11111100 A
0'
b10010 C
#1265
0"
1:
02
b11111101 A
1'
#1270
b1110 7
1"
0:
02
b11111110 A
0'
b10011 C
#1275
0"
1:
02
b11111111 A
1'
#1280
b1111 7
1"
0:
02
b100000000 A
0'
b10100 C
#1285
0"
1:
02
b100000001 A
1'
#1290
b0 7
1"
0:
02
b100000010 A
0'
b10101 C
#1295
0"
1:
b1 @
02
b100000011 A
1'
#1300
b1 7
1"
0:
02
b100000100 A
0'
b10110 C
#1305
0"
1:
b1 @
02
b100000101 A
1'
#1310
b10 7
1"
0:
02
b100000110 A
0'
b10111 C
#1315
0"
1:
b1 @
02
b100000111 A
1'
#1320
b11 7
1"
0:
02
b100001000 A
0'
b11000 C
#1325
0"
1:
b1 @
02
b100001001 A
1'
#1330
b100 7
1"
0:
02
b100001010 A
0'
b11001 C
#1335
0"
1:
b1 @
02
b100001011 A
1'
#1340
b101 7
1"
0:
02
b100001100 A
0'
b11010 C
#1345
0"
1:
b1 @
02
b100001101 A
1'
#1350
b110 7
1"
0:
02
b100001110 A
0'
b11011 C
#1355
0"
1:
b1 @
02
b100001111 A
1'
#1360
b111 7
1"
0:
02
b100010000 A
0'
b11100 C
#1365
1#
0"
1:
b1 @
02
b100010001 A
1'
#1370
b0 8
b1000 7
1"
0:
02
b100010010 A
0'
b11101 C
#1375
0#
0"
1:
b0 <
02
09
b100010011 A
1'
#1380
0:
02
b100010100 A
0'
b11110 C
#1385
b10 /
1:
1,
02
b100010101 A
1'
#1390
0:
02
b100010110 A
0'
b11111 C
#1395
b11 /
1!
1:
b10 1
02
b100010111 A
1'
#1400
0:
02
b100011000 A
0'
b100000 C
#1405
1$
0!
1:
b11 1
02
b100011001 A
1'
#1410
0:
02
b100 /
b100011010 A
0'
1*
#1415
b110 /
0$
1:
b100 1
02
b0 -
0%
b100011011 A
1'
#1420
0:
02
b100011100 A
0'
b0 D
0*
#1425
b1 /
10
1:
b110 1
02
b100011101 A
1'
#1430
0:
02
b100011110 A
0'
b1 D
#1435
b0 7
0,
b1 8
b1000 >
b1 =
b1 /
00
1:
1;
b1 1
02
b100011111 A
1'
#1440
0:
02
b100100000 A
0'
b10 D
#1445
b10 8
1:
b1 <
02
b100100001 A
1'
#1450
0:
b1 ?
02
b100100010 A
0'
b11 D
#1455
1:
b10 <
b1 ?
02
b100100011 A
1'
#1460
b1 7
1"
0:
02
b100100100 A
0'
b100 D
#1465
0"
1:
b1 @
02
b100100101 A
1'
#1470
b10 7
1"
0:
02
b100100110 A
0'
b101 D
#1475
0"
1:
b1 @
02
b100100111 A
1'
#1480
b11 7
1"
0:
02
b100101000 A
0'
b110 D
#1485
0"
1:
b1 @
02
b100101001 A
1'
#1490
b100 7
1"
0:
02
b100101010 A
0'
b111 D
#1495
0"
1:
b1 @
02
b100101011 A
1'
#1500
b101 7
1"
0:
02
b100101100 A
0'
b1000 D
#1505
0"
1:
b1 @
02
b100101101 A
1'
#1510
b110 7
1"
0:
02
b100101110 A
0'
b1001 D
#1515
0"
1:
b1 @
02
b100101111 A
1'
#1520
b111 7
1"
0:
02
b100110000 A
0'
b1010 D
#1525
0"
1:
b1 @
02
b100110001 A
1'
#1530
b0 8
b1000 7
1"
0:
02
b100110010 A
0'
b1011 D
#1535
b1 8
0"
1:
b0 <
02
b100110011 A
1'
#1540
0:
02
b100110100 A
0'
b1100 D
#1545
b10 8
1:
b1 <
02
b100110101 A
1'
#1550
x#
0:
b1 ?
02
b100110110 A
0'
b1101 D
#1555
b0 8
1:
0;
b10 <
b1 ?
02
19
b100110111 A
1'
#1560
b10 8
b1001 7
1"
0:
02
b100111000 A
0'
b1110 D
#1565
0#
0"
1:
02
b100111001 A
1'
#1570
b1010 7
1"
0:
02
b100111010 A
0'
b1111 D
#1575
0"
1:
02
b100111011 A
1'
#1580
b1011 7
1"
0:
02
b100111100 A
0'
b10000 D
#1585
0"
1:
02
b100111101 A
1'
#1590
b1100 7
1"
0:
02
b100111110 A
0'
b10001 D
#1595
0"
1:
02
b100111111 A
1'
#1600
b1101 7
1"
0:
02
b101000000 A
0'
b10010 D
#1605
0"
1:
02
b101000001 A
1'
#1610
b1110 7
1"
0:
02
b101000010 A
0'
b10011 D
#1615
0"
1:
02
b101000011 A
1'
#1620
b1111 7
1"
0:
02
b101000100 A
0'
b10100 D
#1625
0"
1:
02
b101000101 A
1'
#1630
b0 7
1"
0:
02
b101000110 A
0'
b10101 D
#1635
0"
1:
b1 @
02
b101000111 A
1'
#1640
b1 7
1"
0:
02
b101001000 A
0'
b10110 D
#1645
0"
1:
b1 @
02
b101001001 A
1'
#1650
b10 7
1"
0:
02
b101001010 A
0'
b10111 D
#1655
0"
1:
b1 @
02
b101001011 A
1'
#1660
b11 7
1"
0:
02
b101001100 A
0'
b11000 D
#1665
0"
1:
b1 @
02
b101001101 A
1'
#1670
b100 7
1"
0:
02
b101001110 A
0'
b11001 D
#1675
0"
1:
b1 @
02
b101001111 A
1'
#1680
b101 7
1"
0:
02
b101010000 A
0'
b11010 D
#1685
0"
1:
b1 @
02
b101010001 A
1'
#1690
b110 7
1"
0:
02
b101010010 A
0'
b11011 D
#1695
0"
1:
b1 @
02
b101010011 A
1'
#1700
b111 7
1"
0:
02
b101010100 A
0'
b11100 D
#1705
0"
1:
b1 @
02
b101010101 A
1'
#1710
b0 8
b1000 7
1"
0:
02
b101010110 A
0'
b11101 D
#1715
0"
1:
b0 <
02
09
b101010111 A
1'
#1720
0:
02
b101011000 A
0'
b11110 D
#1725
b10 /
1:
1,
02
b101011001 A
1'
#1730
0:
02
b101011010 A
0'
b11111 D
#1735
b11 /
1!
1:
b10 1
02
b101011011 A
1'
#1740
0:
02
b101011100 A
0'
b100000 D
#1745
1$
0!
1:
b11 1
02
b101011101 A
1'
#1750
0:
02
b101 /
b101011110 A
0'
1+
#1755
b110 /
0$
1:
b101 1
02
b1 -
b101011111 A
1'
#1760
0:
02
b101100000 A
0'
b11 B
0+
#1765
b1 /
10
1:
b110 1
02
b101100001 A
1'
#1770
0:
02
b101100010 A
0'
#1775
b0 7
0,
b1 8
b1000 >
b1 =
b1 /
00
1:
1;
b1 1
02
b101100011 A
1'
#1780
0:
02
b101100100 A
0'
#1785
b10 8
1:
b1 <
02
b101100101 A
1'
#1790
0:
b1 ?
02
b101100110 A
0'
#1795
1:
b10 <
b1 ?
02
b101100111 A
1'
#1800
b1 7
1"
0:
02
b101101000 A
0'
#1805
0"
1:
b1 @
02
b101101001 A
1'
#1810
b10 7
1"
0:
02
b101101010 A
0'
#1815
0"
1:
b1 @
02
b101101011 A
1'
#1820
b11 7
1"
0:
02
b101101100 A
0'
#1825
0"
1:
b1 @
02
b101101101 A
1'
#1830
b100 7
1"
0:
02
b101101110 A
0'
#1835
0"
1:
b1 @
02
b101101111 A
1'
#1840
b101 7
1"
0:
02
b101110000 A
0'
#1845
0"
1:
b1 @
02
b101110001 A
1'
#1850
b110 7
1"
0:
02
b101110010 A
0'
#1855
0"
1:
b1 @
02
b101110011 A
1'
#1860
b111 7
1"
0:
02
b101110100 A
0'
#1865
1#
0"
1:
b1 @
02
b101110101 A
1'
#1870
b0 8
b1000 7
1"
0:
02
b101110110 A
0'
#1875
b1 8
0#
0"
1:
b0 <
02
b101110111 A
1'
#1880
0:
02
b101111000 A
0'
#1885
b10 8
1:
b1 <
02
b101111001 A
1'
#1890
x#
0:
b1 ?
02
b101111010 A
0'
#1895
b0 8
1:
0;
b10 <
b1 ?
02
19
b101111011 A
1'
#1900
b10 8
b1001 7
1"
0:
02
b101111100 A
0'
#1905
0#
0"
1:
02
b101111101 A
1'
#1910
b1010 7
1"
0:
02
b101111110 A
0'
#1915
0"
1:
02
b101111111 A
1'
#1920
b1011 7
1"
0:
02
b110000000 A
0'
#1925
0"
1:
02
b110000001 A
1'
#1930
b1100 7
1"
0:
02
b110000010 A
0'
#1935
0"
1:
02
b110000011 A
1'
#1940
b1101 7
1"
0:
02
b110000100 A
0'
#1945
0"
1:
02
b110000101 A
1'
#1950
b1110 7
1"
0:
02
b110000110 A
0'
#1955
0"
1:
02
b110000111 A
1'
#1960
b1111 7
1"
0:
02
b110001000 A
0'
#1965
0"
1:
02
b110001001 A
1'
#1970
b0 7
1"
0:
02
b110001010 A
0'
#1975
0"
1:
b1 @
02
b110001011 A
1'
#1980
b1 7
1"
0:
02
b110001100 A
0'
#1985
0"
1:
b1 @
02
b110001101 A
1'
#1990
b10 7
1"
0:
02
b110001110 A
0'
#1995
0"
1:
b1 @
02
b110001111 A
1'
#2000
b11 7
1"
0:
02
b110010000 A
0'
#2005
0"
1:
b1 @
02
b110010001 A
1'
#2010
b100 7
1"
0:
02
b110010010 A
0'
#2015
0"
1:
b1 @
02
b110010011 A
1'
#2020
b101 7
1"
0:
02
b110010100 A
0'
#2025
0"
1:
b1 @
02
b110010101 A
1'
#2030
b110 7
1"
0:
02
b110010110 A
0'
#2035
0"
1:
b1 @
02
b110010111 A
1'
#2040
b111 7
1"
0:
02
b110011000 A
0'
#2045
1#
0"
1:
b1 @
02
b110011001 A
1'
#2050
b0 8
b1000 7
1"
0:
02
b110011010 A
0'
#2055
0#
0"
1:
b0 <
02
09
b110011011 A
1'
#2060
0:
02
b110011100 A
0'
#2065
b10 /
1:
1,
02
b110011101 A
1'
#2070
0:
02
b110011110 A
0'
#2075
b11 /
1!
1:
b10 1
02
b110011111 A
1'
#2080
0:
02
b110100000 A
0'
#2085
1$
0!
1:
b11 1
02
b110100001 A
1'
#2090
0:
02
b110100010 A
0'
#2095
1:
02
b110100011 A
1'
#2100
0:
02
b110100100 A
0'
#2105
1:
02
b110100101 A
1'
#2110
0:
02
b110100110 A
0'
#2115
1:
02
b110100111 A
1'
#2120
0:
02
b110101000 A
0'
#2125
1:
02
b110101001 A
1'
#2130
0:
02
b110101010 A
0'
#2135
1:
02
b110101011 A
1'
#2140
0:
02
b110101100 A
0'
#2145
1:
02
b110101101 A
1'
#2150
0:
02
b110101110 A
0'
#2155
1:
02
b110101111 A
1'
#2160
0:
02
b110110000 A
0'
#2165
1:
02
b110110001 A
1'
#2170
0:
02
b110110010 A
0'
#2175
1:
02
b110110011 A
1'
#2180
0:
02
b110110100 A
0'
#2185
1:
02
b110110101 A
1'
#2190
0:
02
b110110110 A
0'
#2195
1:
02
b110110111 A
1'
#2200
0:
02
b110111000 A
0'
#2205
1:
02
b110111001 A
1'
#2210
0:
02
b110111010 A
0'
#2215
1:
02
b110111011 A
1'
#2220
0:
02
b110111100 A
0'
#2225
1:
02
b110111101 A
1'
#2230
0:
02
b110111110 A
0'
#2235
1:
02
b110111111 A
1'
#2240
0:
02
b111000000 A
0'
#2245
1:
02
b111000001 A
1'
#2250
0:
02
b111000010 A
0'
#2255
1:
02
b111000011 A
1'
#2260
0:
02
b111000100 A
0'
#2265
1:
02
b111000101 A
1'
#2270
0:
02
b111000110 A
0'
#2275
1:
02
b111000111 A
1'
#2280
0:
02
b111001000 A
0'
#2285
1:
02
b111001001 A
1'
#2290
0:
02
b111001010 A
0'
#2295
1:
02
b111001011 A
1'
#2300
0:
02
b111001100 A
0'
#2305
1:
02
b111001101 A
1'
#2310
0:
02
b111001110 A
0'
#2315
1:
02
b111001111 A
1'
#2320
0:
02
b111010000 A
0'
#2325
1:
02
b111010001 A
1'
#2330
0:
02
b111010010 A
0'
#2335
1:
02
b111010011 A
1'
#2340
0:
02
b111010100 A
0'
#2345
1:
02
b111010101 A
1'
#2350
0:
02
b111010110 A
0'
#2355
1:
02
b111010111 A
1'
#2360
0:
02
b111011000 A
0'
#2365
1:
02
b111011001 A
1'
#2370
0:
02
b111011010 A
0'
#2375
1:
02
b111011011 A
1'
#2380
0:
02
b111011100 A
0'
#2385
1:
02
b111011101 A
1'
#2390
0:
02
b111011110 A
0'
#2395
1:
02
b111011111 A
1'
#2400
0:
02
b111100000 A
0'
#2405
1:
02
b111100001 A
1'
#2410
0:
02
b111100010 A
0'
#2415
1:
02
b111100011 A
1'
#2420
0:
02
b111100100 A
0'
#2425
1:
02
b111100101 A
1'
#2430
0:
02
b111100110 A
0'
#2435
1:
02
b111100111 A
1'
#2440
0:
02
b111101000 A
0'
#2445
1:
02
b111101001 A
1'
#2450
0:
02
b111101010 A
0'
#2455
1:
02
b111101011 A
1'
#2460
0:
02
b111101100 A
0'
#2465
1:
02
b111101101 A
1'
#2470
0:
02
b111101110 A
0'
