HDMI_to_Matrix_FPGA/Test_Project/Nano9K_Test/sim/LED_Matrix_top.vcd
$date
	Fri Mar 21 17:31:17 2025
$end
$version
	Icarus Verilog
$end
$timescale
	1s
$end
$scope module LED_Matrix_top_tb $end
$var wire 3 ! spi_mosi [2:0] $end
$var wire 1 " spi_clk $end
$var wire 1 # shift_stcp $end
$var wire 1 $ shift_ser $end
$var wire 1 % shift_en $end
$var wire 1 & shift_clk $end
$var wire 6 ' led [5:0] $end
$var reg 1 ( I_tmds_clk_n $end
$var reg 1 ) I_tmds_clk_p $end
$var reg 3 * I_tmds_data_n [2:0] $end
$var reg 3 + I_tmds_data_p [2:0] $end
$var reg 2 , btn [1:0] $end
$var reg 1 - clk $end
$scope module uut $end
$var wire 1 ( I_tmds_clk_n $end
$var wire 1 ) I_tmds_clk_p $end
$var wire 3 . I_tmds_data_n [2:0] $end
$var wire 3 / I_tmds_data_p [2:0] $end
$var wire 2 0 btn [1:0] $end
$var wire 1 - clk $end
$var wire 1 1 foo $end
$var wire 1 2 tx_finish $end
$var wire 3 3 spi_mosi [2:0] $end
$var wire 1 " spi_clk $end
$var wire 1 # shift_stcp $end
$var wire 1 $ shift_ser $end
$var wire 1 % shift_en $end
$var wire 1 & shift_clk $end
$var wire 1 4 rst $end
$var wire 6 5 led [5:0] $end
$var parameter 96 6 BYTES_PER_MATRIX $end
$var parameter 32 7 CHANNEL_NUMBER $end
$var parameter 32 8 COUNTER_WIDTH $end
$var parameter 32 9 DIV_FACTOR $end
$var parameter 32 : SPI_SIZE $end
$var reg 9 ; counter [8:0] $end
$var reg 8 < data [7:0] $end
$var reg 1 = new_column $end
$var reg 1 > new_image $end
$var reg 1 ? next_data $end
$var reg 2 @ next_state [1:0] $end
$var reg 1 A slow_clk $end
$var reg 32 B slow_counter [31:0] $end
$var reg 2 C state [1:0] $end
$scope module output_module_inst $end
$var wire 1 A clk $end
$var wire 1 D extra_bit $end
$var wire 1 = new_column $end
$var wire 1 > new_image $end
$var wire 1 ? next_data $end
$var wire 1 4 rst $end
$var wire 1 E spi_tx_finish $end
$var wire 3 F spi_mosi [2:0] $end
$var wire 1 " spi_clk $end
$var wire 1 # ser_stcp $end
$var wire 1 % ser_n_enable $end
$var wire 1 $ ser_data $end
$var wire 1 & ser_clk $end
$var wire 1 G column_select_ready $end
$var parameter 32 H CHANNEL_NUMBER $end
$var parameter 32 I MSB_FIRST $end
$var parameter 32 J SPI_SIZE $end
$var reg 3 K next_state [2:0] $end
$var reg 1 L select_first $end
$var reg 1 M select_next $end
$var reg 1 N spi_start_tx $end
$var reg 3 O state [2:0] $end
$var reg 1 2 tx_finish $end
$scope module cs $end
$var wire 1 A clk $end
$var wire 1 D extra_bit $end
$var wire 1 4 rst $end
$var wire 1 L select_first $end
$var wire 1 M select_next $end
$var wire 1 P tx_finish $end
$var wire 1 $ ser_data $end
$var wire 1 & ser_clk $end
$var reg 8 Q column_data [7:0] $end
$var reg 2 R counter [1:0] $end
$var reg 3 S next_state [2:0] $end
$var reg 1 G ready $end
$var reg 1 % ser_n_enable $end
$var reg 1 # ser_stcp $end
$var reg 1 T start_tx $end
$var reg 3 U state [2:0] $end
$scope module shift_reg $end
$var wire 1 A clk $end
$var wire 1 4 rst $end
$var wire 1 T start_tx $end
$var wire 1 V w_xor_clk $end
$var parameter 32 W CHANNEL_NUMBER $end
$var parameter 32 X COUNTER_WIDTH $end
$var parameter 32 Y MSB_FIRST $end
$var parameter 32 Z SPI_SIZE $end
$var reg 4 [ counter [3:0] $end
$var reg 1 \ counter_overflow_flag $end
$var reg 2 ] next_state [1:0] $end
$var reg 1 ^ r_clk $end
$var reg 1 & spi_clk $end
$var reg 1 $ spi_mosi $end
$var reg 1 _ start_tx_internal $end
$var reg 2 ` state [1:0] $end
$var reg 1 P tx_finish $end
$scope begin $ivl_for_loop4 $end
$var integer 32 a i [31:0] $end
$scope begin $ivl_for_loop5 $end
$var integer 32 b j [31:0] $end
$upscope $end
$upscope $end
$scope begin $ivl_for_loop6 $end
$upscope $end
$scope begin $ivl_for_loop7 $end
$var integer 32 c i [31:0] $end
$upscope $end
$scope begin $ivl_for_loop8 $end
$var integer 32 d i [31:0] $end
$upscope $end
$upscope $end
$upscope $end
$scope module spi_tx $end
$var wire 1 A clk $end
$var wire 1 4 rst $end
$var wire 1 N start_tx $end
$var wire 1 e w_xor_clk $end
$var parameter 32 f CHANNEL_NUMBER $end
$var parameter 32 g COUNTER_WIDTH $end
$var parameter 32 h MSB_FIRST $end
$var parameter 32 i SPI_SIZE $end
$var reg 4 j counter [3:0] $end
$var reg 1 k counter_overflow_flag $end
$var reg 2 l next_state [1:0] $end
$var reg 1 m r_clk $end
$var reg 1 " spi_clk $end
$var reg 3 n spi_mosi [2:0] $end
$var reg 1 o start_tx_internal $end
$var reg 2 p state [1:0] $end
$var reg 1 E tx_finish $end
$scope begin $ivl_for_loop4 $end
$var integer 32 q i [31:0] $end
$scope begin $ivl_for_loop5 $end
$var integer 32 r j [31:0] $end
$upscope $end
$upscope $end
$scope begin $ivl_for_loop6 $end
$upscope $end
$scope begin $ivl_for_loop7 $end
$var integer 32 s i [31:0] $end
$upscope $end
$scope begin $ivl_for_loop8 $end
$var integer 32 t i [31:0] $end
$upscope $end
$upscope $end
$upscope $end
$upscope $end
$upscope $end
$enddefinitions $end
$comment Show the parameter values. $end
$dumpall
b1000 i
b1 h
b100 g
b11 f
b1000 Z
b1 Y
b100 X
b1 W
b1000 J
b1 I
b11 H
b1000 :
b10 9
b1001 8
b11 7
b110000000 6
$end
#0
$dumpvars
b0 t
b0 s
b0 r
b0 q
b0 p
0o
bx n
0m
b0 l
0k
b0 j
0e
b0 d
b0 c
b0 b
b0 a
b0 `
0_
0^
b0 ]
0\
b0 [
0V
b0 U
0T
b1 S
b0 R
b0 Q
xP
b0 O
0N
0M
0L
b0 K
0G
bx F
xE
0D
b0 C
b0 B
0A
b0 @
x?
x>
x=
b0 <
b0 ;
bx1xxx 5
04
bx 3
02
z1
b11 0
b0 /
b111 .
0-
b11 ,
b0 +
b111 *
0)
1(
bx1xxx '
x&
x%
x$
0#
x"
bx !
$end
#1
b10 S
0$
0&
1^
b0 !
b0 3
b0 F
b0 n
0"
1m
1E
1P
b1 U
0V
b1x1x1x '
b1x1x1x 5
0=
0e
1A
1-
#2
0-
#3
0^
0m
0V
0e
0A
1-
#4
0-
#5
1^
1m
b1 S
0V
0e
b0 U
0P
0E
1A
0?
b1x1111 '
b1x1111 5
0>
1%
14
1-
b10 ,
b10 0
#6
0-
#7
0^
0m
0V
0e
0A
1-
#8
0-
#9
1^
1m
0V
0e
1A
1-
#10
0-
#11
0^
0m
0V
0e
0A
1-
#12
0-
#13
1^
1m
0V
0e
1A
1-
#14
0-
#15
0^
0m
0V
0e
0A
1-
#16
0-
#17
1^
1m
0V
0e
1A
1-
#18
0-
#19
0^
0m
0V
0e
0A
1-
#20
0-
#21
1^
1m
0V
0e
1A
1-
#22
0-
#23
0^
0m
0V
0e
0A
1-
#24
0-
#25
b10 S
1^
1m
b1 U
1P
1E
0V
0e
1A
b0 @
04
1-
b11 ,
b11 0
#26
0-
#27
0^
0m
0V
0e
0A
1-
#28
0-
#29
b11 S
1#
1^
1m
b10 U
0V
0e
1A
1-
#30
0-
#31
0^
0m
0V
0e
0A
1-
#32
0-
#33
b1 K
1G
0#
1^
1m
b11 U
0V
0e
1A
1-
#34
0-
#35
0^
0m
0V
0e
0A
1-
#36
0-
#37
b1 @
b1x0111 '
b1x0111 5
12
1^
1m
b1 O
0V
0e
1A
1-
#38
0-
#39
0^
0m
0V
0e
0A
1-
#40
0-
#41
1^
1m
b1 C
b10 K
0V
b1x0110 '
b1x0110 5
1>
0e
1A
1-
#42
0-
#43
0^
0m
0V
0e
0A
1-
#44
0-
#45
b100 S
b11 @
1L
b1x1110 '
b1x1110 5
02
1^
1m
b10 O
0V
0e
1A
1-
#46
0-
#47
0^
0m
0V
0e
0A
1-
#48
0-
#49
b100 K
b110 S
0G
1^
1m
b11 C
b100 U
0V
b1x1111 '
b1x1111 5
0>
b1 R
0e
1A
1-
#50
0-
#51
0^
0m
0V
0e
0A
1-
#52
0-
#53
1T
0L
1^
1m
b110 U
b100 O
0V
0e
1A
1-
#54
0-
#55
0^
0m
0V
0e
0A
1-
#56
0-
#57
b1 ]
b1 a
b1000 b
1^
1m
1_
0V
0e
1A
1-
#58
0-
#59
0^
0m
0V
0e
0A
1-
#60
0-
#61
b1 S
b10 ]
1^
1m
0P
b1 `
0V
0e
1A
1-
#62
0-
#63
0^
0m
b1 c
0V
0e
0A
1-
#64
0-
#65
0T
1^
1m
b1 U
b10 `
b1 [
b1 c
0V
0e
1A
1-
#66
0-
#67
1&
0^
0m
0V
0e
0A
1-
#68
0-
#69
0&
1^
1m
b10 [
b1 d
0V
0e
1A
1-
#70
0-
#71
1&
0^
0m
0V
0e
0A
1-
#72
0-
#73
0&
1^
1m
b11 [
b1 d
0V
0e
1A
1-
#74
0-
#75
1&
0^
0m
0V
0e
0A
1-
#76
0-
#77
0&
1^
1m
b100 [
b1 d
0V
0e
1A
1-
#78
0-
#79
1&
0^
0m
0V
0e
0A
1-
#80
0-
#81
0&
1^
1m
b101 [
b1 d
0V
0e
1A
1-
#82
0-
#83
1&
0^
0m
0V
0e
0A
1-
#84
0-
#85
0&
1^
1m
b110 [
b1 d
0V
0e
1A
1-
#86
0-
#87
1&
0^
0m
0V
0e
0A
1-
#88
0-
#89
0&
1^
1m
b111 [
b1 d
0V
0e
1A
1-
#90
0-
#91
1&
0^
0m
0V
0e
0A
1-
#92
0-
#93
b0 ]
0&
1^
1m
1\
b1000 [
b1 d
0V
0e
1A
1-
#94
0-
#95
1&
0^
0m
0V
0e
0A
1-
#96
0-
#97
b10 S
0&
1^
1m
b0 `
0\
b0 [
1P
0_
0V
0e
1A
1-
#98
0-
#99
0^
0m
0V
0e
0A
1-
#100
0-
#101
b11 S
1#
1^
1m
b10 U
0V
0e
1A
1-
#102
0-
#103
0^
0m
0V
0e
0A
1-
#104
0-
#105
b101 K
1G
0#
1^
1m
b11 U
0V
0e
1A
1-
#106
0-
#107
0^
0m
0V
0e
0A
1-
#108
0-
#109
1N
1^
1m
b101 O
0V
0e
1A
1-
#110
0-
#111
0^
0m
0V
0e
0A
1-
#112
0-
#113
b1 l
b11 q
b1000 r
1^
1m
1o
0V
0e
1A
1-
#114
0-
#115
0^
0m
0V
0e
0A
1-
#116
0-
#117
b110 K
b10 l
1^
1m
0E
b1 p
0V
0e
1A
1-
#118
0-
#119
0^
0m
b11 s
0V
0e
0A
1-
#120
0-
#121
0N
1^
1m
b110 O
b10 p
b1 j
b11 s
0V
0e
1A
1-
#122
0-
#123
0^
b0x1111 '
b0x1111 5
1"
0m
0V
0e
0A
1-
#124
0-
#125
1^
b1x1111 '
b1x1111 5
0"
1m
b10 j
b11 t
0V
0e
1A
1-
#126
0-
#127
0^
b0x1111 '
b0x1111 5
1"
0m
0V
0e
0A
1-
#128
0-
#129
1^
b1x1111 '
b1x1111 5
0"
1m
b11 j
b11 t
0V
0e
1A
1-
#130
0-
#131
0^
b0x1111 '
b0x1111 5
1"
0m
0V
0e
0A
1-
#132
0-
#133
1^
b1x1111 '
b1x1111 5
0"
1m
b100 j
b11 t
0V
0e
1A
1-
#134
0-
#135
0^
b0x1111 '
b0x1111 5
1"
0m
0V
0e
0A
1-
#136
0-
#137
1^
b1x1111 '
b1x1111 5
0"
1m
b101 j
b11 t
0V
0e
1A
1-
#138
0-
#139
0^
b0x1111 '
b0x1111 5
1"
0m
0V
0e
0A
1-
#140
0-
#141
1^
b1x1111 '
b1x1111 5
0"
1m
b110 j
b11 t
0V
0e
1A
1-
#142
0-
#143
0^
b0x1111 '
b0x1111 5
1"
0m
0V
0e
0A
1-
#144
0-
#145
1^
b1x1111 '
b1x1111 5
0"
1m
b111 j
b11 t
0V
0e
1A
1-
#146
0-
#147
0^
b0x1111 '
b0x1111 5
1"
0m
0V
0e
0A
1-
#148
0-
#149
b0 l
1^
b1 !
b1 3
b1 F
b1 n
b1x1111 '
b1x1111 5
0"
1m
1k
b1000 j
b11 t
0V
0e
1A
1-
#150
0-
#151
0^
b0x1111 '
b0x1111 5
1"
0m
0V
0e
0A
1-
#152
0-
#153
b1 K
1^
b0 !
b0 3
b0 F
b0 n
b1x1111 '
b1x1111 5
0"
1m
b0 p
0k
b0 j
1E
0o
0V
0e
1A
1-
#154
0-
#155
0^
0m
0V
0e
0A
1-
#156
0-
#157
b10 @
b1x0111 '
b1x0111 5
12
1^
1m
b1 O
0V
0e
1A
1-
#158
0-
#159
0^
0m
0V
0e
0A
1-
#160
0-
#161
1^
1m
b1 ;
b10 C
b101 K
0V
b1x0011 '
b1x0011 5
1?
0e
1A
1-
#162
0-
#163
0^
0m
0V
0e
0A
1-
#164
0-
#165
b11 @
1N
b1x1011 '
b1x1011 5
02
1^
1m
b101 O
0V
0e
1A
1-
#166
0-
#167
0^
0m
0V
0e
0A
1-
#168
0-
#169
b1 l
b1000 r
b11 q
1^
1m
b11 C
1o
0V
b1x1111 '
b1x1111 5
0?
0e
1A
1-
#170
0-
#171
0^
0m
0V
0e
0A
1-
#172
0-
#173
b110 K
b10 l
1^
1m
0E
b1 p
0V
0e
1A
1-
#174
0-
#175
0^
0m
b11 s
0V
0e
0A
1-
#176
0-
#177
0N
1^
1m
b110 O
b10 p
b1 j
b11 s
0V
0e
1A
1-
#178
0-
#179
0^
b0x1111 '
b0x1111 5
1"
0m
0V
0e
0A
1-
#180
0-
#181
1^
b1x1111 '
b1x1111 5
0"
1m
b10 j
b11 t
0V
0e
1A
1-
#182
0-
#183
0^
b0x1111 '
b0x1111 5
1"
0m
0V
0e
0A
1-
#184
0-
#185
1^
b1x1111 '
b1x1111 5
0"
1m
b11 j
b11 t
0V
0e
1A
1-
#186
0-
#187
0^
b0x1111 '
b0x1111 5
1"
0m
0V
0e
0A
1-
#188
0-
#189
1^
b1x1111 '
b1x1111 5
0"
1m
b100 j
b11 t
0V
0e
1A
1-
#190
0-
#191
0^
b0x1111 '
b0x1111 5
1"
0m
0V
0e
0A
1-
#192
0-
#193
1^
b1x1111 '
b1x1111 5
0"
1m
b101 j
b11 t
0V
0e
1A
1-
#194
0-
#195
0^
b0x1111 '
b0x1111 5
1"
0m
0V
0e
0A
1-
#196
0-
#197
1^
b1x1111 '
b1x1111 5
0"
1m
b110 j
b11 t
0V
0e
1A
1-
#198
0-
#199
0^
b0x1111 '
b0x1111 5
1"
0m
0V
0e
0A
1-
#200
0-
#201
1^
b1x1111 '
b1x1111 5
0"
1m
b111 j
b11 t
0V
0e
1A
1-
#202
0-
#203
0^
b0x1111 '
b0x1111 5
1"
0m
0V
0e
0A
1-
#204
0-
#205
b0 l
1^
b1 !
b1 3
b1 F
b1 n
b1x1111 '
b1x1111 5
0"
1m
1k
b1000 j
b11 t
0V
0e
1A
1-
#206
0-
#207
0^
b0x1111 '
b0x1111 5
1"
0m
0V
0e
0A
1-
#208
0-
#209
b1 K
1^
b0 !
b0 3
b0 F
b0 n
b1x1111 '
b1x1111 5
0"
1m
b0 p
0k
b0 j
1E
0o
0V
0e
1A
1-
#210
0-
#211
0^
0m
0V
0e
0A
1-
#212
0-
#213
b10 @
b1x0111 '
b1x0111 5
12
1^
1m
b1 O
0V
0e
1A
1-
#214
0-
#215
0^
0m
0V
0e
0A
1-
#216
0-
#217
1^
1m
b10 ;
b10 C
b101 K
0V
b1x0011 '
b1x0011 5
1?
0e
1A
1-
#218
0-
#219
0^
0m
0V
0e
0A
1-
#220
0-
#221
b11 @
1N
b1x1011 '
b1x1011 5
02
1^
1m
b101 O
0V
0e
1A
1-
#222
0-
#223
0^
0m
0V
0e
0A
1-
#224
0-
#225
b1 l
b1000 r
b11 q
1^
1m
b11 C
1o
0V
b1x1111 '
b1x1111 5
0?
0e
1A
1-
#226
0-
#227
0^
0m
0V
0e
0A
1-
#228
0-
#229
b110 K
b10 l
1^
1m
0E
b1 p
0V
0e
1A
1-
#230
0-
#231
0^
0m
b11 s
0V
0e
0A
1-
#232
0-
#233
0N
1^
1m
b110 O
b10 p
b1 j
b11 s
0V
0e
1A
1-
#234
0-
#235
0^
b0x1111 '
b0x1111 5
1"
0m
0V
0e
0A
1-
#236
0-
#237
1^
b1x1111 '
b1x1111 5
0"
1m
b10 j
b11 t
0V
0e
1A
1-
#238
0-
#239
0^
b0x1111 '
b0x1111 5
1"
0m
0V
0e
0A
1-
#240
0-
#241
1^
b1x1111 '
b1x1111 5
0"
1m
b11 j
b11 t
0V
0e
1A
1-
#242
0-
#243
0^
b0x1111 '
b0x1111 5
1"
0m
0V
0e
0A
1-
#244
0-
#245
1^
b1x1111 '
b1x1111 5
0"
1m
b100 j
b11 t
0V
0e
1A
1-
#246
0-
#247
0^
b0x1111 '
b0x1111 5
1"
0m
0V
0e
0A
1-
#248
0-
#249
1^
b1x1111 '
b1x1111 5
0"
1m
b101 j
b11 t
0V
0e
1A
1-
#250
0-
#251
0^
b0x1111 '
b0x1111 5
1"
0m
0V
0e
0A
1-
#252
0-
#253
1^
b1x1111 '
b1x1111 5
0"
1m
b110 j
b11 t
0V
0e
1A
1-
#254
0-
#255
0^
b0x1111 '
b0x1111 5
1"
0m
0V
0e
0A
1-
#256
0-
#257
1^
b1x1111 '
b1x1111 5
0"
1m
b111 j
b11 t
0V
0e
1A
1-
#258
0-
#259
0^
b0x1111 '
b0x1111 5
1"
0m
0V
0e
0A
1-
#260
0-
#261
b0 l
1^
b1 !
b1 3
b1 F
b1 n
b1x1111 '
b1x1111 5
0"
1m
1k
b1000 j
b11 t
0V
0e
1A
1-
#262
0-
#263
0^
b0x1111 '
b0x1111 5
1"
0m
0V
0e
0A
1-
#264
0-
#265
b1 K
1^
b0 !
b0 3
b0 F
b0 n
b1x1111 '
b1x1111 5
0"
1m
b0 p
0k
b0 j
1E
0o
0V
0e
1A
1-
#266
0-
#267
0^
0m
0V
0e
0A
1-
#268
0-
#269
b10 @
b1x0111 '
b1x0111 5
12
1^
1m
b1 O
0V
0e
1A
1-
#270
0-
#271
0^
0m
0V
0e
0A
1-
#272
0-
#273
1^
1m
b11 ;
b10 C
b101 K
0V
b1x0011 '
b1x0011 5
1?
0e
1A
1-
#274
0-
#275
0^
0m
0V
0e
0A
1-
#276
0-
#277
b11 @
1N
b1x1011 '
b1x1011 5
02
1^
1m
b101 O
0V
0e
1A
1-
#278
0-
#279
0^
0m
0V
0e
0A
1-
#280
0-
#281
b1 l
b1000 r
b11 q
1^
1m
b11 C
1o
0V
b1x1111 '
b1x1111 5
0?
0e
1A
1-
#282
0-
#283
0^
0m
0V
0e
0A
1-
#284
0-
#285
b110 K
b10 l
1^
1m
0E
b1 p
0V
0e
1A
1-
#286
0-
#287
0^
0m
b11 s
0V
0e
0A
1-
#288
0-
#289
0N
1^
1m
b110 O
b10 p
b1 j
b11 s
0V
0e
1A
1-
#290
0-
#291
0^
b0x1111 '
b0x1111 5
1"
0m
0V
0e
0A
1-
#292
0-
#293
1^
b1x1111 '
b1x1111 5
0"
1m
b10 j
b11 t
0V
0e
1A
1-
#294
0-
#295
0^
b0x1111 '
b0x1111 5
1"
0m
0V
0e
0A
1-
#296
0-
#297
1^
b1x1111 '
b1x1111 5
0"
1m
b11 j
b11 t
0V
0e
1A
1-
#298
0-
#299
0^
b0x1111 '
b0x1111 5
1"
0m
0V
0e
0A
1-
#300
0-
#301
1^
b1x1111 '
b1x1111 5
0"
1m
b100 j
b11 t
0V
0e
1A
1-
#302
0-
#303
0^
b0x1111 '
b0x1111 5
1"
0m
0V
0e
0A
1-
#304
0-
#305
1^
b1x1111 '
b1x1111 5
0"
1m
b101 j
b11 t
0V
0e
1A
1-
#306
0-
#307
0^
b0x1111 '
b0x1111 5
1"
0m
0V
0e
0A
1-
#308
0-
#309
1^
b1x1111 '
b1x1111 5
0"
1m
b110 j
b11 t
0V
0e
1A
1-
#310
0-
#311
0^
b0x1111 '
b0x1111 5
1"
0m
0V
0e
0A
1-
#312
0-
#313
1^
b1x1111 '
b1x1111 5
0"
1m
b111 j
b11 t
0V
0e
1A
1-
#314
0-
#315
0^
b0x1111 '
b0x1111 5
1"
0m
0V
0e
0A
1-
#316
0-
#317
b0 l
1^
b1 !
b1 3
b1 F
b1 n
b1x1111 '
b1x1111 5
0"
1m
1k
b1000 j
b11 t
0V
0e
1A
1-
#318
0-
#319
0^
b0x1111 '
b0x1111 5
1"
0m
0V
0e
0A
1-
#320
0-
#321
b1 K
1^
b0 !
b0 3
b0 F
b0 n
b1x1111 '
b1x1111 5
0"
1m
b0 p
0k
b0 j
1E
0o
0V
0e
1A
1-
#322
0-
#323
0^
0m
0V
0e
0A
1-
#324
0-
#325
b10 @
b1x0111 '
b1x0111 5
12
1^
1m
b1 O
0V
0e
1A
1-
#326
0-
#327
0^
0m
0V
0e
0A
1-
#328
0-
#329
1^
1m
b100 ;
b10 C
b101 K
0V
b1x0011 '
b1x0011 5
1?
0e
1A
1-
#330
0-
#331
0^
0m
0V
0e
0A
1-
#332
0-
#333
b11 @
1N
b1x1011 '
b1x1011 5
02
1^
1m
b101 O
0V
0e
1A
1-
#334
0-
#335
0^
0m
0V
0e
0A
1-
#336
0-
#337
b1 l
b1000 r
b11 q
1^
1m
b11 C
1o
0V
b1x1111 '
b1x1111 5
0?
0e
1A
1-
#338
0-
#339
0^
0m
0V
0e
0A
1-
#340
0-
#341
b110 K
b10 l
1^
1m
0E
b1 p
0V
0e
1A
1-
#342
0-
#343
0^
0m
b11 s
0V
0e
0A
1-
#344
0-
#345
0N
1^
1m
b110 O
b10 p
b1 j
b11 s
0V
0e
1A
1-
#346
0-
#347
0^
b0x1111 '
b0x1111 5
1"
0m
0V
0e
0A
1-
#348
0-
#349
1^
b1x1111 '
b1x1111 5
0"
1m
b10 j
b11 t
0V
0e
1A
1-
#350
0-
#351
0^
b0x1111 '
b0x1111 5
1"
0m
0V
0e
0A
1-
#352
0-
#353
1^
b1x1111 '
b1x1111 5
0"
1m
b11 j
b11 t
0V
0e
1A
1-
#354
0-
#355
0^
b0x1111 '
b0x1111 5
1"
0m
0V
0e
0A
1-
#356
0-
#357
1^
b1x1111 '
b1x1111 5
0"
1m
b100 j
b11 t
0V
0e
1A
1-
#358
0-
#359
0^
b0x1111 '
b0x1111 5
1"
0m
0V
0e
0A
1-
#360
0-
#361
1^
b1x1111 '
b1x1111 5
0"
1m
b101 j
b11 t
0V
0e
1A
1-
#362
0-
#363
0^
b0x1111 '
b0x1111 5
1"
0m
0V
0e
0A
1-
#364
0-
#365
1^
b1x1111 '
b1x1111 5
0"
1m
b110 j
b11 t
0V
0e
1A
1-
#366
0-
#367
0^
b0x1111 '
b0x1111 5
1"
0m
0V
0e
0A
1-
#368
0-
#369
1^
b1x1111 '
b1x1111 5
0"
1m
b111 j
b11 t
0V
0e
1A
1-
#370
0-
#371
0^
b0x1111 '
b0x1111 5
1"
0m
0V
0e
0A
1-
#372
0-
#373
b0 l
1^
b1 !
b1 3
b1 F
b1 n
b1x1111 '
b1x1111 5
0"
1m
1k
b1000 j
b11 t
0V
0e
1A
1-
#374
0-
#375
0^
b0x1111 '
b0x1111 5
1"
0m
0V
0e
0A
1-
#376
0-
#377
b1 K
1^
b0 !
b0 3
b0 F
b0 n
b1x1111 '
b1x1111 5
0"
1m
b0 p
0k
b0 j
1E
0o
0V
0e
1A
1-
#378
0-
#379
0^
0m
0V
0e
0A
1-
#380
0-
#381
b10 @
b1x0111 '
b1x0111 5
12
1^
1m
b1 O
0V
0e
1A
1-
#382
0-
#383
0^
0m
0V
0e
0A
1-
#384
0-
#385
1^
1m
b101 ;
b10 C
b101 K
0V
b1x0011 '
b1x0011 5
1?
0e
1A
1-
#386
0-
#387
0^
0m
0V
0e
0A
1-
#388
0-
#389
b11 @
1N
b1x1011 '
b1x1011 5
02
1^
1m
b101 O
0V
0e
1A
1-
#390
0-
#391
0^
0m
0V
0e
0A
1-
#392
0-
#393
b1 l
b1000 r
b11 q
1^
1m
b11 C
1o
0V
b1x1111 '
b1x1111 5
0?
0e
1A
1-
#394
0-
#395
0^
0m
0V
0e
0A
1-
#396
0-
#397
b110 K
b10 l
1^
1m
0E
b1 p
0V
0e
1A
1-
#398
0-
#399
0^
0m
b11 s
0V
0e
0A
1-
#400
0-
#401
0N
1^
1m
b110 O
b10 p
b1 j
b11 s
0V
0e
1A
1-
#402
0-
#403
0^
b0x1111 '
b0x1111 5
1"
0m
0V
0e
0A
1-
#404
0-
#405
1^
b1x1111 '
b1x1111 5
0"
1m
b10 j
b11 t
0V
0e
1A
1-
#406
0-
#407
0^
b0x1111 '
b0x1111 5
1"
0m
0V
0e
0A
1-
#408
0-
#409
1^
b1x1111 '
b1x1111 5
0"
1m
b11 j
b11 t
0V
0e
1A
1-
#410
0-
#411
0^
b0x1111 '
b0x1111 5
1"
0m
0V
0e
0A
1-
#412
0-
#413
1^
b1x1111 '
b1x1111 5
0"
1m
b100 j
b11 t
0V
0e
1A
1-
#414
0-
#415
0^
b0x1111 '
b0x1111 5
1"
0m
0V
0e
0A
1-
#416
0-
#417
1^
b1x1111 '
b1x1111 5
0"
1m
b101 j
b11 t
0V
0e
1A
1-
#418
0-
#419
0^
b0x1111 '
b0x1111 5
1"
0m
0V
0e
0A
1-
#420
0-
#421
1^
b1x1111 '
b1x1111 5
0"
1m
b110 j
b11 t
0V
0e
1A
1-
#422
0-
#423
0^
b0x1111 '
b0x1111 5
1"
0m
0V
0e
0A
1-
#424
0-
#425
1^
b1x1111 '
b1x1111 5
0"
1m
b111 j
b11 t
0V
0e
1A
1-
#426
0-
#427
0^
b0x1111 '
b0x1111 5
1"
0m
0V
0e
0A
1-
#428
0-
#429
b0 l
1^
b1 !
b1 3
b1 F
b1 n
b1x1111 '
b1x1111 5
0"
1m
1k
b1000 j
b11 t
0V
0e
1A
1-
#430
0-
#431
0^
b0x1111 '
b0x1111 5
1"
0m
0V
0e
0A
1-
#432
0-
#433
b1 K
1^
b0 !
b0 3
b0 F
b0 n
b1x1111 '
b1x1111 5
0"
1m
b0 p
0k
b0 j
1E
0o
0V
0e
1A
1-
#434
0-
#435
0^
0m
0V
0e
0A
1-
#436
0-
#437
b10 @
b1x0111 '
b1x0111 5
12
1^
1m
b1 O
0V
0e
1A
1-
#438
0-
#439
0^
0m
0V
0e
0A
1-
#440
0-
#441
1^
1m
b110 ;
b10 C
b101 K
0V
b1x0011 '
b1x0011 5
1?
0e
1A
1-
#442
0-
#443
0^
0m
0V
0e
0A
1-
#444
0-
#445
b11 @
1N
b1x1011 '
b1x1011 5
02
1^
1m
b101 O
0V
0e
1A
1-
#446
0-
#447
0^
0m
0V
0e
0A
1-
#448
0-
#449
b1 l
b1000 r
b11 q
1^
1m
b11 C
1o
0V
b1x1111 '
b1x1111 5
0?
0e
1A
1-
#450
0-
#451
0^
0m
0V
0e
0A
1-
#452
0-
#453
b110 K
b10 l
1^
1m
0E
b1 p
0V
0e
1A
1-
#454
0-
#455
0^
0m
b11 s
0V
0e
0A
1-
#456
0-
#457
0N
1^
1m
b110 O
b10 p
b1 j
b11 s
0V
0e
1A
1-
#458
0-
#459
0^
b0x1111 '
b0x1111 5
1"
0m
0V
0e
0A
1-
#460
0-
#461
1^
b1x1111 '
b1x1111 5
0"
1m
b10 j
b11 t
0V
0e
1A
1-
#462
0-
#463
0^
b0x1111 '
b0x1111 5
1"
0m
0V
0e
0A
1-
#464
0-
#465
1^
b1x1111 '
b1x1111 5
0"
1m
b11 j
b11 t
0V
0e
1A
1-
#466
0-
#467
0^
b0x1111 '
b0x1111 5
1"
0m
0V
0e
0A
1-
#468
0-
#469
1^
b1x1111 '
b1x1111 5
0"
1m
b100 j
b11 t
0V
0e
1A
1-
#470
0-
#471
0^
b0x1111 '
b0x1111 5
1"
0m
0V
0e
0A
1-
#472
0-
#473
1^
b1x1111 '
b1x1111 5
0"
1m
b101 j
b11 t
0V
0e
1A
1-
#474
0-
#475
0^
b0x1111 '
b0x1111 5
1"
0m
0V
0e
0A
1-
#476
0-
#477
1^
b1x1111 '
b1x1111 5
0"
1m
b110 j
b11 t
0V
0e
1A
1-
#478
0-
#479
0^
b0x1111 '
b0x1111 5
1"
0m
0V
0e
0A
1-
#480
0-
#481
1^
b1x1111 '
b1x1111 5
0"
1m
b111 j
b11 t
0V
0e
1A
1-
#482
0-
#483
0^
b0x1111 '
b0x1111 5
1"
0m
0V
0e
0A
1-
#484
0-
#485
b0 l
1^
b1 !
b1 3
b1 F
b1 n
b1x1111 '
b1x1111 5
0"
1m
1k
b1000 j
b11 t
0V
0e
1A
1-
#486
0-
#487
0^
b0x1111 '
b0x1111 5
1"
0m
0V
0e
0A
1-
#488
0-
#489
b1 K
1^
b0 !
b0 3
b0 F
b0 n
b1x1111 '
b1x1111 5
0"
1m
b0 p
0k
b0 j
1E
0o
0V
0e
1A
1-
#490
0-
#491
0^
0m
0V
0e
0A
1-
#492
0-
#493
b10 @
b1x0111 '
b1x0111 5
12
1^
1m
b1 O
0V
0e
1A
1-
#494
0-
#495
0^
0m
0V
0e
0A
1-
#496
0-
#497
1^
1m
b111 ;
b10 C
b101 K
0V
b1x0011 '
b1x0011 5
1?
0e
1A
1-
#498
0-
#499
0^
0m
0V
0e
0A
1-
#500
0-
#501
b11 @
1N
b1x1011 '
b1x1011 5
02
1^
1m
b101 O
0V
0e
1A
1-
#502
0-
#503
0^
0m
0V
0e
0A
1-
#504
0-
#505
b1 l
b1000 r
b11 q
1^
1m
b11 C
1o
0V
b1x1111 '
b1x1111 5
0?
0e
1A
1-
#506
0-
#507
0^
0m
0V
0e
0A
1-
#508
0-
