HDMI_to_Matrix_FPGA/Test_Project/Nano9K_Test/sim/LED_Matrix_top.vcd
$date
	Sat Mar 22 23:05:48 2025
$end
$version
	Icarus Verilog
$end
$timescale
	1s
$end
$scope module LED_Matrix_top_tb $end
$var wire 3 ! spi_mosi [2:0] $end
$var wire 1 " spi_clk $end
$var wire 1 # shift_stcp $end
$var wire 1 $ shift_ser $end
$var wire 1 % shift_en $end
$var wire 1 & shift_clk $end
$var wire 6 ' led [5:0] $end
$var reg 1 ( I_tmds_clk_n $end
$var reg 1 ) I_tmds_clk_p $end
$var reg 3 * I_tmds_data_n [2:0] $end
$var reg 3 + I_tmds_data_p [2:0] $end
$var reg 2 , btn [1:0] $end
$var reg 1 - clk $end
$scope module uut $end
$var wire 1 ( I_tmds_clk_n $end
$var wire 1 ) I_tmds_clk_p $end
$var wire 3 . I_tmds_data_n [2:0] $end
$var wire 3 / I_tmds_data_p [2:0] $end
$var wire 2 0 btn [1:0] $end
$var wire 1 - clk $end
$var wire 1 1 tx_finish $end
$var wire 3 2 spi_mosi [2:0] $end
$var wire 1 " spi_clk $end
$var wire 1 # shift_stcp $end
$var wire 1 $ shift_ser $end
$var wire 1 % shift_en $end
$var wire 1 & shift_clk $end
$var wire 1 3 rst $end
$var wire 6 4 led [5:0] $end
$var parameter 96 5 BYTES_PER_MATRIX $end
$var parameter 32 6 CHANNEL_NUMBER $end
$var parameter 32 7 COUNTER_WIDTH $end
$var parameter 32 8 DIV_FACTOR $end
$var parameter 32 9 SPI_SIZE $end
$var reg 9 : counter [8:0] $end
$var reg 8 ; data [7:0] $end
$var reg 1 < new_column $end
$var reg 1 = new_image $end
$var reg 1 > next_data $end
$var reg 2 ? next_state [1:0] $end
$var reg 1 @ slow_clk $end
$var reg 32 A slow_counter [31:0] $end
$var reg 2 B state [1:0] $end
$scope module output_module_inst $end
$var wire 1 @ clk $end
$var wire 1 C extra_bit $end
$var wire 1 < new_column $end
$var wire 1 = new_image $end
$var wire 1 > next_data $end
$var wire 1 3 rst $end
$var wire 1 D spi_tx_finish $end
$var wire 3 E spi_mosi [2:0] $end
$var wire 1 " spi_clk $end
$var wire 1 # ser_stcp $end
$var wire 1 % ser_n_enable $end
$var wire 1 $ ser_data $end
$var wire 1 & ser_clk $end
$var wire 1 F column_select_ready $end
$var parameter 32 G CHANNEL_NUMBER $end
$var parameter 32 H MSB_FIRST $end
$var parameter 32 I SPI_SIZE $end
$var reg 3 J next_state [2:0] $end
$var reg 1 K select_first $end
$var reg 1 L select_next $end
$var reg 1 M spi_start_tx $end
$var reg 3 N state [2:0] $end
$var reg 1 1 tx_finish $end
$scope module cs $end
$var wire 1 @ clk $end
$var wire 1 C extra_bit $end
$var wire 1 3 rst $end
$var wire 1 K select_first $end
$var wire 1 L select_next $end
$var wire 1 O tx_finish $end
$var wire 1 $ ser_data $end
$var wire 1 & ser_clk $end
$var reg 8 P column_data [7:0] $end
$var reg 2 Q counter [1:0] $end
$var reg 3 R next_state [2:0] $end
$var reg 1 F ready $end
$var reg 1 % ser_n_enable $end
$var reg 1 # ser_stcp $end
$var reg 1 S start_tx $end
$var reg 3 T state [2:0] $end
$scope module shift_reg $end
$var wire 1 @ clk $end
$var wire 1 3 rst $end
$var wire 1 S start_tx $end
$var parameter 32 U CHANNEL_NUMBER $end
$var parameter 32 V COUNTER_WIDTH $end
$var parameter 32 W MSB_FIRST $end
$var parameter 32 X SPI_SIZE $end
$var reg 4 Y counter [3:0] $end
$var reg 1 Z counter_overflow_flag $end
$var reg 1 [ next $end
$var reg 2 \ next_state [1:0] $end
$var reg 1 & spi_clk $end
$var reg 1 $ spi_mosi $end
$var reg 1 ] start_tx_internal $end
$var reg 2 ^ state [1:0] $end
$var reg 1 O tx_finish $end
$scope begin $ivl_for_loop4 $end
$var integer 32 _ i [31:0] $end
$scope begin $ivl_for_loop5 $end
$var integer 32 ` j [31:0] $end
$upscope $end
$upscope $end
$scope begin $ivl_for_loop6 $end
$upscope $end
$scope begin $ivl_for_loop7 $end
$var integer 32 a i [31:0] $end
$upscope $end
$scope begin $ivl_for_loop8 $end
$var integer 32 b i [31:0] $end
$upscope $end
$upscope $end
$upscope $end
$scope module spi_tx $end
$var wire 1 @ clk $end
$var wire 1 3 rst $end
$var wire 1 M start_tx $end
$var parameter 32 c CHANNEL_NUMBER $end
$var parameter 32 d COUNTER_WIDTH $end
$var parameter 32 e MSB_FIRST $end
$var parameter 32 f SPI_SIZE $end
$var reg 4 g counter [3:0] $end
$var reg 1 h counter_overflow_flag $end
$var reg 1 i next $end
$var reg 2 j next_state [1:0] $end
$var reg 1 " spi_clk $end
$var reg 3 k spi_mosi [2:0] $end
$var reg 1 l start_tx_internal $end
$var reg 2 m state [1:0] $end
$var reg 1 D tx_finish $end
$scope begin $ivl_for_loop4 $end
$var integer 32 n i [31:0] $end
$scope begin $ivl_for_loop5 $end
$var integer 32 o j [31:0] $end
$upscope $end
$upscope $end
$scope begin $ivl_for_loop6 $end
$upscope $end
$scope begin $ivl_for_loop7 $end
$var integer 32 p i [31:0] $end
$upscope $end
$scope begin $ivl_for_loop8 $end
$var integer 32 q i [31:0] $end
$upscope $end
$upscope $end
$upscope $end
$upscope $end
$upscope $end
$enddefinitions $end
$comment Show the parameter values. $end
$dumpall
b1000 f
b1 e
b100 d
b11 c
b1000 X
b1 W
b100 V
b1 U
b1000 I
b1 H
b11 G
b1000 9
b10 8
b1001 7
b11 6
b110000000 5
$end
#0
$dumpvars
b0 q
b0 p
b0 o
b0 n
b0 m
0l
bx k
b0 j
1i
0h
b0 g
b0 b
b0 a
b0 `
b0 _
b0 ^
0]
b0 \
1[
0Z
b0 Y
b0 T
0S
b1 R
b0 Q
b0 P
xO
b0 N
0M
0L
0K
b0 J
0F
bx E
xD
1C
b0 B
b0 A
0@
b0 ?
x>
x=
x<
b0 ;
b0 :
bxz1xxx 4
03
bx 2
01
b11 0
b0 /
b111 .
0-
b11 ,
b0 +
b111 *
0)
1(
bxz1xxx '
x&
x%
x$
0#
x"
bx !
$end
#1
b10 R
1D
b0 !
b0 2
b0 E
b0 k
0"
1O
0$
0&
b1 T
b10 P
b1z1x1x '
b1z1x1x 4
0<
1@
1-
#2
0-
#3
0@
1-
#4
0-
#5
b1 R
b0 T
0O
0D
1@
0>
b1z1111 '
b1z1111 4
0=
b0 P
1%
13
1-
b10 ,
b10 0
#6
0-
#7
0@
1-
#8
0-
#9
1@
1-
#10
0-
#11
0@
1-
#12
0-
#13
1@
1-
#14
0-
#15
0@
1-
#16
0-
#17
1@
1-
#18
0-
#19
0@
1-
#20
0-
#21
1@
1-
#22
0-
#23
0@
1-
#24
0-
#25
b10 R
b1 T
1O
1D
b10 P
1@
b0 ?
03
1-
b11 ,
b11 0
#26
0-
#27
0@
1-
#28
0-
#29
b11 R
1#
b10 T
1@
1-
#30
0-
#31
0@
1-
#32
0-
#33
b1 J
1F
0#
b11 T
1@
1-
#34
0-
#35
0@
1-
#36
0-
#37
b1 ?
b1z0111 '
b1z0111 4
11
b1 N
1@
1-
#38
0-
#39
0@
1-
#40
0-
#41
b1 B
b10 J
b1z0110 '
b1z0110 4
1=
1@
1-
#42
0-
#43
0@
1-
#44
0-
#45
b100 R
b11 ?
1K
b1z1110 '
b1z1110 4
01
b10 N
1@
1-
#46
0-
#47
0@
1-
#48
0-
#49
b100 J
b110 R
0F
b11 B
b100 T
b1z1111 '
b1z1111 4
0=
b1 Q
1@
1-
#50
0-
#51
0@
1-
#52
0-
#53
1S
0K
b110 T
b100 N
1@
1-
#54
0-
#55
0@
1-
#56
0-
#57
b1 \
b1 _
b1000 `
1]
1@
1-
#58
0-
#59
0@
1-
#60
0-
#61
b1 R
b10 \
0O
b1 ^
1@
1-
#62
0-
#63
0@
1-
#64
0-
#65
0S
b1 T
b10 ^
b1 a
1@
1-
#66
0-
#67
0@
1-
#68
0-
#69
0[
b1 b
1@
1-
#70
0-
#71
0@
1-
#72
0-
#73
b1 Y
1&
1[
1@
1-
#74
0-
#75
0@
1-
#76
0-
#77
0&
0[
b1 b
1@
1-
#78
0-
#79
0@
1-
#80
0-
#81
b10 Y
1&
1[
1@
1-
#82
0-
#83
0@
1-
#84
0-
#85
0&
0[
b1 b
1@
1-
#86
0-
#87
0@
1-
#88
0-
#89
b11 Y
1&
1[
1@
1-
#90
0-
#91
0@
1-
#92
0-
#93
0&
0[
b1 b
1@
1-
#94
0-
#95
0@
1-
#96
0-
#97
b100 Y
1&
1[
1@
1-
#98
0-
#99
0@
1-
#100
0-
#101
0&
0[
b1 b
1@
1-
#102
0-
#103
0@
1-
#104
0-
#105
b101 Y
1&
1[
1@
1-
#106
0-
#107
0@
1-
#108
0-
#109
0&
0[
b1 b
1@
1-
#110
0-
#111
0@
1-
#112
0-
#113
b110 Y
1&
1[
1@
1-
#114
0-
#115
0@
1-
#116
0-
#117
1$
0&
0[
b1 b
1@
1-
#118
0-
#119
0@
1-
#120
0-
#121
b111 Y
1&
1[
1@
1-
#122
0-
#123
0@
1-
#124
0-
#125
b0 \
0$
0&
0[
1Z
b1 b
1@
1-
#126
0-
#127
0@
1-
#128
0-
#129
b10 R
b0 ^
0Z
b0 Y
1O
0]
1&
1[
1@
1-
#130
0-
#131
0@
1-
#132
0-
#133
b11 R
1#
0&
b10 T
1@
1-
#134
0-
#135
0@
1-
#136
0-
#137
b101 J
1F
0#
b11 T
1@
1-
#138
0-
#139
0@
1-
#140
0-
#141
1M
b101 N
1@
1-
#142
0-
#143
0@
1-
#144
0-
#145
b1 j
b11 n
b1000 o
1l
1@
1-
#146
0-
#147
0@
1-
#148
0-
#149
b110 J
b10 j
0D
b1 m
1@
1-
#150
0-
#151
0@
1-
#152
0-
#153
0M
b110 N
b10 m
b11 p
1@
1-
#154
0-
#155
0@
1-
#156
0-
#157
0i
b11 q
1@
1-
#158
0-
#159
0@
1-
#160
0-
#161
b1 g
b0z1111 '
b0z1111 4
1"
1i
1@
1-
#162
0-
#163
0@
1-
#164
0-
#165
b1z1111 '
b1z1111 4
0"
0i
b11 q
1@
1-
#166
0-
#167
0@
1-
#168
0-
#169
b10 g
b0z1111 '
b0z1111 4
1"
1i
1@
1-
#170
0-
#171
0@
1-
#172
0-
#173
b1z1111 '
b1z1111 4
0"
0i
b11 q
1@
1-
#174
0-
#175
0@
1-
#176
0-
#177
b11 g
b0z1111 '
b0z1111 4
1"
1i
1@
1-
#178
0-
#179
0@
1-
#180
0-
#181
b1z1111 '
b1z1111 4
0"
0i
b11 q
1@
1-
#182
0-
#183
0@
1-
#184
0-
#185
b100 g
b0z1111 '
b0z1111 4
1"
1i
1@
1-
#186
0-
#187
0@
1-
#188
0-
#189
b1z1111 '
b1z1111 4
0"
0i
b11 q
1@
1-
#190
0-
#191
0@
1-
#192
0-
#193
b101 g
b0z1111 '
b0z1111 4
1"
1i
1@
1-
#194
0-
#195
0@
1-
#196
0-
#197
b1z1111 '
b1z1111 4
0"
0i
b11 q
1@
1-
#198
0-
#199
0@
1-
#200
0-
#201
b110 g
b0z1111 '
b0z1111 4
1"
1i
1@
1-
#202
0-
#203
0@
1-
#204
0-
#205
b1z1111 '
b1z1111 4
0"
0i
b11 q
1@
1-
#206
0-
#207
0@
1-
#208
0-
#209
b111 g
b0z1111 '
b0z1111 4
1"
1i
1@
1-
#210
0-
#211
0@
1-
#212
0-
#213
b0 j
b1 !
b1 2
b1 E
b1 k
b1z1111 '
b1z1111 4
0"
0i
1h
b11 q
1@
1-
#214
0-
#215
0@
1-
#216
0-
#217
b1 J
b0 m
0h
b0 g
1D
0l
b0z1111 '
b0z1111 4
1"
1i
1@
1-
#218
0-
#219
0@
1-
#220
0-
#221
b10 ?
11
b0 !
b0 2
b0 E
b0 k
b1z0111 '
b1z0111 4
0"
b1 N
1@
1-
#222
0-
#223
0@
1-
#224
0-
#225
b1 :
b10 B
b101 J
b1z0011 '
b1z0011 4
1>
1@
1-
#226
0-
#227
0@
1-
#228
0-
#229
b11 ?
1M
b1z1011 '
b1z1011 4
01
b101 N
1@
1-
#230
0-
#231
0@
1-
#232
0-
#233
b1 j
b1000 o
b11 n
b11 B
1l
b1z1111 '
b1z1111 4
0>
1@
1-
#234
0-
#235
0@
1-
#236
0-
#237
b110 J
b10 j
0D
b1 m
1@
1-
#238
0-
#239
0@
1-
#240
0-
#241
0M
b1 !
b1 2
b1 E
b1 k
b110 N
b10 m
b11 p
1@
1-
#242
0-
#243
0@
1-
#244
0-
#245
0i
b11 q
1@
1-
#246
0-
#247
0@
1-
#248
0-
#249
b1 g
b0z1111 '
b0z1111 4
1"
1i
1@
1-
#250
0-
#251
0@
1-
#252
0-
#253
b1z1111 '
b1z1111 4
0"
0i
b11 q
1@
1-
#254
0-
#255
0@
1-
#256
0-
#257
b10 g
b0z1111 '
b0z1111 4
1"
1i
1@
1-
#258
0-
#259
0@
1-
#260
0-
#261
b1z1111 '
b1z1111 4
0"
0i
b11 q
1@
1-
#262
0-
#263
0@
1-
#264
0-
#265
b11 g
b0z1111 '
b0z1111 4
1"
1i
1@
1-
#266
0-
#267
0@
1-
#268
0-
#269
b1z1111 '
b1z1111 4
0"
0i
b11 q
1@
1-
#270
0-
#271
0@
1-
#272
0-
#273
b100 g
b0z1111 '
b0z1111 4
1"
1i
1@
1-
#274
0-
#275
0@
1-
#276
0-
#277
b1z1111 '
b1z1111 4
0"
0i
b11 q
1@
1-
#278
0-
#279
0@
1-
#280
0-
#281
b101 g
b0z1111 '
b0z1111 4
1"
1i
1@
1-
#282
0-
#283
0@
1-
#284
0-
#285
b1z1111 '
b1z1111 4
0"
0i
b11 q
1@
1-
#286
0-
#287
0@
1-
#288
0-
#289
b110 g
b0z1111 '
b0z1111 4
1"
1i
1@
1-
#290
0-
#291
0@
1-
#292
0-
#293
b1z1111 '
b1z1111 4
0"
0i
b11 q
1@
1-
#294
0-
#295
0@
1-
#296
0-
#297
b111 g
b0z1111 '
b0z1111 4
1"
1i
1@
1-
#298
0-
#299
0@
1-
#300
0-
#301
b0 j
b1z1111 '
b1z1111 4
0"
0i
1h
b11 q
1@
1-
#302
0-
#303
0@
1-
#304
0-
#305
b1 J
b0 m
0h
b0 g
1D
0l
b0z1111 '
b0z1111 4
1"
1i
1@
1-
#306
0-
#307
0@
1-
#308
0-
#309
b10 ?
11
b0 !
b0 2
b0 E
b0 k
b1z0111 '
b1z0111 4
0"
b1 N
1@
1-
#310
0-
#311
0@
1-
#312
0-
#313
b10 :
b10 B
b101 J
b1z0011 '
b1z0011 4
1>
1@
1-
#314
0-
#315
0@
1-
#316
0-
#317
b11 ?
1M
b1z1011 '
b1z1011 4
01
b101 N
1@
1-
#318
0-
#319
0@
1-
#320
0-
#321
b1 j
b1000 o
b11 n
b11 B
1l
b1z1111 '
b1z1111 4
0>
1@
1-
#322
0-
#323
0@
1-
#324
0-
#325
b110 J
b10 j
0D
b1 m
1@
1-
#326
0-
#327
0@
1-
#328
0-
#329
0M
b1 !
b1 2
b1 E
b1 k
b110 N
b10 m
b11 p
1@
1-
#330
0-
#331
0@
1-
#332
0-
#333
0i
b11 q
1@
1-
#334
0-
#335
0@
1-
#336
0-
#337
b1 g
b0z1111 '
b0z1111 4
1"
1i
1@
1-
#338
0-
#339
0@
1-
#340
0-
#341
b1z1111 '
b1z1111 4
0"
0i
b11 q
1@
1-
#342
0-
#343
0@
1-
#344
0-
#345
b10 g
b0z1111 '
b0z1111 4
1"
1i
1@
1-
#346
0-
#347
0@
1-
#348
0-
#349
b1z1111 '
b1z1111 4
0"
0i
b11 q
1@
1-
#350
0-
#351
0@
1-
#352
0-
#353
b11 g
b0z1111 '
b0z1111 4
1"
1i
1@
1-
#354
0-
#355
0@
1-
#356
0-
#357
b1z1111 '
b1z1111 4
0"
0i
b11 q
1@
1-
#358
0-
#359
0@
1-
#360
0-
#361
b100 g
b0z1111 '
b0z1111 4
1"
1i
1@
1-
#362
0-
#363
0@
1-
#364
0-
#365
b1z1111 '
b1z1111 4
0"
0i
b11 q
1@
1-
#366
0-
#367
0@
1-
#368
0-
#369
b101 g
b0z1111 '
b0z1111 4
1"
1i
1@
1-
#370
0-
#371
0@
1-
#372
0-
#373
b1z1111 '
b1z1111 4
0"
0i
b11 q
1@
1-
#374
0-
#375
0@
1-
#376
0-
#377
b110 g
b0z1111 '
b0z1111 4
1"
1i
1@
1-
#378
0-
#379
0@
1-
#380
0-
#381
b1z1111 '
b1z1111 4
0"
0i
b11 q
1@
1-
#382
0-
#383
0@
1-
#384
0-
#385
b111 g
b0z1111 '
b0z1111 4
1"
1i
1@
1-
#386
0-
#387
0@
1-
#388
0-
#389
b0 j
b1z1111 '
b1z1111 4
0"
0i
1h
b11 q
1@
1-
#390
0-
#391
0@
1-
#392
0-
#393
b1 J
b0 m
0h
b0 g
1D
0l
b0z1111 '
b0z1111 4
1"
1i
1@
1-
#394
0-
#395
0@
1-
#396
0-
#397
b10 ?
11
b0 !
b0 2
b0 E
b0 k
b1z0111 '
b1z0111 4
0"
b1 N
1@
1-
#398
0-
#399
0@
1-
#400
0-
#401
b11 :
b10 B
b101 J
b1z0011 '
b1z0011 4
1>
1@
1-
#402
0-
#403
0@
1-
#404
0-
#405
b11 ?
1M
b1z1011 '
b1z1011 4
01
b101 N
1@
1-
#406
0-
#407
0@
1-
#408
0-
#409
b1 j
b1000 o
b11 n
b11 B
1l
b1z1111 '
b1z1111 4
0>
1@
1-
#410
0-
#411
0@
1-
#412
0-
#413
b110 J
b10 j
0D
b1 m
1@
1-
#414
0-
#415
0@
1-
#416
0-
#417
0M
b1 !
b1 2
b1 E
b1 k
b110 N
b10 m
b11 p
1@
1-
#418
0-
#419
0@
1-
#420
0-
#421
0i
b11 q
1@
1-
#422
0-
#423
0@
1-
#424
0-
#425
b1 g
b0z1111 '
b0z1111 4
1"
1i
1@
1-
#426
0-
#427
0@
1-
#428
0-
#429
b1z1111 '
b1z1111 4
0"
0i
b11 q
1@
1-
#430
0-
#431
0@
1-
#432
0-
#433
b10 g
b0z1111 '
b0z1111 4
1"
1i
1@
1-
#434
0-
#435
0@
1-
#436
0-
#437
b1z1111 '
b1z1111 4
0"
0i
b11 q
1@
1-
#438
0-
#439
0@
1-
#440
0-
#441
b11 g
b0z1111 '
b0z1111 4
1"
1i
1@
1-
#442
0-
#443
0@
1-
#444
0-
#445
b1z1111 '
b1z1111 4
0"
0i
b11 q
1@
1-
#446
0-
#447
0@
1-
#448
0-
#449
b100 g
b0z1111 '
b0z1111 4
1"
1i
1@
1-
#450
0-
#451
0@
1-
#452
0-
#453
b1z1111 '
b1z1111 4
0"
0i
b11 q
1@
1-
#454
0-
#455
0@
1-
#456
0-
#457
b101 g
b0z1111 '
b0z1111 4
1"
1i
1@
1-
#458
0-
#459
0@
1-
#460
0-
#461
b1z1111 '
b1z1111 4
0"
0i
b11 q
1@
1-
#462
0-
#463
0@
1-
#464
0-
#465
b110 g
b0z1111 '
b0z1111 4
1"
1i
1@
1-
#466
0-
#467
0@
1-
#468
0-
#469
b1z1111 '
b1z1111 4
0"
0i
b11 q
1@
1-
#470
0-
#471
0@
1-
#472
0-
#473
b111 g
b0z1111 '
b0z1111 4
1"
1i
1@
1-
#474
0-
#475
0@
1-
#476
0-
#477
b0 j
b1z1111 '
b1z1111 4
0"
0i
1h
b11 q
1@
1-
#478
0-
#479
0@
1-
#480
0-
#481
b1 J
b0 m
0h
b0 g
1D
0l
b0z1111 '
b0z1111 4
1"
1i
1@
1-
#482
0-
#483
0@
1-
#484
0-
#485
b10 ?
11
b0 !
b0 2
b0 E
b0 k
b1z0111 '
b1z0111 4
0"
b1 N
1@
1-
#486
0-
#487
0@
1-
#488
0-
#489
b100 :
b10 B
b101 J
b1z0011 '
b1z0011 4
1>
1@
1-
#490
0-
#491
0@
1-
#492
0-
#493
b11 ?
1M
b1z1011 '
b1z1011 4
01
b101 N
1@
1-
#494
0-
#495
0@
1-
#496
0-
#497
b1 j
b1000 o
b11 n
b11 B
1l
b1z1111 '
b1z1111 4
0>
1@
1-
#498
0-
#499
0@
1-
#500
0-
#501
b110 J
b10 j
0D
b1 m
1@
1-
#502
0-
#503
0@
1-
#504
0-
#505
0M
b1 !
b1 2
b1 E
b1 k
b110 N
b10 m
b11 p
1@
1-
#506
0-
#507
0@
1-
#508
0-
#509
0i
b11 q
1@
1-
#510
0-
#511
0@
1-
#512
0-
#513
b1 g
b0z1111 '
b0z1111 4
1"
1i
1@
1-
#514
0-
#515
0@
1-
#516
0-
#517
b1z1111 '
b1z1111 4
0"
0i
b11 q
1@
1-
#518
0-
#519
0@
1-
#520
0-
#521
b10 g
b0z1111 '
b0z1111 4
1"
1i
1@
1-
#522
0-
#523
0@
1-
#524
0-
#525
b1z1111 '
b1z1111 4
0"
0i
b11 q
1@
1-
#526
0-
#527
0@
1-
#528
0-
#529
b11 g
b0z1111 '
b0z1111 4
1"
1i
1@
1-
#530
0-
#531
0@
1-
#532
0-
#533
b1z1111 '
b1z1111 4
0"
0i
b11 q
1@
1-
#534
0-
#535
0@
1-
#536
0-
#537
b100 g
b0z1111 '
b0z1111 4
1"
1i
1@
1-
#538
0-
#539
0@
1-
#540
0-
#541
b1z1111 '
b1z1111 4
0"
0i
b11 q
1@
1-
#542
0-
#543
0@
1-
#544
0-
#545
b101 g
b0z1111 '
b0z1111 4
1"
1i
1@
1-
#546
0-
#547
0@
1-
#548
0-
#549
b1z1111 '
b1z1111 4
0"
0i
b11 q
1@
1-
#550
0-
#551
0@
1-
#552
0-
#553
b110 g
b0z1111 '
b0z1111 4
1"
1i
1@
1-
#554
0-
#555
0@
1-
#556
0-
#557
b1z1111 '
b1z1111 4
0"
0i
b11 q
1@
1-
#558
0-
#559
0@
1-
#560
0-
#561
b111 g
b0z1111 '
b0z1111 4
1"
1i
1@
1-
#562
0-
#563
0@
1-
#564
0-
#565
b0 j
b1z1111 '
b1z1111 4
0"
0i
1h
b11 q
1@
1-
#566
0-
#567
0@
1-
#568
0-
#569
b1 J
b0 m
0h
b0 g
1D
0l
b0z1111 '
b0z1111 4
1"
1i
1@
1-
#570
0-
#571
0@
1-
#572
0-
#573
b10 ?
11
b0 !
b0 2
b0 E
b0 k
b1z0111 '
b1z0111 4
0"
b1 N
1@
1-
#574
0-
#575
0@
1-
#576
0-
#577
b101 :
b10 B
b101 J
b1z0011 '
b1z0011 4
1>
1@
1-
#578
0-
#579
0@
1-
#580
0-
#581
b11 ?
1M
b1z1011 '
b1z1011 4
01
b101 N
1@
1-
#582
0-
#583
0@
1-
#584
0-
#585
b1 j
b1000 o
b11 n
b11 B
1l
b1z1111 '
b1z1111 4
0>
1@
1-
#586
0-
#587
0@
1-
#588
0-
#589
b110 J
b10 j
0D
b1 m
1@
1-
#590
0-
#591
0@
1-
#592
0-
#593
0M
b1 !
b1 2
b1 E
b1 k
b110 N
b10 m
b11 p
1@
1-
#594
0-
#595
0@
1-
#596
0-
#597
0i
b11 q
1@
1-
#598
0-
#599
0@
1-
#600
0-
#601
b1 g
b0z1111 '
b0z1111 4
1"
1i
1@
1-
#602
0-
#603
0@
1-
#604
0-
#605
b1z1111 '
b1z1111 4
0"
0i
b11 q
1@
1-
#606
0-
#607
0@
1-
#608
0-
#609
b10 g
b0z1111 '
b0z1111 4
1"
1i
1@
1-
#610
0-
#611
0@
1-
#612
0-
#613
b1z1111 '
b1z1111 4
0"
0i
b11 q
1@
1-
#614
0-
#615
0@
1-
#616
0-
#617
b11 g
b0z1111 '
b0z1111 4
1"
1i
1@
1-
#618
0-
#619
0@
1-
#620
0-
#621
b1z1111 '
b1z1111 4
0"
0i
b11 q
1@
1-
#622
0-
#623
0@
1-
#624
0-
#625
b100 g
b0z1111 '
b0z1111 4
1"
1i
1@
1-
#626
0-
#627
0@
1-
#628
0-
#629
b1z1111 '
b1z1111 4
0"
0i
b11 q
1@
1-
#630
0-
#631
0@
1-
#632
0-
#633
b101 g
b0z1111 '
b0z1111 4
1"
1i
1@
1-
#634
0-
#635
0@
1-
#636
0-
#637
b1z1111 '
b1z1111 4
0"
0i
b11 q
1@
1-
#638
0-
#639
0@
1-
#640
0-
#641
b110 g
b0z1111 '
b0z1111 4
1"
1i
1@
1-
#642
0-
#643
0@
1-
#644
0-
#645
b1z1111 '
b1z1111 4
0"
0i
b11 q
1@
1-
#646
0-
#647
0@
1-
#648
0-
#649
b111 g
b0z1111 '
b0z1111 4
1"
1i
1@
1-
#650
0-
#651
0@
1-
#652
0-
#653
b0 j
b1z1111 '
b1z1111 4
0"
0i
1h
b11 q
1@
1-
#654
0-
#655
0@
1-
#656
0-
#657
b1 J
b0 m
0h
b0 g
1D
0l
b0z1111 '
b0z1111 4
1"
1i
1@
1-
#658
0-
#659
0@
1-
#660
0-
#661
b10 ?
11
b0 !
b0 2
b0 E
b0 k
b1z0111 '
b1z0111 4
0"
b1 N
1@
1-
#662
0-
#663
0@
1-
#664
0-
#665
b110 :
b10 B
b101 J
b1z0011 '
b1z0011 4
1>
1@
1-
#666
0-
#667
0@
1-
#668
0-
#669
b11 ?
1M
b1z1011 '
b1z1011 4
01
b101 N
1@
1-
#670
0-
#671
0@
1-
#672
0-
#673
b1 j
b1000 o
b11 n
b11 B
1l
b1z1111 '
b1z1111 4
0>
1@
1-
#674
0-
#675
0@
1-
#676
0-
#677
b110 J
b10 j
0D
b1 m
1@
1-
#678
0-
#679
0@
1-
#680
0-
#681
0M
b1 !
b1 2
b1 E
b1 k
b110 N
b10 m
b11 p
1@
1-
#682
0-
#683
0@
1-
#684
0-
#685
0i
b11 q
1@
1-
#686
0-
#687
0@
1-
#688
0-
#689
b1 g
b0z1111 '
b0z1111 4
1"
1i
1@
1-
#690
0-
#691
0@
1-
#692
0-
#693
b1z1111 '
b1z1111 4
0"
0i
b11 q
1@
1-
#694
0-
#695
0@
1-
#696
0-
#697
b10 g
b0z1111 '
b0z1111 4
1"
1i
1@
1-
#698
0-
#699
0@
1-
#700
0-
#701
b1z1111 '
b1z1111 4
0"
0i
b11 q
1@
1-
#702
0-
#703
0@
1-
#704
0-
#705
b11 g
b0z1111 '
b0z1111 4
1"
1i
1@
1-
#706
0-
#707
0@
1-
#708
0-
#709
b1z1111 '
b1z1111 4
0"
0i
b11 q
1@
1-
#710
0-
#711
0@
1-
#712
0-
#713
b100 g
b0z1111 '
b0z1111 4
1"
1i
1@
1-
#714
0-
#715
0@
1-
#716
0-
#717
b1z1111 '
b1z1111 4
0"
0i
b11 q
1@
1-
#718
0-
#719
0@
1-
#720
0-
#721
b101 g
b0z1111 '
b0z1111 4
1"
1i
1@
1-
#722
0-
#723
0@
1-
#724
0-
#725
b1z1111 '
b1z1111 4
0"
0i
b11 q
1@
1-
#726
0-
#727
0@
1-
#728
0-
#729
b110 g
b0z1111 '
b0z1111 4
1"
1i
1@
1-
#730
0-
#731
0@
1-
#732
0-
#733
b1z1111 '
b1z1111 4
0"
0i
b11 q
1@
1-
#734
0-
#735
0@
1-
#736
0-
#737
b111 g
b0z1111 '
b0z1111 4
1"
1i
1@
1-
#738
0-
#739
0@
1-
#740
0-
#741
b0 j
b1z1111 '
b1z1111 4
0"
0i
1h
b11 q
1@
1-
#742
0-
#743
0@
1-
#744
0-
#745
b1 J
b0 m
0h
b0 g
1D
0l
b0z1111 '
b0z1111 4
1"
1i
1@
1-
#746
0-
#747
0@
1-
#748
0-
#749
b10 ?
11
b0 !
b0 2
b0 E
b0 k
b1z0111 '
b1z0111 4
0"
b1 N
1@
1-
#750
0-
#751
0@
1-
#752
0-
#753
b111 :
b10 B
b101 J
b1z0011 '
b1z0011 4
1>
1@
1-
#754
0-
#755
0@
1-
#756
0-
#757
b11 ?
1M
b1z1011 '
b1z1011 4
01
b101 N
1@
1-
#758
0-
#759
0@
1-
#760
0-
#761
b1 j
b1000 o
b11 n
b11 B
1l
b1z1111 '
b1z1111 4
0>
1@
1-
#762
0-
#763
0@
1-
#764
0-
#765
b110 J
b10 j
0D
b1 m
1@
1-
#766
0-
#767
0@
1-
#768
0-
#769
0M
b1 !
b1 2
b1 E
b1 k
b110 N
b10 m
b11 p
1@
1-
#770
0-
#771
0@
1-
#772
0-
#773
0i
b11 q
1@
1-
#774
0-
#775
0@
1-
#776
0-
#777
b1 g
b0z1111 '
b0z1111 4
1"
1i
1@
1-
#778
0-
#779
0@
1-
#780
0-
#781
b1z1111 '
b1z1111 4
0"
0i
b11 q
1@
1-
#782
0-
#783
0@
1-
#784
0-
#785
b10 g
b0z1111 '
b0z1111 4
1"
1i
1@
1-
#786
0-
#787
0@
1-
#788
0-
#789
b1z1111 '
b1z1111 4
0"
0i
b11 q
1@
1-
#790
0-
#791
0@
1-
#792
0-
#793
b11 g
b0z1111 '
b0z1111 4
1"
1i
1@
1-
#794
0-
#795
0@
1-
#796
0-
#797
b1z1111 '
b1z1111 4
0"
0i
b11 q
1@
1-
#798
0-
#799
0@
1-
#800
0-
#801
b100 g
b0z1111 '
b0z1111 4
1"
1i
1@
1-
#802
0-
#803
0@
1-
#804
0-
#805
b1z1111 '
b1z1111 4
0"
0i
b11 q
1@
1-
#806
0-
#807
0@
1-
#808
0-
#809
b101 g
b0z1111 '
b0z1111 4
1"
1i
1@
1-
#810
0-
#811
0@
1-
#812
0-
#813
b1z1111 '
b1z1111 4
0"
0i
b11 q
1@
1-
#814
0-
#815
0@
1-
#816
0-
#817
b110 g
b0z1111 '
b0z1111 4
1"
1i
1@
1-
#818
0-
#819
0@
1-
#820
0-
#821
b1z1111 '
b1z1111 4
0"
0i
b11 q
1@
1-
#822
0-
#823
0@
1-
#824
0-
#825
b111 g
b0z1111 '
b0z1111 4
1"
1i
1@
1-
#826
0-
#827
0@
1-
#828
0-
