HDMI_to_Matrix_FPGA/Test_Project/Nano9K_Test/sim/nspi_tx_tb.vcd
$date
	Thu Mar 20 15:49:08 2025
$end
$version
	Icarus Verilog
$end
$timescale
	1s
$end
$scope module nspi_tx_tb $end
$var wire 1 ! tx_finish $end
$var wire 2 " spi_mosi [1:0] $end
$var wire 1 # spi_clk $end
$var parameter 32 $ CHANNEL_NUMBER $end
$var parameter 32 % SPI_SIZE $end
$var reg 1 & clk $end
$var reg 1 ' rst $end
$var reg 1 ( start_tx $end
$scope module dut $end
$var wire 1 & clk $end
$var wire 1 ' rst $end
$var wire 1 ( start_tx $end
$var wire 1 ) w_xor_clk $end
$var parameter 32 * CHANNEL_NUMBER $end
$var parameter 32 + COUNTER_WIDTH $end
$var parameter 32 , MSB_FIRST $end
$var parameter 32 - SPI_SIZE $end
$var reg 4 . counter [3:0] $end
$var reg 2 / next_state [1:0] $end
$var reg 1 0 overflow_finish $end
$var reg 1 1 r_clk $end
$var reg 1 # spi_clk $end
$var reg 2 2 spi_mosi [1:0] $end
$var reg 1 3 start_tx_internal $end
$var reg 2 4 state [1:0] $end
$var reg 1 ! tx_finish $end
$scope begin $ivl_for_loop5 $end
$var integer 32 5 i [31:0] $end
$scope begin $ivl_for_loop6 $end
$var integer 32 6 j [31:0] $end
$upscope $end
$upscope $end
$scope begin $ivl_for_loop7 $end
$upscope $end
$scope begin $ivl_for_loop8 $end
$var integer 32 7 i [31:0] $end
$upscope $end
$scope begin $ivl_for_loop9 $end
$var integer 32 8 i [31:0] $end
$upscope $end
$upscope $end
$scope begin $ivl_for_loop10 $end
$var integer 32 9 i [31:0] $end
$upscope $end
$upscope $end
$enddefinitions $end
$comment Show the parameter values. $end
$dumpall
b1000 -
b1 ,
b100 +
b10 *
b1000 %
b10 $
$end
#0
$dumpvars
b0 9
b0 8
b0 7
b0 6
b0 5
b0 4
03
bx 2
01
00
b0 /
b0 .
0)
0(
1'
0&
x#
bx "
x!
$end
#1
b0 "
b0 2
0#
11
1!
0)
b1 9
1&
#2
01
0)
b10 9
0&
#3
11
0)
b11 9
1&
#4
01
0)
b100 9
0&
#5
11
0)
b101 9
1&
#6
01
0)
b110 9
0&
#7
11
0)
b111 9
1&
#8
01
0)
b1000 9
0&
#9
11
0)
b1001 9
1&
#10
01
0)
b1010 9
0&
#11
11
0)
b1011 9
1&
#12
01
0)
b1100 9
0&
#13
11
0)
b1101 9
1&
#14
01
0)
b1110 9
0&
#15
11
0)
b1111 9
1&
#16
01
0)
b10000 9
0&
#17
11
0)
b10001 9
1&
#18
01
0)
b10010 9
0&
#19
11
0)
b10011 9
1&
#20
01
0)
b10100 9
0&
0'
#21
11
0)
b10101 9
1&
#22
01
0)
b10110 9
0&
#23
11
0)
b10111 9
1&
#24
01
0)
b11000 9
0&
#25
11
0)
b11001 9
1&
#26
01
0)
b11010 9
0&
#27
11
0)
b11011 9
1&
#28
01
0)
b11100 9
0&
#29
11
0)
b11101 9
1&
#30
01
0)
b11110 9
0&
#31
11
0)
b11111 9
1&
#32
01
0)
b100000 9
0&
#33
11
0)
b100001 9
1&
#34
01
0)
b100010 9
0&
#35
11
0)
b100011 9
1&
#36
01
0)
b100100 9
0&
#37
11
0)
b100101 9
1&
#38
01
0)
b100110 9
0&
#39
11
0)
b100111 9
1&
#40
01
0)
b101000 9
0&
#41
11
0)
b101001 9
1&
#42
01
0)
b101010 9
0&
#43
11
0)
b101011 9
1&
#44
01
0)
b101100 9
0&
#45
11
0)
b101101 9
1&
#46
01
0)
b101110 9
0&
#47
11
0)
b101111 9
1&
#48
01
0)
b110000 9
0&
#49
11
0)
b110001 9
1&
#50
01
0)
b110010 9
0&
#51
11
0)
b110011 9
1&
#52
01
0)
b110100 9
0&
#53
11
0)
b110101 9
1&
#54
01
0)
b110110 9
0&
#55
11
0)
b110111 9
1&
#56
01
0)
b111000 9
0&
#57
11
0)
b111001 9
1&
#58
01
0)
b111010 9
0&
#59
11
0)
b111011 9
1&
#60
01
0)
b111100 9
0&
#61
11
0)
b111101 9
1&
#62
01
0)
b111110 9
0&
#63
11
0)
b111111 9
1&
#64
01
0)
b1000000 9
0&
#65
11
0)
b1000001 9
1&
#66
01
0)
b1000010 9
0&
#67
11
0)
b1000011 9
1&
#68
01
0)
b1000100 9
0&
#69
11
0)
b1000101 9
1&
#70
01
0)
b1000110 9
0&
#71
11
0)
b1000111 9
1&
#72
01
0)
b1001000 9
0&
#73
11
0)
b1001001 9
1&
#74
01
0)
b1001010 9
0&
#75
11
0)
b1001011 9
1&
#76
01
0)
b1001100 9
0&
#77
11
0)
b1001101 9
1&
#78
01
0)
b1001110 9
0&
#79
11
0)
b1001111 9
1&
#80
01
0)
b1010000 9
0&
#81
11
0)
b1010001 9
1&
#82
01
0)
b1010010 9
0&
#83
11
0)
b1010011 9
1&
#84
01
0)
b1010100 9
0&
#85
11
0)
b1010101 9
1&
#86
01
0)
b1010110 9
0&
#87
11
0)
b1010111 9
1&
#88
01
0)
b1011000 9
0&
#89
11
0)
b1011001 9
1&
#90
01
0)
b1011010 9
0&
#91
11
0)
b1011011 9
1&
#92
01
0)
b1011100 9
0&
#93
11
0)
b1011101 9
1&
#94
01
0)
b1011110 9
0&
#95
11
0)
b1011111 9
1&
#96
01
0)
b1100000 9
0&
#97
11
0)
b1100001 9
1&
#98
01
0)
b1100010 9
0&
#99
11
0)
b1100011 9
1&
#100
01
0)
b1100100 9
0&
1(
#101
0!
b1 /
b10 5
b1000 6
11
13
0)
b1100101 9
1&
#102
01
0)
b1100110 9
0&
#103
b10 /
11
b1 4
0)
b1100111 9
1&
#104
b10 "
b10 2
01
b10 7
0)
b1101000 9
0&
#105
11
b10 4
b10 7
0)
b1101001 9
1&
#106
b1 .
1#
01
0)
b1101010 9
0&
#107
0#
11
b10 8
0)
b1101011 9
1&
#108
b10 .
1#
01
0)
b1101100 9
0&
#109
0#
11
b10 8
0)
b1101101 9
1&
#110
b11 .
1#
01
0)
b1101110 9
0&
0(
#111
0#
11
b10 8
0)
b1101111 9
1&
#112
b100 .
1#
01
0)
b1110000 9
0&
#113
b1 "
b1 2
0#
11
b10 8
0)
b1110001 9
1&
#114
b101 .
1#
01
0)
b1110010 9
0&
#115
0#
11
b10 8
0)
b1110011 9
1&
#116
b110 .
1#
01
0)
b1110100 9
0&
#117
0#
11
b10 8
0)
b1110101 9
1&
#118
b111 .
1#
01
0)
b1110110 9
0&
#119
0#
11
b10 8
0)
b1110111 9
1&
#120
b0 /
b1000 .
1#
01
0)
b1111000 9
0&
#121
b1 /
b0 "
b0 2
0#
11
b0 4
0)
b1111001 9
1&
#122
01
0)
b1111010 9
0&
#123
b10 /
11
b1 4
0)
b1111011 9
1&
#124
bx "
bx 2
01
b10 7
0)
b1111100 9
0&
#125
b0 /
11
b10 4
b10 7
0)
10
b1111101 9
1&
#126
b10 /
b1001 .
1#
01
0)
b1111110 9
0&
#127
b0 "
b0 2
0#
11
03
0)
b1111111 9
1&
#128
b1010 .
1#
01
0)
b10000000 9
0&
#129
0#
11
0)
b10000001 9
1&
#130
b1011 .
1#
01
0)
b10000010 9
0&
#131
0#
11
0)
b10000011 9
1&
#132
b1100 .
1#
01
0)
b10000100 9
0&
#133
0#
11
0)
b10000101 9
1&
#134
b1101 .
1#
01
0)
b10000110 9
0&
#135
0#
11
0)
b10000111 9
1&
#136
b1110 .
1#
01
0)
b10001000 9
0&
#137
0#
11
0)
b10001001 9
1&
#138
b1111 .
1#
01
0)
b10001010 9
0&
#139
0#
11
0)
b10001011 9
1&
#140
b0 .
1#
01
0)
b10001100 9
0&
#141
b10 "
b10 2
0#
11
b10 8
0)
b10001101 9
1&
#142
b1 .
1#
01
0)
b10001110 9
0&
#143
0#
11
b10 8
0)
b10001111 9
1&
#144
b10 .
1#
01
0)
b10010000 9
0&
#145
0#
11
b10 8
0)
b10010001 9
1&
#146
b11 .
1#
01
0)
b10010010 9
0&
#147
0#
11
b10 8
0)
b10010011 9
1&
#148
b100 .
1#
01
0)
b10010100 9
0&
#149
b1 "
b1 2
0#
11
b10 8
0)
b10010101 9
1&
#150
b101 .
1#
01
0)
b10010110 9
0&
#151
0#
11
b10 8
0)
b10010111 9
1&
#152
b110 .
1#
01
0)
b10011000 9
0&
#153
0#
11
b10 8
0)
b10011001 9
1&
#154
b111 .
1#
01
0)
b10011010 9
0&
#155
0#
11
b10 8
0)
b10011011 9
1&
#156
b0 /
b1000 .
1#
01
0)
b10011100 9
0&
#157
b0 "
b0 2
0#
11
b0 4
0)
00
b10011101 9
1&
#158
01
0)
b10011110 9
0&
#159
11
1!
0)
b10011111 9
1&
#160
01
0)
b10100000 9
0&
#161
11
0)
b10100001 9
1&
#162
01
0)
b10100010 9
0&
#163
11
0)
b10100011 9
1&
#164
01
0)
b10100100 9
0&
#165
11
0)
b10100101 9
1&
#166
01
0)
b10100110 9
0&
#167
11
0)
b10100111 9
1&
#168
01
0)
b10101000 9
0&
#169
11
0)
b10101001 9
1&
#170
01
0)
b10101010 9
0&
#171
11
0)
b10101011 9
1&
#172
01
0)
b10101100 9
0&
#173
11
0)
b10101101 9
1&
#174
01
0)
b10101110 9
0&
#175
11
0)
b10101111 9
1&
#176
01
0)
b10110000 9
0&
#177
11
0)
b10110001 9
1&
#178
01
0)
b10110010 9
0&
#179
11
0)
b10110011 9
1&
#180
01
0)
b10110100 9
0&
#181
11
0)
b10110101 9
1&
#182
01
0)
b10110110 9
0&
#183
11
0)
b10110111 9
1&
#184
01
0)
b10111000 9
0&
#185
11
0)
b10111001 9
1&
#186
01
0)
b10111010 9
0&
#187
11
0)
b10111011 9
1&
#188
01
0)
b10111100 9
0&
#189
11
0)
b10111101 9
1&
#190
01
0)
b10111110 9
0&
#191
11
0)
b10111111 9
1&
#192
01
0)
b11000000 9
0&
#193
11
0)
b11000001 9
1&
#194
01
0)
b11000010 9
0&
#195
11
0)
b11000011 9
1&
#196
01
0)
b11000100 9
0&
#197
11
0)
b11000101 9
1&
#198
01
0)
b11000110 9
0&
#199
11
0)
b11000111 9
1&
#200
01
0)
b11001000 9
0&
#201
11
0)
b11001001 9
1&
#202
01
0)
b11001010 9
0&
#203
11
0)
b11001011 9
1&
#204
01
0)
b11001100 9
0&
#205
11
0)
b11001101 9
1&
#206
01
0)
b11001110 9
0&
#207
11
0)
b11001111 9
1&
#208
01
0)
b11010000 9
0&
#209
11
0)
b11010001 9
1&
#210
01
0)
b11010010 9
0&
#211
11
0)
b11010011 9
1&
#212
01
0)
b11010100 9
0&
#213
11
0)
b11010101 9
1&
#214
01
0)
b11010110 9
0&
#215
11
0)
b11010111 9
1&
#216
01
0)
b11011000 9
0&
#217
11
0)
b11011001 9
1&
#218
01
0)
b11011010 9
0&
#219
11
0)
b11011011 9
1&
#220
01
0)
b11011100 9
0&
#221
11
0)
b11011101 9
1&
#222
01
0)
b11011110 9
0&
#223
11
0)
b11011111 9
1&
#224
01
0)
b11100000 9
0&
#225
11
0)
b11100001 9
1&
#226
01
0)
b11100010 9
0&
#227
11
0)
b11100011 9
1&
#228
01
0)
b11100100 9
0&
#229
11
0)
b11100101 9
1&
#230
01
0)
b11100110 9
0&
#231
11
0)
b11100111 9
1&
#232
01
0)
b11101000 9
0&
#233
11
0)
b11101001 9
1&
#234
01
0)
b11101010 9
0&
#235
11
0)
b11101011 9
1&
#236
01
0)
b11101100 9
0&
#237
11
0)
b11101101 9
1&
#238
01
0)
b11101110 9
0&
#239
11
0)
b11101111 9
1&
#240
01
0)
b11110000 9
0&
#241
11
0)
b11110001 9
1&
#242
01
0)
b11110010 9
0&
#243
11
0)
b11110011 9
1&
#244
01
0)
b11110100 9
0&
#245
11
0)
b11110101 9
1&
#246
01
0)
b11110110 9
0&
#247
11
0)
b11110111 9
1&
#248
01
0)
b11111000 9
0&
#249
11
0)
b11111001 9
1&
#250
01
0)
b11111010 9
0&
#251
11
0)
b11111011 9
1&
#252
01
0)
b11111100 9
0&
#253
11
0)
b11111101 9
1&
#254
01
0)
b11111110 9
0&
#255
11
0)
b11111111 9
1&
#256
01
0)
b100000000 9
0&
#257
11
0)
b100000001 9
1&
#258
01
0)
b100000010 9
0&
#259
11
0)
b100000011 9
1&
#260
01
0)
b100000100 9
0&
#261
11
0)
b100000101 9
1&
#262
01
0)
b100000110 9
0&
#263
11
0)
b100000111 9
1&
#264
01
0)
b100001000 9
0&
#265
11
0)
b100001001 9
1&
#266
01
0)
b100001010 9
0&
#267
11
0)
b100001011 9
1&
#268
01
0)
b100001100 9
0&
#269
11
0)
b100001101 9
1&
#270
01
0)
b100001110 9
0&
#271
11
0)
b100001111 9
1&
#272
01
0)
b100010000 9
0&
#273
11
0)
b100010001 9
1&
#274
01
0)
b100010010 9
0&
#275
11
0)
b100010011 9
1&
#276
01
0)
b100010100 9
0&
#277
11
0)
b100010101 9
1&
#278
01
0)
b100010110 9
0&
#279
11
0)
b100010111 9
1&
#280
01
0)
b100011000 9
0&
#281
11
0)
b100011001 9
1&
#282
01
0)
b100011010 9
0&
#283
11
0)
b100011011 9
1&
#284
01
0)
b100011100 9
0&
#285
11
0)
b100011101 9
1&
#286
01
0)
b100011110 9
0&
#287
11
0)
b100011111 9
1&
#288
01
0)
b100100000 9
0&
#289
11
0)
b100100001 9
1&
#290
01
0)
b100100010 9
0&
#291
11
0)
b100100011 9
1&
#292
01
0)
b100100100 9
0&
#293
11
0)
b100100101 9
1&
#294
01
0)
b100100110 9
0&
#295
11
0)
b100100111 9
1&
#296
01
0)
b100101000 9
0&
#297
11
0)
b100101001 9
1&
#298
01
0)
b100101010 9
0&
#299
11
0)
b100101011 9
1&
#300
01
0)
b100101100 9
0&
#301
11
0)
b100101101 9
1&
#302
01
0)
b100101110 9
0&
#303
11
0)
b100101111 9
1&
#304
01
0)
b100110000 9
0&
#305
11
0)
b100110001 9
1&
#306
01
0)
b100110010 9
0&
#307
11
0)
b100110011 9
1&
#308
01
0)
b100110100 9
0&
#309
11
0)
b100110101 9
1&
#310
01
0)
b100110110 9
0&
#311
11
0)
b100110111 9
1&
#312
01
0)
b100111000 9
0&
#313
11
0)
b100111001 9
1&
#314
01
0)
b100111010 9
0&
#315
11
0)
b100111011 9
1&
#316
01
0)
b100111100 9
0&
#317
11
0)
b100111101 9
1&
#318
01
0)
b100111110 9
0&
#319
11
0)
b100111111 9
1&
#320
01
0)
b101000000 9
0&
#321
11
0)
b101000001 9
1&
#322
01
0)
b101000010 9
0&
#323
11
0)
b101000011 9
1&
#324
01
0)
b101000100 9
0&
#325
11
0)
b101000101 9
1&
#326
01
0)
b101000110 9
0&
#327
11
0)
b101000111 9
1&
#328
01
0)
b101001000 9
0&
#329
11
0)
b101001001 9
1&
#330
01
0)
b101001010 9
0&
#331
11
0)
b101001011 9
1&
#332
01
0)
b101001100 9
0&
#333
11
0)
b101001101 9
1&
#334
01
0)
b101001110 9
0&
#335
11
0)
b101001111 9
1&
#336
01
0)
b101010000 9
0&
#337
11
0)
b101010001 9
1&
#338
01
0)
b101010010 9
0&
#339
11
0)
b101010011 9
1&
#340
01
0)
b101010100 9
0&
#341
11
0)
b101010101 9
1&
#342
01
0)
b101010110 9
0&
#343
11
0)
b101010111 9
1&
#344
01
0)
b101011000 9
0&
#345
11
0)
b101011001 9
1&
#346
01
0)
b101011010 9
0&
#347
11
0)
b101011011 9
1&
#348
01
0)
b101011100 9
0&
#349
11
0)
b101011101 9
1&
#350
01
0)
b101011110 9
0&
#351
11
0)
b101011111 9
1&
#352
01
0)
b101100000 9
0&
#353
11
0)
b101100001 9
1&
#354
01
0)
b101100010 9
0&
#355
11
0)
b101100011 9
1&
#356
01
0)
b101100100 9
0&
#357
11
0)
b101100101 9
1&
#358
01
0)
b101100110 9
0&
#359
11
0)
b101100111 9
1&
#360
01
0)
b101101000 9
0&
#361
11
0)
b101101001 9
1&
#362
01
0)
b101101010 9
0&
#363
11
0)
b101101011 9
1&
#364
01
0)
b101101100 9
0&
#365
11
0)
b101101101 9
1&
#366
01
0)
b101101110 9
0&
#367
11
0)
b101101111 9
1&
#368
01
0)
b101110000 9
0&
#369
11
0)
b101110001 9
1&
#370
01
0)
b101110010 9
0&
#371
11
0)
b101110011 9
1&
#372
01
0)
b101110100 9
0&
#373
11
0)
b101110101 9
1&
#374
01
0)
b101110110 9
0&
#375
11
0)
b101110111 9
1&
#376
01
0)
b101111000 9
0&
#377
11
0)
b101111001 9
1&
#378
01
0)
b101111010 9
0&
#379
11
0)
b101111011 9
1&
#380
01
0)
b101111100 9
0&
#381
11
0)
b101111101 9
1&
#382
01
0)
b101111110 9
0&
#383
11
0)
b101111111 9
1&
#384
01
0)
b110000000 9
0&
#385
11
0)
b110000001 9
1&
#386
01
0)
b110000010 9
0&
#387
11
0)
b110000011 9
1&
#388
01
0)
b110000100 9
0&
#389
11
0)
b110000101 9
1&
#390
01
0)
b110000110 9
0&
#391
11
0)
b110000111 9
1&
#392
01
0)
b110001000 9
0&
#393
11
0)
b110001001 9
1&
#394
01
0)
b110001010 9
0&
#395
11
0)
b110001011 9
1&
#396
01
0)
b110001100 9
0&
#397
11
0)
b110001101 9
1&
#398
01
0)
b110001110 9
0&
#399
11
0)
b110001111 9
1&
#400
01
0)
b110010000 9
0&
#401
11
0)
b110010001 9
1&
#402
01
0)
b110010010 9
0&
#403
11
0)
b110010011 9
1&
#404
01
0)
b110010100 9
0&
#405
11
0)
b110010101 9
1&
#406
01
0)
b110010110 9
0&
#407
11
0)
b110010111 9
1&
#408
01
0)
b110011000 9
0&
#409
11
0)
b110011001 9
1&
#410
01
0)
b110011010 9
0&
#411
11
0)
b110011011 9
1&
#412
01
0)
b110011100 9
0&
#413
11
0)
b110011101 9
1&
#414
01
0)
b110011110 9
0&
#415
11
0)
b110011111 9
1&
#416
01
0)
b110100000 9
0&
#417
11
0)
b110100001 9
1&
#418
01
0)
b110100010 9
0&
#419
11
0)
b110100011 9
1&
#420
01
0)
b110100100 9
0&
#421
11
0)
b110100101 9
1&
#422
01
0)
b110100110 9
0&
#423
11
0)
b110100111 9
1&
#424
01
0)
b110101000 9
0&
#425
11
0)
b110101001 9
1&
#426
01
0)
b110101010 9
0&
#427
11
0)
b110101011 9
1&
#428
01
0)
b110101100 9
0&
#429
11
0)
b110101101 9
1&
#430
01
0)
b110101110 9
0&
#431
11
0)
b110101111 9
1&
#432
01
0)
b110110000 9
0&
#433
11
0)
b110110001 9
1&
#434
01
0)
b110110010 9
0&
#435
11
0)
b110110011 9
1&
#436
01
0)
b110110100 9
0&
#437
11
0)
b110110101 9
1&
#438
01
0)
b110110110 9
0&
#439
11
0)
b110110111 9
1&
#440
01
0)
b110111000 9
0&
#441
11
0)
b110111001 9
1&
#442
01
0)
b110111010 9
0&
#443
11
0)
b110111011 9
1&
#444
01
0)
b110111100 9
0&
#445
11
0)
b110111101 9
1&
#446
01
0)
b110111110 9
0&
#447
11
0)
b110111111 9
1&
#448
01
0)
b111000000 9
0&
#449
11
0)
b111000001 9
1&
#450
01
0)
b111000010 9
0&
#451
11
0)
b111000011 9
1&
#452
01
0)
b111000100 9
0&
#453
11
0)
b111000101 9
1&
#454
01
0)
b111000110 9
0&
#455
11
0)
b111000111 9
1&
#456
01
0)
b111001000 9
0&
#457
11
0)
b111001001 9
1&
#458
01
0)
b111001010 9
0&
#459
11
0)
b111001011 9
1&
#460
01
0)
b111001100 9
0&
#461
11
0)
b111001101 9
1&
#462
01
0)
b111001110 9
0&
#463
11
0)
b111001111 9
1&
#464
01
0)
b111010000 9
0&
#465
11
0)
b111010001 9
1&
#466
01
0)
b111010010 9
0&
#467
11
0)
b111010011 9
1&
#468
01
0)
b111010100 9
0&
#469
11
0)
b111010101 9
1&
#470
01
0)
b111010110 9
0&
#471
11
0)
b111010111 9
1&
#472
01
0)
b111011000 9
0&
#473
11
0)
b111011001 9
1&
#474
01
0)
b111011010 9
0&
#475
11
0)
b111011011 9
1&
#476
01
0)
b111011100 9
0&
#477
11
0)
b111011101 9
1&
#478
01
0)
b111011110 9
0&
#479
11
0)
b111011111 9
1&
#480
01
0)
b111100000 9
0&
#481
11
0)
b111100001 9
1&
#482
01
0)
b111100010 9
0&
#483
11
0)
b111100011 9
1&
#484
01
0)
b111100100 9
0&
#485
11
0)
b111100101 9
1&
#486
01
0)
b111100110 9
0&
#487
11
0)
b111100111 9
1&
#488
01
0)
b111101000 9
0&
#489
11
0)
b111101001 9
1&
#490
01
0)
b111101010 9
0&
#491
11
0)
b111101011 9
1&
#492
01
0)
b111101100 9
0&
#493
11
0)
b111101101 9
1&
#494
01
0)
b111101110 9
0&
#495
11
0)
b111101111 9
1&
#496
01
0)
b111110000 9
0&
#497
11
0)
b111110001 9
1&
#498
01
0)
b111110010 9
0&
#499
11
0)
b111110011 9
1&
#500
01
0)
b111110100 9
0&
#501
11
0)
b111110101 9
1&
#502
01
0)
b111110110 9
0&
#503
11
0)
b111110111 9
1&
#504
01
0)
b111111000 9
0&
#505
11
0)
b111111001 9
1&
#506
01
0)
b111111010 9
0&
#507
11
0)
b111111011 9
1&
#508
01
0)
b111111100 9
0&
#509
11
0)
b111111101 9
1&
#510
01
0)
b111111110 9
0&
1(
#511
b0 .
0!
b1 /
b1000 6
b10 5
11
13
0)
b111111111 9
1&
#512
01
0)
b1000000000 9
0&
#513
b10 /
11
b1 4
0)
b1000000001 9
1&
#514
b10 "
b10 2
01
b10 7
0)
b1000000010 9
0&
#515
11
b10 4
b10 7
0)
b1000000011 9
1&
#516
b1 .
1#
01
0)
b1000000100 9
0&
#517
0#
11
b10 8
0)
b1000000101 9
1&
#518
b10 .
1#
01
0)
b1000000110 9
0&
#519
0#
11
b10 8
0)
b1000000111 9
1&
#520
b11 .
1#
01
0)
b1000001000 9
0&
0(
#521
0#
11
b10 8
0)
b1000001001 9
1&
#522
b100 .
1#
01
0)
b1000001010 9
0&
#523
b1 "
b1 2
0#
11
b10 8
0)
b1000001011 9
1&
#524
b101 .
1#
01
0)
b1000001100 9
0&
#525
0#
11
b10 8
0)
b1000001101 9
1&
#526
b110 .
1#
01
0)
b1000001110 9
0&
#527
0#
11
b10 8
0)
b1000001111 9
1&
#528
b111 .
1#
01
0)
b1000010000 9
0&
#529
0#
11
b10 8
0)
b1000010001 9
1&
#530
b0 /
b1000 .
1#
01
0)
b1000010010 9
0&
#531
b1 /
b0 "
b0 2
0#
11
b0 4
0)
b1000010011 9
1&
#532
01
0)
b1000010100 9
0&
#533
b10 /
11
b1 4
0)
b1000010101 9
1&
#534
bx "
bx 2
01
b10 7
0)
b1000010110 9
0&
#535
b0 /
11
03
b10 4
b10 7
0)
10
b1000010111 9
1&
#536
b10 /
b1001 .
1#
01
0)
b1000011000 9
0&
#537
b0 "
b0 2
0#
11
0)
b1000011001 9
1&
#538
b1010 .
1#
01
0)
b1000011010 9
0&
#539
0#
11
0)
b1000011011 9
1&
#540
b1011 .
1#
01
0)
b1000011100 9
0&
#541
0#
11
0)
b1000011101 9
1&
#542
b1100 .
1#
01
0)
b1000011110 9
0&
#543
0#
11
0)
b1000011111 9
1&
#544
b1101 .
1#
01
0)
b1000100000 9
0&
#545
0#
11
0)
b1000100001 9
1&
#546
b1110 .
1#
01
0)
b1000100010 9
0&
#547
0#
11
0)
b1000100011 9
1&
#548
b1111 .
1#
01
0)
b1000100100 9
0&
#549
0#
11
0)
b1000100101 9
1&
#550
b0 .
1#
01
0)
b1000100110 9
0&
#551
b10 "
b10 2
0#
11
b10 8
0)
b1000100111 9
1&
#552
b1 .
1#
01
0)
b1000101000 9
0&
#553
0#
11
b10 8
0)
b1000101001 9
1&
#554
b10 .
1#
01
0)
b1000101010 9
0&
#555
0#
11
b10 8
0)
b1000101011 9
1&
#556
b11 .
1#
01
0)
b1000101100 9
0&
#557
0#
11
b10 8
0)
b1000101101 9
1&
#558
b100 .
1#
01
0)
b1000101110 9
0&
#559
b1 "
b1 2
0#
11
b10 8
0)
b1000101111 9
1&
#560
b101 .
1#
01
0)
b1000110000 9
0&
#561
0#
11
b10 8
0)
b1000110001 9
1&
#562
b110 .
1#
01
0)
b1000110010 9
0&
#563
0#
11
b10 8
0)
b1000110011 9
1&
#564
b111 .
1#
01
0)
b1000110100 9
0&
#565
0#
11
b10 8
0)
b1000110101 9
1&
#566
b0 /
b1000 .
1#
01
0)
b1000110110 9
0&
#567
b0 "
b0 2
0#
11
b0 4
0)
00
b1000110111 9
1&
#568
01
0)
b1000111000 9
0&
#569
11
1!
0)
b1000111001 9
1&
#570
01
0)
b1000111010 9
0&
#571
11
0)
b1000111011 9
1&
#572
01
0)
b1000111100 9
0&
#573
11
0)
b1000111101 9
1&
#574
01
0)
b1000111110 9
0&
#575
11
0)
b1000111111 9
1&
#576
01
0)
b1001000000 9
0&
#577
11
0)
b1001000001 9
1&
#578
01
0)
b1001000010 9
0&
#579
11
0)
b1001000011 9
1&
#580
01
0)
b1001000100 9
0&
#581
11
0)
b1001000101 9
1&
#582
01
0)
b1001000110 9
0&
#583
11
0)
b1001000111 9
1&
#584
01
0)
b1001001000 9
0&
#585
11
0)
b1001001001 9
1&
#586
01
0)
b1001001010 9
0&
#587
11
0)
b1001001011 9
1&
#588
01
0)
b1001001100 9
0&
#589
11
0)
b1001001101 9
1&
#590
01
0)
b1001001110 9
0&
#591
11
0)
b1001001111 9
1&
#592
01
0)
b1001010000 9
0&
#593
11
0)
b1001010001 9
1&
#594
01
0)
b1001010010 9
0&
#595
11
0)
b1001010011 9
1&
#596
01
0)
b1001010100 9
0&
#597
11
0)
b1001010101 9
1&
#598
01
0)
b1001010110 9
0&
#599
11
0)
b1001010111 9
1&
#600
01
0)
b1001011000 9
0&
#601
11
0)
b1001011001 9
1&
#602
01
0)
b1001011010 9
0&
#603
11
0)
b1001011011 9
1&
#604
01
0)
b1001011100 9
0&
#605
11
0)
b1001011101 9
1&
#606
01
0)
b1001011110 9
0&
#607
11
0)
b1001011111 9
1&
#608
01
0)
b1001100000 9
0&
#609
11
0)
b1001100001 9
1&
#610
01
0)
b1001100010 9
0&
#611
11
0)
b1001100011 9
1&
#612
01
0)
b1001100100 9
0&
#613
11
0)
b1001100101 9
1&
#614
01
0)
b1001100110 9
0&
#615
11
0)
b1001100111 9
1&
#616
01
0)
b1001101000 9
0&
#617
11
0)
b1001101001 9
1&
#618
01
0)
b1001101010 9
0&
#619
11
0)
b1001101011 9
1&
#620
01
0)
b1001101100 9
0&
#621
11
0)
b1001101101 9
1&
#622
01
0)
b1001101110 9
0&
#623
11
0)
b1001101111 9
1&
#624
01
0)
b1001110000 9
0&
#625
11
0)
b1001110001 9
1&
#626
01
0)
b1001110010 9
0&
#627
11
0)
b1001110011 9
1&
#628
01
0)
b1001110100 9
0&
#629
11
0)
b1001110101 9
1&
#630
01
0)
b1001110110 9
0&
#631
11
0)
b1001110111 9
1&
#632
01
0)
b1001111000 9
0&
#633
11
0)
b1001111001 9
1&
#634
01
0)
b1001111010 9
0&
#635
11
0)
b1001111011 9
1&
#636
01
0)
b1001111100 9
0&
#637
11
0)
b1001111101 9
1&
#638
01
0)
b1001111110 9
0&
#639
11
0)
b1001111111 9
1&
#640
01
0)
b1010000000 9
0&
#641
11
0)
b1010000001 9
1&
#642
01
0)
b1010000010 9
0&
#643
11
0)
b1010000011 9
1&
#644
01
0)
b1010000100 9
0&
#645
11
0)
b1010000101 9
1&
#646
01
0)
b1010000110 9
0&
#647
11
0)
b1010000111 9
1&
#648
01
0)
b1010001000 9
0&
#649
11
0)
b1010001001 9
1&
#650
01
0)
b1010001010 9
0&
#651
11
0)
b1010001011 9
1&
#652
01
0)
b1010001100 9
0&
#653
11
0)
b1010001101 9
1&
#654
01
0)
b1010001110 9
0&
#655
11
0)
b1010001111 9
1&
#656
01
0)
b1010010000 9
0&
#657
11
0)
b1010010001 9
1&
#658
01
0)
b1010010010 9
0&
#659
11
0)
b1010010011 9
1&
#660
01
0)
b1010010100 9
0&
#661
11
0)
b1010010101 9
1&
#662
01
0)
b1010010110 9
0&
#663
11
0)
b1010010111 9
1&
#664
01
0)
b1010011000 9
0&
#665
11
0)
b1010011001 9
1&
#666
01
0)
b1010011010 9
0&
#667
11
0)
b1010011011 9
1&
#668
01
0)
b1010011100 9
0&
#669
11
0)
b1010011101 9
1&
#670
01
0)
b1010011110 9
0&
#671
11
0)
b1010011111 9
1&
#672
01
0)
b1010100000 9
0&
#673
11
0)
b1010100001 9
1&
#674
01
0)
b1010100010 9
0&
#675
11
0)
b1010100011 9
1&
#676
01
0)
b1010100100 9
0&
#677
11
0)
b1010100101 9
1&
#678
01
0)
b1010100110 9
0&
#679
11
0)
b1010100111 9
1&
#680
01
0)
b1010101000 9
0&
#681
11
0)
b1010101001 9
1&
#682
01
0)
b1010101010 9
0&
#683
11
0)
b1010101011 9
1&
#684
01
0)
b1010101100 9
0&
#685
11
0)
b1010101101 9
1&
#686
01
0)
b1010101110 9
0&
#687
11
0)
b1010101111 9
1&
#688
01
0)
b1010110000 9
0&
#689
11
0)
b1010110001 9
1&
#690
01
0)
b1010110010 9
0&
#691
11
0)
b1010110011 9
1&
#692
01
0)
b1010110100 9
0&
#693
11
0)
b1010110101 9
1&
#694
01
0)
b1010110110 9
0&
#695
11
0)
b1010110111 9
1&
#696
01
0)
b1010111000 9
0&
#697
11
0)
b1010111001 9
1&
#698
01
0)
b1010111010 9
0&
#699
11
0)
b1010111011 9
1&
#700
01
0)
b1010111100 9
0&
#701
11
0)
b1010111101 9
1&
#702
01
0)
b1010111110 9
0&
#703
11
0)
b1010111111 9
1&
#704
01
0)
b1011000000 9
0&
#705
11
0)
b1011000001 9
1&
#706
01
0)
b1011000010 9
0&
#707
11
0)
b1011000011 9
1&
#708
01
0)
b1011000100 9
0&
