HDMI_to_Matrix_FPGA/Test_Project/Nano9K_Test/sim/nspi_tx_tb.vcd
$date
	Fri Mar 21 18:03:08 2025
$end
$version
	Icarus Verilog
$end
$timescale
	1s
$end
$scope module nspi_tx_tb $end
$var wire 1 ! tx_finish $end
$var wire 2 " spi_mosi [1:0] $end
$var wire 1 # spi_clk $end
$var parameter 32 $ CHANNEL_NUMBER $end
$var parameter 32 % SPI_SIZE $end
$var reg 1 & clk $end
$var reg 1 ' rst $end
$var reg 1 ( start_tx $end
$scope module spi_tx $end
$var wire 1 & clk $end
$var wire 1 ' rst $end
$var wire 1 ( start_tx $end
$var parameter 32 ) CHANNEL_NUMBER $end
$var parameter 32 * COUNTER_WIDTH $end
$var parameter 32 + MSB_FIRST $end
$var parameter 32 , SPI_SIZE $end
$var reg 4 - counter [3:0] $end
$var reg 1 . counter_overflow_flag $end
$var reg 1 / next $end
$var reg 2 0 next_state [1:0] $end
$var reg 1 # spi_clk $end
$var reg 2 1 spi_mosi [1:0] $end
$var reg 1 2 start_tx_internal $end
$var reg 2 3 state [1:0] $end
$var reg 1 ! tx_finish $end
$scope begin $ivl_for_loop4 $end
$var integer 32 4 i [31:0] $end
$scope begin $ivl_for_loop5 $end
$var integer 32 5 j [31:0] $end
$upscope $end
$upscope $end
$scope begin $ivl_for_loop6 $end
$upscope $end
$scope begin $ivl_for_loop7 $end
$var integer 32 6 i [31:0] $end
$upscope $end
$scope begin $ivl_for_loop8 $end
$var integer 32 7 i [31:0] $end
$upscope $end
$upscope $end
$scope begin $ivl_for_loop10 $end
$var integer 32 8 i [31:0] $end
$scope begin $ivl_for_loop11 $end
$var integer 32 9 j [31:0] $end
$upscope $end
$scope begin $ivl_for_loop12 $end
$var integer 32 : j [31:0] $end
$upscope $end
$upscope $end
$scope begin $ivl_for_loop9 $end
$var integer 32 ; i [31:0] $end
$upscope $end
$upscope $end
$enddefinitions $end
$comment Show the parameter values. $end
$dumpall
b1000 ,
b1 +
b100 *
b10 )
b1000 %
b10 $
$end
#0
$dumpvars
b0 ;
b0 :
b0 9
b0 8
b0 7
b0 6
b0 5
b0 4
b0 3
02
b0 1
b0 0
1/
0.
b0 -
x(
1'
0&
0#
b0 "
0!
$end
#1
b1 ;
1&
#2
b10 ;
0&
#3
b11 ;
1&
#4
b100 ;
0&
#5
b101 ;
1&
#6
b110 ;
0&
#7
b111 ;
1&
#8
b1000 ;
0&
#9
b1001 ;
1&
#10
b1010 ;
0&
#11
b1011 ;
1&
#12
b1100 ;
0&
#13
b1101 ;
1&
#14
b1110 ;
0&
#15
b1111 ;
1&
#16
b10000 ;
0&
#17
b10001 ;
1&
#18
b10010 ;
0&
#19
b10011 ;
1&
#20
b10100 ;
0&
0'
#21
1!
b10101 ;
1&
#22
b10110 ;
0&
#23
b10111 ;
1&
#24
b11000 ;
0&
#25
b11001 ;
1&
#26
b11010 ;
0&
#27
b11011 ;
1&
#28
b11100 ;
0&
#29
b11101 ;
1&
#30
b11110 ;
0&
#31
b11111 ;
1&
#32
b100000 ;
0&
#33
b100001 ;
1&
#34
b100010 ;
0&
#35
b100011 ;
1&
#36
b100100 ;
0&
#37
b100101 ;
1&
#38
b100110 ;
0&
#39
b100111 ;
1&
#40
b101000 ;
0&
1(
#41
b1 0
b10 4
b1000 5
12
b101001 ;
1&
#42
b101010 ;
0&
#43
b10 0
0!
b1 3
b101011 ;
1&
#44
b101100 ;
0&
#45
b10 3
b10 6
b101101 ;
1&
#46
b101110 ;
0&
#47
0/
b10 7
b101111 ;
1&
#48
b110000 ;
0&
#49
b1 -
1#
1/
b110001 ;
1&
#50
b110010 ;
0&
0(
#51
0#
0/
b10 7
b110011 ;
1&
#52
b110100 ;
0&
#53
b10 -
1#
1/
b110101 ;
1&
#54
b110110 ;
0&
#55
0#
0/
b10 7
b110111 ;
1&
#56
b111000 ;
0&
#57
b11 -
1#
1/
b111001 ;
1&
#58
b111010 ;
0&
#59
0#
0/
b10 7
b111011 ;
1&
#60
b111100 ;
0&
b1 8
#61
b100 -
1#
1/
b111101 ;
1&
#62
b111110 ;
0&
#63
0#
0/
b10 7
b111111 ;
1&
#64
b1000000 ;
0&
#65
b101 -
1#
1/
b1000001 ;
1&
#66
b1000010 ;
0&
#67
0#
0/
b10 7
b1000011 ;
1&
#68
b1000100 ;
0&
#69
b110 -
1#
1/
b1000101 ;
1&
#70
b1000110 ;
0&
b1 9
#71
0#
0/
b10 7
b1000111 ;
1&
#72
b1001000 ;
0&
#73
b111 -
1#
1/
b1001001 ;
1&
#74
b1001010 ;
0&
#75
b0 0
b1 "
b1 1
0#
0/
1.
b10 7
b1001011 ;
1&
#76
b1001100 ;
0&
#77
b0 3
0.
b0 -
1!
02
1#
1/
b1001101 ;
1&
#78
b1001110 ;
0&
#79
b0 "
b0 1
0#
b1001111 ;
1&
#80
b1010000 ;
0&
1(
#81
b1 0
b1000 5
b10 4
12
b1010001 ;
1&
#82
b1010010 ;
0&
#83
b10 0
0!
b1 3
b1010011 ;
1&
#84
b1010100 ;
0&
#85
b10 3
b10 6
b1010101 ;
1&
#86
b1010110 ;
0&
#87
0/
b10 7
b1010111 ;
1&
#88
b1011000 ;
0&
#89
b1 -
1#
1/
b1011001 ;
1&
#90
b1011010 ;
0&
0(
#91
0#
0/
b10 7
b1011011 ;
1&
#92
b1011100 ;
0&
#93
b10 -
1#
1/
b1011101 ;
1&
#94
b1011110 ;
0&
#95
0#
0/
b10 7
b1011111 ;
1&
#96
b1100000 ;
0&
#97
b11 -
1#
1/
b1100001 ;
1&
#98
b1100010 ;
0&
#99
0#
0/
b10 7
b1100011 ;
1&
#100
b1100100 ;
0&
b0 9
b10 8
#101
b100 -
1#
1/
b1100101 ;
1&
#102
b1100110 ;
0&
#103
0#
0/
b10 7
b1100111 ;
1&
#104
b1101000 ;
0&
#105
b101 -
1#
1/
b1101001 ;
1&
#106
b1101010 ;
0&
#107
0#
0/
b10 7
b1101011 ;
1&
#108
b1101100 ;
0&
#109
b110 -
1#
1/
b1101101 ;
1&
#110
b1101110 ;
0&
b1 9
#111
0#
0/
b10 7
b1101111 ;
1&
#112
b1110000 ;
0&
#113
b111 -
1#
1/
b1110001 ;
1&
#114
b1110010 ;
0&
#115
b0 0
b1 "
b1 1
0#
0/
1.
b10 7
b1110011 ;
1&
#116
b1110100 ;
0&
#117
b0 3
0.
b0 -
1!
02
1#
1/
b1110101 ;
1&
#118
b1110110 ;
0&
#119
b0 "
b0 1
0#
b1110111 ;
1&
#120
b1111000 ;
0&
1(
#121
b1 0
b1000 5
b10 4
12
b1111001 ;
1&
#122
b1111010 ;
0&
#123
b10 0
0!
b1 3
b1111011 ;
1&
#124
b1111100 ;
0&
#125
b10 3
b10 6
b1111101 ;
1&
#126
b1111110 ;
0&
#127
0/
b10 7
b1111111 ;
1&
#128
b10000000 ;
0&
#129
b1 -
1#
1/
b10000001 ;
1&
#130
b10000010 ;
0&
0(
#131
0#
0/
b10 7
b10000011 ;
1&
#132
b10000100 ;
0&
#133
b10 -
1#
1/
b10000101 ;
1&
#134
b10000110 ;
0&
#135
0#
0/
b10 7
b10000111 ;
1&
#136
b10001000 ;
0&
#137
b11 -
1#
1/
b10001001 ;
1&
#138
b10001010 ;
0&
#139
0#
0/
b10 7
b10001011 ;
1&
#140
b10001100 ;
0&
b0 9
b11 8
#141
b100 -
1#
1/
b10001101 ;
1&
#142
b10001110 ;
0&
#143
0#
0/
b10 7
b10001111 ;
1&
#144
b10010000 ;
0&
#145
b101 -
1#
1/
b10010001 ;
1&
#146
b10010010 ;
0&
#147
0#
0/
b10 7
b10010011 ;
1&
#148
b10010100 ;
0&
#149
b110 -
1#
1/
b10010101 ;
1&
#150
b10010110 ;
0&
b1 9
#151
0#
0/
b10 7
b10010111 ;
1&
#152
b10011000 ;
0&
#153
b111 -
1#
1/
b10011001 ;
1&
#154
b10011010 ;
0&
#155
b0 0
b1 "
b1 1
0#
0/
1.
b10 7
b10011011 ;
1&
#156
b10011100 ;
0&
#157
b0 3
0.
b0 -
1!
02
1#
1/
b10011101 ;
1&
#158
b10011110 ;
0&
#159
b0 "
b0 1
0#
b10011111 ;
1&
#160
b10100000 ;
0&
1(
#161
b1 0
b1000 5
b10 4
12
b10100001 ;
1&
#162
b10100010 ;
0&
#163
b10 0
0!
b1 3
b10100011 ;
1&
#164
b10100100 ;
0&
#165
b10 3
b10 6
b10100101 ;
1&
#166
b10100110 ;
0&
#167
0/
b10 7
b10100111 ;
1&
#168
b10101000 ;
0&
#169
b1 -
1#
1/
b10101001 ;
1&
#170
b10101010 ;
0&
0(
#171
0#
0/
b10 7
b10101011 ;
1&
#172
b10101100 ;
0&
#173
b10 -
1#
1/
b10101101 ;
1&
#174
b10101110 ;
0&
#175
0#
0/
b10 7
b10101111 ;
1&
#176
b10110000 ;
0&
#177
b11 -
1#
1/
b10110001 ;
1&
#178
b10110010 ;
0&
#179
0#
0/
b10 7
b10110011 ;
1&
#180
b10110100 ;
0&
b100 8
