HDMI_to_Matrix_FPGA/Test_Project/Nano9K_Test/sim/nspi_tx_tb.vcd
$date
	Wed Mar 19 22:38:40 2025
$end
$version
	Icarus Verilog
$end
$timescale
	1s
$end
$scope module nspi_tx_tb $end
$var wire 1 ! tx_finish $end
$var wire 2 " spi_mosi [1:0] $end
$var wire 1 # spi_clk $end
$var parameter 32 $ CHANNEL_NUMBER $end
$var parameter 32 % SPI_SIZE $end
$var reg 1 & clk $end
$var reg 1 ' rst $end
$var reg 1 ( start_tx $end
$scope module dut $end
$var wire 1 & clk $end
$var wire 1 ' rst $end
$var wire 1 ( start_tx $end
$var parameter 32 ) CHANNEL_NUMBER $end
$var parameter 32 * COUNTER_WIDTH $end
$var parameter 32 + MSB_FIRST $end
$var parameter 32 , SPI_SIZE $end
$var reg 4 - counter [3:0] $end
$var reg 2 . next_state [1:0] $end
$var reg 1 / overflow_finish $end
$var reg 1 # spi_clk $end
$var reg 2 0 spi_mosi [1:0] $end
$var reg 1 1 start_tx_internal $end
$var reg 2 2 state [1:0] $end
$var reg 1 ! tx_finish $end
$scope begin $ivl_for_loop4 $end
$var integer 32 3 i [31:0] $end
$scope begin $ivl_for_loop5 $end
$var integer 32 4 j [31:0] $end
$upscope $end
$upscope $end
$scope begin $ivl_for_loop6 $end
$upscope $end
$scope begin $ivl_for_loop7 $end
$var integer 32 5 i [31:0] $end
$upscope $end
$scope begin $ivl_for_loop8 $end
$var integer 32 6 i [31:0] $end
$upscope $end
$upscope $end
$scope begin $ivl_for_loop9 $end
$var integer 32 7 i [31:0] $end
$upscope $end
$upscope $end
$enddefinitions $end
$comment Show the parameter values. $end
$dumpall
b1000 ,
b1 +
b100 *
b10 )
b1000 %
b10 $
$end
#0
$dumpvars
b0 7
b0 6
b0 5
b0 4
b0 3
b0 2
01
b0 0
0/
b0 .
b0 -
0(
1'
0&
0#
b0 "
0!
$end
#1
1!
b1 7
1&
#2
b10 7
0&
#3
b11 7
1&
#4
b100 7
0&
#5
b101 7
1&
#6
b110 7
0&
#7
b111 7
1&
#8
b1000 7
0&
#9
b1001 7
1&
#10
b1010 7
0&
#11
b1011 7
1&
#12
b1100 7
0&
#13
b1101 7
1&
#14
b1110 7
0&
#15
b1111 7
1&
#16
b10000 7
0&
#17
b10001 7
1&
#18
b10010 7
0&
#19
b10011 7
1&
#20
b10100 7
0&
0'
#21
b10101 7
1&
#22
b10110 7
0&
#23
b10111 7
1&
#24
b11000 7
0&
#25
b11001 7
1&
#26
b11010 7
0&
#27
b11011 7
1&
#28
b11100 7
0&
#29
b11101 7
1&
#30
b11110 7
0&
#31
b11111 7
1&
#32
b100000 7
0&
#33
b100001 7
1&
#34
b100010 7
0&
#35
b100011 7
1&
#36
b100100 7
0&
#37
b100101 7
1&
#38
b100110 7
0&
#39
b100111 7
1&
#40
b101000 7
0&
#41
b101001 7
1&
#42
b101010 7
0&
#43
b101011 7
1&
#44
b101100 7
0&
#45
b101101 7
1&
#46
b101110 7
0&
#47
b101111 7
1&
#48
b110000 7
0&
#49
b110001 7
1&
#50
b110010 7
0&
#51
b110011 7
1&
#52
b110100 7
0&
#53
b110101 7
1&
#54
b110110 7
0&
#55
b110111 7
1&
#56
b111000 7
0&
#57
b111001 7
1&
#58
b111010 7
0&
#59
b111011 7
1&
#60
b111100 7
0&
#61
b111101 7
1&
#62
b111110 7
0&
#63
b111111 7
1&
#64
b1000000 7
0&
#65
b1000001 7
1&
#66
b1000010 7
0&
#67
b1000011 7
1&
#68
b1000100 7
0&
#69
b1000101 7
1&
#70
b1000110 7
0&
#71
b1000111 7
1&
#72
b1001000 7
0&
#73
b1001001 7
1&
#74
b1001010 7
0&
#75
b1001011 7
1&
#76
b1001100 7
0&
#77
b1001101 7
1&
#78
b1001110 7
0&
#79
b1001111 7
1&
#80
b1010000 7
0&
#81
b1010001 7
1&
#82
b1010010 7
0&
#83
b1010011 7
1&
#84
b1010100 7
0&
#85
b1010101 7
1&
#86
b1010110 7
0&
#87
b1010111 7
1&
#88
b1011000 7
0&
#89
b1011001 7
1&
#90
b1011010 7
0&
#91
b1011011 7
1&
#92
b1011100 7
0&
#93
b1011101 7
1&
#94
b1011110 7
0&
#95
b1011111 7
1&
#96
b1100000 7
0&
#97
b1100001 7
1&
#98
b1100010 7
0&
#99
b1100011 7
1&
#100
0!
b1 .
b10 3
b1000 4
11
b1100100 7
0&
1(
#101
b10 .
b1 2
b1100101 7
1&
#102
b10 "
b10 0
b10 5
b1100110 7
0&
#103
b10 2
b10 5
b1100111 7
1&
#104
b1 -
1#
b1101000 7
0&
#105
0#
b10 6
b1101001 7
1&
#106
b10 -
1#
b1101010 7
0&
#107
0#
b10 6
b1101011 7
1&
#108
b11 -
1#
b1101100 7
0&
#109
0#
b10 6
b1101101 7
1&
#110
b100 -
1#
b1101110 7
0&
0(
#111
b1 "
b1 0
0#
b10 6
b1101111 7
1&
#112
b101 -
1#
b1110000 7
0&
#113
0#
b10 6
b1110001 7
1&
#114
b110 -
1#
b1110010 7
0&
#115
0#
b10 6
b1110011 7
1&
#116
b111 -
1#
b1110100 7
0&
#117
0#
b10 6
b1110101 7
1&
#118
01
1/
b0 .
b1000 -
1#
b1110110 7
0&
#119
0/
b0 "
b0 0
0#
b0 2
b1110111 7
1&
#120
b1111000 7
0&
#121
1!
b1111001 7
1&
#122
b1111010 7
0&
#123
b1111011 7
1&
#124
b1111100 7
0&
#125
b1111101 7
1&
#126
b1111110 7
0&
#127
b1111111 7
1&
#128
b10000000 7
0&
#129
b10000001 7
1&
#130
b10000010 7
0&
#131
b10000011 7
1&
#132
b10000100 7
0&
#133
b10000101 7
1&
#134
b10000110 7
0&
#135
b10000111 7
1&
#136
b10001000 7
0&
#137
b10001001 7
1&
#138
b10001010 7
0&
#139
b10001011 7
1&
#140
b10001100 7
0&
#141
b10001101 7
1&
#142
b10001110 7
0&
#143
b10001111 7
1&
#144
b10010000 7
0&
#145
b10010001 7
1&
#146
b10010010 7
0&
#147
b10010011 7
1&
#148
b10010100 7
0&
#149
b10010101 7
1&
#150
b10010110 7
0&
#151
b10010111 7
1&
#152
b10011000 7
0&
#153
b10011001 7
1&
#154
b10011010 7
0&
#155
b10011011 7
1&
#156
b10011100 7
0&
#157
b10011101 7
1&
#158
b10011110 7
0&
#159
b10011111 7
1&
#160
b10100000 7
0&
#161
b10100001 7
1&
#162
b10100010 7
0&
#163
b10100011 7
1&
#164
b10100100 7
0&
#165
b10100101 7
1&
#166
b10100110 7
0&
#167
b10100111 7
1&
#168
b10101000 7
0&
#169
b10101001 7
1&
#170
b10101010 7
0&
#171
b10101011 7
1&
#172
b10101100 7
0&
#173
b10101101 7
1&
#174
b10101110 7
0&
#175
b10101111 7
1&
#176
b10110000 7
0&
#177
b10110001 7
1&
#178
b10110010 7
0&
#179
b10110011 7
1&
#180
b10110100 7
0&
#181
b10110101 7
1&
#182
b10110110 7
0&
#183
b10110111 7
1&
#184
b10111000 7
0&
#185
b10111001 7
1&
#186
b10111010 7
0&
#187
b10111011 7
1&
#188
b10111100 7
0&
#189
b10111101 7
1&
#190
b10111110 7
0&
#191
b10111111 7
1&
#192
b11000000 7
0&
#193
b11000001 7
1&
#194
b11000010 7
0&
#195
b11000011 7
1&
#196
b11000100 7
0&
#197
b11000101 7
1&
#198
b11000110 7
0&
#199
b11000111 7
1&
#200
b11001000 7
0&
#201
b11001001 7
1&
#202
b11001010 7
0&
#203
b11001011 7
1&
#204
b11001100 7
0&
#205
b11001101 7
1&
#206
b11001110 7
0&
#207
b11001111 7
1&
#208
b11010000 7
0&
#209
b11010001 7
1&
#210
b11010010 7
0&
#211
b11010011 7
1&
#212
b11010100 7
0&
#213
b11010101 7
1&
#214
b11010110 7
0&
#215
b11010111 7
1&
#216
b11011000 7
0&
#217
b11011001 7
1&
#218
b11011010 7
0&
#219
b11011011 7
1&
#220
b11011100 7
0&
#221
b11011101 7
1&
#222
b11011110 7
0&
#223
b11011111 7
1&
#224
b11100000 7
0&
#225
b11100001 7
1&
#226
b11100010 7
0&
#227
b11100011 7
1&
#228
b11100100 7
0&
#229
b11100101 7
1&
#230
b11100110 7
0&
#231
b11100111 7
1&
#232
b11101000 7
0&
#233
b11101001 7
1&
#234
b11101010 7
0&
#235
b11101011 7
1&
#236
b11101100 7
0&
#237
b11101101 7
1&
#238
b11101110 7
0&
#239
b11101111 7
1&
#240
b11110000 7
0&
#241
b11110001 7
1&
#242
b11110010 7
0&
#243
b11110011 7
1&
#244
b11110100 7
0&
#245
b11110101 7
1&
#246
b11110110 7
0&
#247
b11110111 7
1&
#248
b11111000 7
0&
#249
b11111001 7
1&
#250
b11111010 7
0&
#251
b11111011 7
1&
#252
b11111100 7
0&
#253
b11111101 7
1&
#254
b11111110 7
0&
#255
b11111111 7
1&
#256
b100000000 7
0&
#257
b100000001 7
1&
#258
b100000010 7
0&
#259
b100000011 7
1&
#260
b100000100 7
0&
#261
b100000101 7
1&
#262
b100000110 7
0&
#263
b100000111 7
1&
#264
b100001000 7
0&
#265
b100001001 7
1&
#266
b100001010 7
0&
#267
b100001011 7
1&
#268
b100001100 7
0&
#269
b100001101 7
1&
#270
b100001110 7
0&
#271
b100001111 7
1&
#272
b100010000 7
0&
#273
b100010001 7
1&
#274
b100010010 7
0&
#275
b100010011 7
1&
#276
b100010100 7
0&
#277
b100010101 7
1&
#278
b100010110 7
0&
#279
b100010111 7
1&
#280
b100011000 7
0&
#281
b100011001 7
1&
#282
b100011010 7
0&
#283
b100011011 7
1&
#284
b100011100 7
0&
#285
b100011101 7
1&
#286
b100011110 7
0&
#287
b100011111 7
1&
#288
b100100000 7
0&
#289
b100100001 7
1&
#290
b100100010 7
0&
#291
b100100011 7
1&
#292
b100100100 7
0&
#293
b100100101 7
1&
#294
b100100110 7
0&
#295
b100100111 7
1&
#296
b100101000 7
0&
#297
b100101001 7
1&
#298
b100101010 7
0&
#299
b100101011 7
1&
#300
b100101100 7
0&
#301
b100101101 7
1&
#302
b100101110 7
0&
#303
b100101111 7
1&
#304
b100110000 7
0&
#305
b100110001 7
1&
#306
b100110010 7
0&
#307
b100110011 7
1&
#308
b100110100 7
0&
#309
b100110101 7
1&
#310
b100110110 7
0&
#311
b100110111 7
1&
#312
b100111000 7
0&
#313
b100111001 7
1&
#314
b100111010 7
0&
#315
b100111011 7
1&
#316
b100111100 7
0&
#317
b100111101 7
1&
#318
b100111110 7
0&
#319
b100111111 7
1&
#320
b101000000 7
0&
#321
b101000001 7
1&
#322
b101000010 7
0&
#323
b101000011 7
1&
#324
b101000100 7
0&
#325
b101000101 7
1&
#326
b101000110 7
0&
#327
b101000111 7
1&
#328
b101001000 7
0&
#329
b101001001 7
1&
#330
b101001010 7
0&
#331
b101001011 7
1&
#332
b101001100 7
0&
#333
b101001101 7
1&
#334
b101001110 7
0&
#335
b101001111 7
1&
#336
b101010000 7
0&
#337
b101010001 7
1&
#338
b101010010 7
0&
#339
b101010011 7
1&
#340
b101010100 7
0&
#341
b101010101 7
1&
#342
b101010110 7
0&
#343
b101010111 7
1&
#344
b101011000 7
0&
#345
b101011001 7
1&
#346
b101011010 7
0&
#347
b101011011 7
1&
#348
b101011100 7
0&
#349
b101011101 7
1&
#350
b101011110 7
0&
#351
b101011111 7
1&
#352
b101100000 7
0&
#353
b101100001 7
1&
#354
b101100010 7
0&
#355
b101100011 7
1&
#356
b101100100 7
0&
#357
b101100101 7
1&
#358
b101100110 7
0&
#359
b101100111 7
1&
#360
b101101000 7
0&
#361
b101101001 7
1&
#362
b101101010 7
0&
#363
b101101011 7
1&
#364
b101101100 7
0&
#365
b101101101 7
1&
#366
b101101110 7
0&
#367
b101101111 7
1&
#368
b101110000 7
0&
#369
b101110001 7
1&
#370
b101110010 7
0&
#371
b101110011 7
1&
#372
b101110100 7
0&
#373
b101110101 7
1&
#374
b101110110 7
0&
#375
b101110111 7
1&
#376
b101111000 7
0&
#377
b101111001 7
1&
#378
b101111010 7
0&
#379
b101111011 7
1&
#380
b101111100 7
0&
#381
b101111101 7
1&
#382
b101111110 7
0&
#383
b101111111 7
1&
#384
b110000000 7
0&
#385
b110000001 7
1&
#386
b110000010 7
0&
#387
b110000011 7
1&
#388
b110000100 7
0&
#389
b110000101 7
1&
#390
b110000110 7
0&
#391
b110000111 7
1&
#392
b110001000 7
0&
#393
b110001001 7
1&
#394
b110001010 7
0&
#395
b110001011 7
1&
#396
b110001100 7
0&
#397
b110001101 7
1&
#398
b110001110 7
0&
#399
b110001111 7
1&
#400
b110010000 7
0&
#401
b110010001 7
1&
#402
b110010010 7
0&
#403
b110010011 7
1&
#404
b110010100 7
0&
#405
b110010101 7
1&
#406
b110010110 7
0&
#407
b110010111 7
1&
#408
b110011000 7
0&
#409
b110011001 7
1&
#410
b110011010 7
0&
#411
b110011011 7
1&
#412
b110011100 7
0&
#413
b110011101 7
1&
#414
b110011110 7
0&
#415
b110011111 7
1&
#416
b110100000 7
0&
#417
b110100001 7
1&
#418
b110100010 7
0&
#419
b110100011 7
1&
#420
b110100100 7
0&
#421
b110100101 7
1&
#422
b110100110 7
0&
#423
b110100111 7
1&
#424
b110101000 7
0&
#425
b110101001 7
1&
#426
b110101010 7
0&
#427
b110101011 7
1&
#428
b110101100 7
0&
#429
b110101101 7
1&
#430
b110101110 7
0&
#431
b110101111 7
1&
#432
b110110000 7
0&
#433
b110110001 7
1&
#434
b110110010 7
0&
#435
b110110011 7
1&
#436
b110110100 7
0&
#437
b110110101 7
1&
#438
b110110110 7
0&
#439
b110110111 7
1&
#440
b110111000 7
0&
#441
b110111001 7
1&
#442
b110111010 7
0&
#443
b110111011 7
1&
#444
b110111100 7
0&
#445
b110111101 7
1&
#446
b110111110 7
0&
#447
b110111111 7
1&
#448
b111000000 7
0&
#449
b111000001 7
1&
#450
b111000010 7
0&
#451
b111000011 7
1&
#452
b111000100 7
0&
#453
b111000101 7
1&
#454
b111000110 7
0&
#455
b111000111 7
1&
#456
b111001000 7
0&
#457
b111001001 7
1&
#458
b111001010 7
0&
#459
b111001011 7
1&
#460
b111001100 7
0&
#461
b111001101 7
1&
#462
b111001110 7
0&
#463
b111001111 7
1&
#464
b111010000 7
0&
#465
b111010001 7
1&
#466
b111010010 7
0&
#467
b111010011 7
1&
#468
b111010100 7
0&
#469
b111010101 7
1&
#470
b111010110 7
0&
#471
b111010111 7
1&
#472
b111011000 7
0&
#473
b111011001 7
1&
#474
b111011010 7
0&
#475
b111011011 7
1&
#476
b111011100 7
0&
#477
b111011101 7
1&
#478
b111011110 7
0&
#479
b111011111 7
1&
#480
b111100000 7
0&
#481
b111100001 7
1&
#482
b111100010 7
0&
#483
b111100011 7
1&
#484
b111100100 7
0&
#485
b111100101 7
1&
#486
b111100110 7
0&
#487
b111100111 7
1&
#488
b111101000 7
0&
#489
b111101001 7
1&
#490
b111101010 7
0&
#491
b111101011 7
1&
#492
b111101100 7
0&
#493
b111101101 7
1&
#494
b111101110 7
0&
#495
b111101111 7
1&
#496
b111110000 7
0&
#497
b111110001 7
1&
#498
b111110010 7
0&
#499
b111110011 7
1&
#500
b111110100 7
0&
#501
b111110101 7
1&
#502
b111110110 7
0&
#503
b111110111 7
1&
#504
b111111000 7
0&
#505
b111111001 7
1&
#506
b111111010 7
0&
#507
b111111011 7
1&
#508
b111111100 7
0&
#509
b111111101 7
1&
#510
0!
b1000 4
b10 3
b1 .
11
b0 -
b111111110 7
0&
1(
#511
b10 .
b1 2
b111111111 7
1&
#512
b10 "
b10 0
b10 5
b1000000000 7
0&
#513
b10 2
b10 5
b1000000001 7
1&
#514
b1 -
1#
b1000000010 7
0&
#515
0#
b10 6
b1000000011 7
1&
#516
b10 -
1#
b1000000100 7
0&
#517
0#
b10 6
b1000000101 7
1&
#518
b11 -
1#
b1000000110 7
0&
#519
0#
b10 6
b1000000111 7
1&
#520
b100 -
1#
b1000001000 7
0&
0(
#521
b1 "
b1 0
0#
b10 6
b1000001001 7
1&
#522
b101 -
1#
b1000001010 7
0&
#523
0#
b10 6
b1000001011 7
1&
#524
b110 -
1#
b1000001100 7
0&
#525
0#
b10 6
b1000001101 7
1&
#526
b111 -
1#
b1000001110 7
0&
#527
0#
b10 6
b1000001111 7
1&
#528
01
1/
b0 .
b1000 -
1#
b1000010000 7
0&
#529
0/
b0 "
b0 0
0#
b0 2
b1000010001 7
1&
#530
b1000010010 7
0&
#531
1!
b1000010011 7
1&
#532
b1000010100 7
0&
#533
b1000010101 7
1&
#534
b1000010110 7
0&
#535
b1000010111 7
1&
#536
b1000011000 7
0&
#537
b1000011001 7
1&
#538
b1000011010 7
0&
#539
b1000011011 7
1&
#540
b1000011100 7
0&
#541
b1000011101 7
1&
#542
b1000011110 7
0&
#543
b1000011111 7
1&
#544
b1000100000 7
0&
#545
b1000100001 7
1&
#546
b1000100010 7
0&
#547
b1000100011 7
1&
#548
b1000100100 7
0&
#549
b1000100101 7
1&
#550
b1000100110 7
0&
#551
b1000100111 7
1&
#552
b1000101000 7
0&
#553
b1000101001 7
1&
#554
b1000101010 7
0&
#555
b1000101011 7
1&
#556
b1000101100 7
0&
#557
b1000101101 7
1&
#558
b1000101110 7
0&
#559
b1000101111 7
1&
#560
b1000110000 7
0&
#561
b1000110001 7
1&
#562
b1000110010 7
0&
#563
b1000110011 7
1&
#564
b1000110100 7
0&
#565
b1000110101 7
1&
#566
b1000110110 7
0&
#567
b1000110111 7
1&
#568
b1000111000 7
0&
#569
b1000111001 7
1&
#570
b1000111010 7
0&
#571
b1000111011 7
1&
#572
b1000111100 7
0&
#573
b1000111101 7
1&
#574
b1000111110 7
0&
#575
b1000111111 7
1&
#576
b1001000000 7
0&
#577
b1001000001 7
1&
#578
b1001000010 7
0&
#579
b1001000011 7
1&
#580
b1001000100 7
0&
#581
b1001000101 7
1&
#582
b1001000110 7
0&
#583
b1001000111 7
1&
#584
b1001001000 7
0&
#585
b1001001001 7
1&
#586
b1001001010 7
0&
#587
b1001001011 7
1&
#588
b1001001100 7
0&
#589
b1001001101 7
1&
#590
b1001001110 7
0&
#591
b1001001111 7
1&
#592
b1001010000 7
0&
#593
b1001010001 7
1&
#594
b1001010010 7
0&
#595
b1001010011 7
1&
#596
b1001010100 7
0&
#597
b1001010101 7
1&
#598
b1001010110 7
0&
#599
b1001010111 7
1&
#600
b1001011000 7
0&
#601
b1001011001 7
1&
#602
b1001011010 7
0&
#603
b1001011011 7
1&
#604
b1001011100 7
0&
#605
b1001011101 7
1&
#606
b1001011110 7
0&
#607
b1001011111 7
1&
#608
b1001100000 7
0&
#609
b1001100001 7
1&
#610
b1001100010 7
0&
#611
b1001100011 7
1&
#612
b1001100100 7
0&
#613
b1001100101 7
1&
#614
b1001100110 7
0&
#615
b1001100111 7
1&
#616
b1001101000 7
0&
#617
b1001101001 7
1&
#618
b1001101010 7
0&
#619
b1001101011 7
1&
#620
b1001101100 7
0&
#621
b1001101101 7
1&
#622
b1001101110 7
0&
#623
b1001101111 7
1&
#624
b1001110000 7
0&
#625
b1001110001 7
1&
#626
b1001110010 7
0&
#627
b1001110011 7
1&
#628
b1001110100 7
0&
#629
b1001110101 7
1&
#630
b1001110110 7
0&
#631
b1001110111 7
1&
#632
b1001111000 7
0&
#633
b1001111001 7
1&
#634
b1001111010 7
0&
#635
b1001111011 7
1&
#636
b1001111100 7
0&
#637
b1001111101 7
1&
#638
b1001111110 7
0&
#639
b1001111111 7
1&
#640
b1010000000 7
0&
#641
b1010000001 7
1&
#642
b1010000010 7
0&
#643
b1010000011 7
1&
#644
b1010000100 7
0&
#645
b1010000101 7
1&
#646
b1010000110 7
0&
#647
b1010000111 7
1&
#648
b1010001000 7
0&
#649
b1010001001 7
1&
#650
b1010001010 7
0&
#651
b1010001011 7
1&
#652
b1010001100 7
0&
#653
b1010001101 7
1&
#654
b1010001110 7
0&
#655
b1010001111 7
1&
#656
b1010010000 7
0&
#657
b1010010001 7
1&
#658
b1010010010 7
0&
#659
b1010010011 7
1&
#660
b1010010100 7
0&
#661
b1010010101 7
1&
#662
b1010010110 7
0&
#663
b1010010111 7
1&
#664
b1010011000 7
0&
#665
b1010011001 7
1&
#666
b1010011010 7
0&
#667
b1010011011 7
1&
#668
b1010011100 7
0&
#669
b1010011101 7
1&
#670
b1010011110 7
0&
#671
b1010011111 7
1&
#672
b1010100000 7
0&
#673
b1010100001 7
1&
#674
b1010100010 7
0&
#675
b1010100011 7
1&
#676
b1010100100 7
0&
#677
b1010100101 7
1&
#678
b1010100110 7
0&
#679
b1010100111 7
1&
#680
b1010101000 7
0&
#681
b1010101001 7
1&
#682
b1010101010 7
0&
#683
b1010101011 7
1&
#684
b1010101100 7
0&
#685
b1010101101 7
1&
#686
b1010101110 7
0&
#687
b1010101111 7
1&
#688
b1010110000 7
0&
#689
b1010110001 7
1&
#690
b1010110010 7
0&
#691
b1010110011 7
1&
#692
b1010110100 7
0&
#693
b1010110101 7
1&
#694
b1010110110 7
0&
#695
b1010110111 7
1&
#696
b1010111000 7
0&
#697
b1010111001 7
1&
#698
b1010111010 7
0&
#699
b1010111011 7
1&
#700
b1010111100 7
0&
#701
b1010111101 7
1&
#702
b1010111110 7
0&
#703
b1010111111 7
1&
#704
b1011000000 7
0&
#705
b1011000001 7
1&
#706
b1011000010 7
0&
#707
b1011000011 7
1&
#708
b1011000100 7
0&
#709
b1011000101 7
1&
#710
b1011000110 7
0&
#711
b1011000111 7
1&
#712
b1011001000 7
0&
#713
b1011001001 7
1&
#714
b1011001010 7
0&
#715
b1011001011 7
1&
#716
b1011001100 7
0&
#717
b1011001101 7
1&
#718
b1011001110 7
0&
#719
b1011001111 7
1&
#720
0!
b1000 4
b10 3
b1 .
11
b0 -
b1011010000 7
0&
1(
#721
b10 .
b1 2
b1011010001 7
1&
#722
b11 "
b11 0
b10 5
b1011010010 7
0&
#723
b10 2
b10 5
b1011010011 7
1&
#724
b1 -
1#
b1011010100 7
0&
#725
b10 "
b10 0
0#
b10 6
b1011010101 7
1&
#726
b10 -
1#
b1011010110 7
0&
#727
b11 "
b11 0
0#
b10 6
b1011010111 7
1&
#728
b11 -
1#
b1011011000 7
0&
#729
0#
b10 6
b1011011001 7
1&
#730
b100 -
1#
b1011011010 7
0&
0(
#731
b1 "
b1 0
0#
b10 6
b1011011011 7
1&
#732
b101 -
1#
b1011011100 7
0&
#733
b0 "
b0 0
0#
b10 6
b1011011101 7
1&
#734
b110 -
1#
b1011011110 7
0&
#735
b1 "
b1 0
0#
b10 6
b1011011111 7
1&
#736
b111 -
1#
b1011100000 7
0&
#737
0#
b10 6
b1011100001 7
1&
#738
01
1/
b0 .
b1000 -
1#
b1011100010 7
0&
#739
0/
b0 "
b0 0
0#
b0 2
b1011100011 7
1&
#740
b1011100100 7
0&
#741
1!
b1011100101 7
1&
#742
b1011100110 7
0&
#743
b1011100111 7
1&
#744
b1011101000 7
0&
#745
b1011101001 7
1&
#746
b1011101010 7
0&
#747
b1011101011 7
1&
#748
b1011101100 7
0&
#749
b1011101101 7
1&
#750
b1011101110 7
0&
#751
b1011101111 7
1&
#752
b1011110000 7
0&
#753
b1011110001 7
1&
#754
b1011110010 7
0&
#755
b1011110011 7
1&
#756
b1011110100 7
0&
#757
b1011110101 7
1&
#758
b1011110110 7
0&
#759
b1011110111 7
1&
#760
b1011111000 7
0&
#761
b1011111001 7
1&
#762
b1011111010 7
0&
#763
b1011111011 7
1&
#764
b1011111100 7
0&
#765
b1011111101 7
1&
#766
b1011111110 7
0&
#767
b1011111111 7
1&
#768
b1100000000 7
0&
#769
b1100000001 7
1&
#770
b1100000010 7
0&
#771
b1100000011 7
1&
#772
b1100000100 7
0&
#773
b1100000101 7
1&
#774
b1100000110 7
0&
#775
b1100000111 7
1&
#776
b1100001000 7
0&
#777
b1100001001 7
1&
#778
b1100001010 7
0&
#779
b1100001011 7
1&
#780
b1100001100 7
0&
#781
b1100001101 7
1&
#782
b1100001110 7
0&
#783
b1100001111 7
1&
#784
b1100010000 7
0&
#785
b1100010001 7
1&
#786
b1100010010 7
0&
#787
b1100010011 7
1&
#788
b1100010100 7
0&
#789
b1100010101 7
1&
#790
b1100010110 7
0&
#791
b1100010111 7
1&
#792
b1100011000 7
0&
#793
b1100011001 7
1&
#794
b1100011010 7
0&
#795
b1100011011 7
1&
#796
b1100011100 7
0&
#797
b1100011101 7
1&
#798
b1100011110 7
0&
#799
b1100011111 7
1&
#800
b1100100000 7
0&
#801
b1100100001 7
1&
#802
b1100100010 7
0&
#803
b1100100011 7
1&
#804
b1100100100 7
0&
#805
b1100100101 7
1&
#806
b1100100110 7
0&
#807
b1100100111 7
1&
#808
b1100101000 7
0&
#809
b1100101001 7
1&
#810
b1100101010 7
0&
#811
b1100101011 7
1&
#812
b1100101100 7
0&
#813
b1100101101 7
1&
#814
b1100101110 7
0&
#815
b1100101111 7
1&
#816
b1100110000 7
0&
#817
b1100110001 7
1&
#818
b1100110010 7
0&
#819
b1100110011 7
1&
#820
b1100110100 7
0&
#821
b1100110101 7
1&
#822
b1100110110 7
0&
#823
b1100110111 7
1&
#824
b1100111000 7
0&
#825
b1100111001 7
1&
#826
b1100111010 7
0&
#827
b1100111011 7
1&
#828
b1100111100 7
0&
#829
b1100111101 7
1&
#830
b1100111110 7
0&
