HDMI_to_Matrix_FPGA/Test_Project/Nano9K_Test/sim/nspi_tx_tb.vcd
$date
	Mon Mar 17 22:54:20 2025
$end
$version
	Icarus Verilog
$end
$timescale
	1s
$end
$scope module nspi_tx_tb $end
$var wire 1 ! tx_finish $end
$var wire 2 " spi_mosi [1:0] $end
$var wire 1 # spi_clk $end
$var parameter 32 $ CHANNEL_NUMBER $end
$var parameter 32 % SPI_SIZE $end
$var reg 1 & clk $end
$var reg 1 ' rst $end
$var reg 1 ( start_tx $end
$scope module dut $end
$var wire 1 & clk $end
$var wire 1 ' rst $end
$var wire 1 ( start_tx $end
$var wire 1 ! tx_finish $end
$var parameter 32 ) CHANNEL_NUMBER $end
$var parameter 32 * COUNTER_WIDTH $end
$var parameter 32 + MSB_FIRST $end
$var parameter 32 , SPI_SIZE $end
$var reg 4 - counter [3:0] $end
$var reg 2 . next_state [1:0] $end
$var reg 1 / overflow_finish $end
$var reg 1 # spi_clk $end
$var reg 2 0 spi_mosi [1:0] $end
$var reg 1 1 start_tx_internal $end
$var reg 2 2 state [1:0] $end
$scope begin $ivl_for_loop1 $end
$var integer 32 3 i [31:0] $end
$scope begin $ivl_for_loop2 $end
$var integer 32 4 j [31:0] $end
$upscope $end
$upscope $end
$scope begin $ivl_for_loop3 $end
$upscope $end
$scope begin $ivl_for_loop4 $end
$var integer 32 5 i [31:0] $end
$upscope $end
$scope begin $ivl_for_loop5 $end
$var integer 32 6 i [31:0] $end
$upscope $end
$upscope $end
$scope begin $ivl_for_loop6 $end
$var integer 32 7 i [31:0] $end
$upscope $end
$upscope $end
$enddefinitions $end
$comment Show the parameter values. $end
$dumpall
b1000 ,
b1 +
b100 *
b10 )
b1000 %
b10 $
$end
#0
$dumpvars
b0 7
b0 6
b0 5
b0 4
b0 3
b0 2
01
b0 0
0/
b0 .
b0 -
0(
1'
0&
0#
b0 "
1!
$end
#10
b1 7
1&
#20
b10 7
0&
0'
#30
b11 7
1&
#40
b100 7
0&
#50
b101 7
1&
#60
b110 7
0&
#70
b111 7
1&
#80
b1000 7
0&
#90
b1001 7
1&
#100
b1 .
b10 3
b1000 4
0!
11
b1010 7
0&
1(
#110
b10 .
b1 2
b1011 7
1&
0(
#120
b10 "
b10 0
b10 5
b1100 7
0&
#130
b10 2
b10 5
b1101 7
1&
#140
b1 -
1#
b1110 7
0&
#150
0#
b10 6
b1111 7
1&
#160
b10 -
1#
b10000 7
0&
#170
0#
b10 6
b10001 7
1&
#180
b11 -
1#
b10010 7
0&
#190
0#
b10 6
b10011 7
1&
#200
b100 -
1#
b10100 7
0&
#210
b1 "
b1 0
0#
b10 6
b10101 7
1&
#220
b101 -
1#
b10110 7
0&
#230
0#
b10 6
b10111 7
1&
#240
b110 -
1#
b11000 7
0&
#250
0#
b10 6
b11001 7
1&
#260
b111 -
1#
b11010 7
0&
#270
0#
b10 6
b11011 7
1&
#280
1!
01
1/
b0 .
b1000 -
1#
b11100 7
0&
#290
0/
b0 "
b0 0
0#
b0 2
b11101 7
1&
#300
b11110 7
0&
#310
b11111 7
1&
#320
b100000 7
0&
#330
b100001 7
1&
#340
b100010 7
0&
#350
b100011 7
1&
#360
b100100 7
0&
#370
b100101 7
1&
#380
b100110 7
0&
#390
b100111 7
1&
#400
b101000 7
0&
#410
b101001 7
1&
#420
b101010 7
0&
#430
b101011 7
1&
#440
b101100 7
0&
#450
b101101 7
1&
#460
b101110 7
0&
#470
b101111 7
1&
#480
b110000 7
0&
#490
b110001 7
1&
#500
b110010 7
0&
#510
b1000 4
b10 3
0!
b1 .
11
b0 -
b110011 7
1&
1(
#520
b110100 7
0&
0(
#530
b10 .
b1 2
b110101 7
1&
#540
b10 "
b10 0
b10 5
b110110 7
0&
#550
b10 2
b10 5
b110111 7
1&
#560
b1 -
1#
b111000 7
0&
#570
0#
b10 6
b111001 7
1&
#580
b10 -
1#
b111010 7
0&
#590
0#
b10 6
b111011 7
1&
#600
b11 -
1#
b111100 7
0&
#610
0#
b10 6
b111101 7
1&
#620
b100 -
1#
b111110 7
0&
#630
b1 "
b1 0
0#
b10 6
b111111 7
1&
#640
b101 -
1#
b1000000 7
0&
#650
0#
b10 6
b1000001 7
1&
#660
b110 -
1#
b1000010 7
0&
#670
0#
b10 6
b1000011 7
1&
#680
b111 -
1#
b1000100 7
0&
#690
0#
b10 6
b1000101 7
1&
#700
1!
01
1/
b0 .
b1000 -
1#
b1000110 7
0&
#710
0/
b0 "
b0 0
0#
b0 2
b1000111 7
1&
#720
b1000 4
b10 3
0!
b1 .
11
b0 -
b1001000 7
0&
1(
#730
b10 .
b1 2
b1001001 7
1&
0(
#740
b11 "
b11 0
b10 5
b1001010 7
0&
#750
b10 2
b10 5
b1001011 7
1&
#760
b1 -
1#
b1001100 7
0&
#770
b10 "
b10 0
0#
b10 6
b1001101 7
1&
#780
b10 -
1#
b1001110 7
0&
#790
b11 "
b11 0
0#
b10 6
b1001111 7
1&
#800
b11 -
1#
b1010000 7
0&
#810
0#
b10 6
b1010001 7
1&
#820
b100 -
1#
b1010010 7
0&
#830
b1 "
b1 0
0#
b10 6
b1010011 7
1&
