HDMI_to_Matrix_FPGA/Test_Project/Nano9K_Test/sim/nspi_tx_tb.vcd
$date
	Fri Mar 21 17:31:18 2025
$end
$version
	Icarus Verilog
$end
$timescale
	1s
$end
$scope module nspi_tx_tb $end
$var wire 1 ! tx_finish $end
$var wire 2 " spi_mosi [1:0] $end
$var wire 1 # spi_clk $end
$var parameter 32 $ CHANNEL_NUMBER $end
$var parameter 32 % SPI_SIZE $end
$var reg 1 & clk $end
$var reg 1 ' rst $end
$var reg 1 ( start_tx $end
$scope module spi_tx $end
$var wire 1 & clk $end
$var wire 1 ' rst $end
$var wire 1 ( start_tx $end
$var wire 1 ) w_xor_clk $end
$var parameter 32 * CHANNEL_NUMBER $end
$var parameter 32 + COUNTER_WIDTH $end
$var parameter 32 , MSB_FIRST $end
$var parameter 32 - SPI_SIZE $end
$var reg 4 . counter [3:0] $end
$var reg 1 / counter_overflow_flag $end
$var reg 2 0 next_state [1:0] $end
$var reg 1 1 r_clk $end
$var reg 1 # spi_clk $end
$var reg 2 2 spi_mosi [1:0] $end
$var reg 1 3 start_tx_internal $end
$var reg 2 4 state [1:0] $end
$var reg 1 ! tx_finish $end
$scope begin $ivl_for_loop4 $end
$var integer 32 5 i [31:0] $end
$scope begin $ivl_for_loop5 $end
$var integer 32 6 j [31:0] $end
$upscope $end
$upscope $end
$scope begin $ivl_for_loop6 $end
$upscope $end
$scope begin $ivl_for_loop7 $end
$var integer 32 7 i [31:0] $end
$upscope $end
$scope begin $ivl_for_loop8 $end
$var integer 32 8 i [31:0] $end
$upscope $end
$upscope $end
$scope begin $ivl_for_loop10 $end
$var integer 32 9 i [31:0] $end
$scope begin $ivl_for_loop11 $end
$var integer 32 : j [31:0] $end
$upscope $end
$scope begin $ivl_for_loop12 $end
$var integer 32 ; j [31:0] $end
$upscope $end
$upscope $end
$scope begin $ivl_for_loop9 $end
$var integer 32 < i [31:0] $end
$upscope $end
$upscope $end
$enddefinitions $end
$comment Show the parameter values. $end
$dumpall
b1000 -
b1 ,
b100 +
b10 *
b1000 %
b10 $
$end
#0
$dumpvars
b0 <
b0 ;
b0 :
b0 9
b0 8
b0 7
b0 6
b0 5
b0 4
03
bx 2
01
b0 0
0/
b0 .
0)
x(
1'
0&
x#
bx "
0!
$end
#1
b0 "
b0 2
0#
11
0)
b1 <
1&
#2
01
0)
b10 <
0&
#3
11
0)
b11 <
1&
#4
01
0)
b100 <
0&
#5
11
0)
b101 <
1&
#6
01
0)
b110 <
0&
#7
11
0)
b111 <
1&
#8
01
0)
b1000 <
0&
#9
11
0)
b1001 <
1&
#10
01
0)
b1010 <
0&
#11
11
0)
b1011 <
1&
#12
01
0)
b1100 <
0&
#13
11
0)
b1101 <
1&
#14
01
0)
b1110 <
0&
#15
11
0)
b1111 <
1&
#16
01
0)
b10000 <
0&
#17
11
0)
b10001 <
1&
#18
01
0)
b10010 <
0&
#19
11
0)
b10011 <
1&
#20
01
0)
b10100 <
0&
0'
#21
11
1!
0)
b10101 <
1&
#22
01
0)
b10110 <
0&
#23
11
0)
b10111 <
1&
#24
01
0)
b11000 <
0&
#25
11
0)
b11001 <
1&
#26
01
0)
b11010 <
0&
#27
11
0)
b11011 <
1&
#28
01
0)
b11100 <
0&
#29
11
0)
b11101 <
1&
#30
01
0)
b11110 <
0&
#31
11
0)
b11111 <
1&
#32
01
0)
b100000 <
0&
#33
11
0)
b100001 <
1&
#34
01
0)
b100010 <
0&
#35
11
0)
b100011 <
1&
#36
01
0)
b100100 <
0&
#37
11
0)
b100101 <
1&
#38
01
0)
b100110 <
0&
#39
11
0)
b100111 <
1&
#40
01
0)
b101000 <
0&
1(
#41
b1 0
b10 5
b1000 6
11
13
0)
b101001 <
1&
#42
01
0)
b101010 <
0&
#43
b10 0
11
0!
b1 4
0)
b101011 <
1&
#44
b10 "
b10 2
01
b10 7
0)
b101100 <
0&
#45
11
b10 4
b1 .
b10 7
0)
b101101 <
1&
#46
1#
01
0)
b101110 <
0&
#47
0#
11
b10 .
b10 8
0)
b101111 <
1&
#48
1#
01
0)
b110000 <
0&
#49
0#
11
b11 .
b10 8
0)
b110001 <
1&
#50
1#
01
0)
b110010 <
0&
0(
#51
0#
11
b100 .
b10 8
0)
b110011 <
1&
#52
1#
01
0)
b110100 <
0&
#53
b1 "
b1 2
0#
11
b101 .
b10 8
0)
b110101 <
1&
#54
1#
01
0)
b110110 <
0&
#55
0#
11
b110 .
b10 8
0)
b110111 <
1&
#56
1#
01
0)
b111000 <
0&
#57
0#
11
b111 .
b10 8
0)
b111001 <
1&
#58
1#
01
0)
b111010 <
0&
#59
b0 0
0#
11
1/
b1000 .
b10 8
0)
b111011 <
1&
#60
1#
01
0)
b111100 <
0&
b1 9
#61
b0 "
b0 2
0#
11
b0 4
0/
b0 .
1!
03
0)
b111101 <
1&
#62
01
0)
b111110 <
0&
#63
11
0)
b111111 <
1&
#64
01
0)
b1000000 <
0&
#65
11
0)
b1000001 <
1&
#66
01
0)
b1000010 <
0&
#67
11
0)
b1000011 <
1&
#68
01
0)
b1000100 <
0&
#69
11
0)
b1000101 <
1&
#70
01
0)
b1000110 <
0&
1(
#71
b1 0
b1000 6
b10 5
11
13
0)
b1000111 <
1&
#72
01
0)
b1001000 <
0&
#73
b10 0
11
b1 4
0!
0)
b1001001 <
1&
#74
b10 "
b10 2
01
b10 7
0)
b1001010 <
0&
#75
11
b1 .
b10 4
b10 7
0)
b1001011 <
1&
#76
1#
01
0)
b1001100 <
0&
#77
0#
11
b10 .
b10 8
0)
b1001101 <
1&
#78
1#
01
0)
b1001110 <
0&
#79
0#
11
b11 .
b10 8
0)
b1001111 <
1&
#80
1#
01
0)
b1010000 <
0&
0(
#81
0#
11
b100 .
b10 8
0)
b1010001 <
1&
#82
1#
01
0)
b1010010 <
0&
#83
b1 "
b1 2
0#
11
b101 .
b10 8
0)
b1010011 <
1&
#84
1#
01
0)
b1010100 <
0&
#85
0#
11
b110 .
b10 8
0)
b1010101 <
1&
#86
1#
01
0)
b1010110 <
0&
#87
0#
11
b111 .
b10 8
0)
b1010111 <
1&
#88
1#
01
0)
b1011000 <
0&
#89
b0 0
0#
11
1/
b1000 .
b10 8
0)
b1011001 <
1&
#90
1#
01
0)
b1011010 <
0&
b10 9
#91
b0 "
b0 2
0#
11
03
1!
0/
b0 .
b0 4
0)
b1011011 <
1&
#92
01
0)
b1011100 <
0&
#93
11
0)
b1011101 <
1&
#94
01
0)
b1011110 <
0&
#95
11
0)
b1011111 <
1&
#96
01
0)
b1100000 <
0&
#97
11
0)
b1100001 <
1&
#98
01
0)
b1100010 <
0&
#99
11
0)
b1100011 <
1&
#100
01
0)
b1100100 <
0&
1(
#101
b1 0
b1000 6
b10 5
11
13
0)
b1100101 <
1&
#102
01
0)
b1100110 <
0&
#103
b10 0
11
0!
b1 4
0)
b1100111 <
1&
#104
b10 "
b10 2
01
b10 7
0)
b1101000 <
0&
#105
11
b10 4
b1 .
b10 7
0)
b1101001 <
1&
#106
1#
01
0)
b1101010 <
0&
#107
0#
11
b10 .
b10 8
0)
b1101011 <
1&
#108
1#
01
0)
b1101100 <
0&
#109
0#
11
b11 .
b10 8
0)
b1101101 <
1&
#110
1#
01
0)
b1101110 <
0&
0(
#111
0#
11
b100 .
b10 8
0)
b1101111 <
1&
#112
1#
01
0)
b1110000 <
0&
#113
b1 "
b1 2
0#
11
b101 .
b10 8
0)
b1110001 <
1&
#114
1#
01
0)
b1110010 <
0&
#115
0#
11
b110 .
b10 8
0)
b1110011 <
1&
#116
1#
01
0)
b1110100 <
0&
#117
0#
11
b111 .
b10 8
0)
b1110101 <
1&
#118
1#
01
0)
b1110110 <
0&
#119
b0 0
0#
11
1/
b1000 .
b10 8
0)
b1110111 <
1&
#120
1#
01
0)
b1111000 <
0&
b11 9
#121
b0 "
b0 2
0#
11
b0 4
0/
b0 .
1!
03
0)
b1111001 <
1&
#122
01
0)
b1111010 <
0&
#123
11
0)
b1111011 <
1&
#124
01
0)
b1111100 <
0&
#125
11
0)
b1111101 <
1&
#126
01
0)
b1111110 <
0&
#127
11
0)
b1111111 <
1&
#128
01
0)
b10000000 <
0&
#129
11
0)
b10000001 <
1&
#130
01
0)
b10000010 <
0&
1(
#131
b1 0
b1000 6
b10 5
11
13
0)
b10000011 <
1&
#132
01
0)
b10000100 <
0&
#133
b10 0
11
b1 4
0!
0)
b10000101 <
1&
#134
b10 "
b10 2
01
b10 7
0)
b10000110 <
0&
#135
11
b1 .
b10 4
b10 7
0)
b10000111 <
1&
#136
1#
01
0)
b10001000 <
0&
#137
0#
11
b10 .
b10 8
0)
b10001001 <
1&
#138
1#
01
0)
b10001010 <
0&
#139
0#
11
b11 .
b10 8
0)
b10001011 <
1&
#140
1#
01
0)
b10001100 <
0&
0(
#141
0#
11
b100 .
b10 8
0)
b10001101 <
1&
#142
1#
01
0)
b10001110 <
0&
#143
b1 "
b1 2
0#
11
b101 .
b10 8
0)
b10001111 <
1&
#144
1#
01
0)
b10010000 <
0&
#145
0#
11
b110 .
b10 8
0)
b10010001 <
1&
#146
1#
01
0)
b10010010 <
0&
#147
0#
11
b111 .
b10 8
0)
b10010011 <
1&
#148
1#
01
0)
b10010100 <
0&
#149
b0 0
0#
11
1/
b1000 .
b10 8
0)
b10010101 <
1&
#150
1#
01
0)
b10010110 <
0&
b100 9
