HDMI_to_Matrix_FPGA/Test_Project/Nano9K_Test/sim/output_module.vcd
$date
	Wed Mar 19 22:38:40 2025
$end
$version
	Icarus Verilog
$end
$timescale
	1s
$end
$scope module output_module_tb $end
$var wire 1 ! tx_finish $end
$var wire 3 " spi_mosi [2:0] $end
$var wire 1 # spi_clk $end
$var wire 1 $ ser_stcp $end
$var wire 1 % ser_n_enable $end
$var wire 1 & ser_data $end
$var wire 1 ' ser_clk $end
$var parameter 32 ( CHANNEL_NUMBER $end
$var parameter 32 ) SPI_SIZE $end
$var parameter 32 * TEST_SIZE $end
$var reg 1 + clk $end
$var reg 1 , extra_bit $end
$var reg 1 - next_data $end
$var reg 1 . rst $end
$var reg 1 / start_first_column $end
$var reg 1 0 start_next_column $end
$scope module dut $end
$var wire 1 + clk $end
$var wire 1 , extra_bit $end
$var wire 1 - next_data $end
$var wire 1 . rst $end
$var wire 1 / start_first_column $end
$var wire 1 0 start_next_column $end
$var wire 1 1 spi_tx_finish $end
$var wire 3 2 spi_mosi [2:0] $end
$var wire 1 # spi_clk $end
$var wire 1 $ ser_stcp $end
$var wire 1 % ser_n_enable $end
$var wire 1 & ser_data $end
$var wire 1 ' ser_clk $end
$var wire 1 3 column_select_ready $end
$var parameter 32 4 CHANNEL_NUMBER $end
$var parameter 32 5 MSB_FIRST $end
$var parameter 32 6 SPI_SIZE $end
$var reg 3 7 next_state [2:0] $end
$var reg 1 8 select_first $end
$var reg 1 9 select_next $end
$var reg 1 : spi_start_tx $end
$var reg 3 ; state [2:0] $end
$var reg 1 ! tx_finish $end
$scope module cs $end
$var wire 1 + clk $end
$var wire 1 , extra_bit $end
$var wire 1 . rst $end
$var wire 1 8 select_first $end
$var wire 1 9 select_next $end
$var wire 1 < tx_finish $end
$var wire 1 & ser_data $end
$var wire 1 ' ser_clk $end
$var reg 8 = column_data [7:0] $end
$var reg 2 > counter [1:0] $end
$var reg 3 ? next_state [2:0] $end
$var reg 1 3 ready $end
$var reg 1 % ser_n_enable $end
$var reg 1 $ ser_stcp $end
$var reg 1 @ start_tx $end
$var reg 3 A state [2:0] $end
$scope module shift_reg $end
$var wire 1 + clk $end
$var wire 1 . rst $end
$var wire 1 @ start_tx $end
$var parameter 32 B CHANNEL_NUMBER $end
$var parameter 32 C COUNTER_WIDTH $end
$var parameter 32 D MSB_FIRST $end
$var parameter 32 E SPI_SIZE $end
$var reg 4 F counter [3:0] $end
$var reg 2 G next_state [1:0] $end
$var reg 1 H overflow_finish $end
$var reg 1 ' spi_clk $end
$var reg 1 & spi_mosi $end
$var reg 1 I start_tx_internal $end
$var reg 2 J state [1:0] $end
$var reg 1 < tx_finish $end
$scope begin $ivl_for_loop4 $end
$var integer 32 K i [31:0] $end
$scope begin $ivl_for_loop5 $end
$var integer 32 L j [31:0] $end
$upscope $end
$upscope $end
$scope begin $ivl_for_loop6 $end
$upscope $end
$scope begin $ivl_for_loop7 $end
$var integer 32 M i [31:0] $end
$upscope $end
$scope begin $ivl_for_loop8 $end
$var integer 32 N i [31:0] $end
$upscope $end
$upscope $end
$upscope $end
$scope module spi_tx $end
$var wire 1 + clk $end
$var wire 1 . rst $end
$var wire 1 : start_tx $end
$var parameter 32 O CHANNEL_NUMBER $end
$var parameter 32 P COUNTER_WIDTH $end
$var parameter 32 Q MSB_FIRST $end
$var parameter 32 R SPI_SIZE $end
$var reg 4 S counter [3:0] $end
$var reg 2 T next_state [1:0] $end
$var reg 1 U overflow_finish $end
$var reg 1 # spi_clk $end
$var reg 3 V spi_mosi [2:0] $end
$var reg 1 W start_tx_internal $end
$var reg 2 X state [1:0] $end
$var reg 1 1 tx_finish $end
$scope begin $ivl_for_loop4 $end
$var integer 32 Y i [31:0] $end
$scope begin $ivl_for_loop5 $end
$var integer 32 Z j [31:0] $end
$upscope $end
$upscope $end
$scope begin $ivl_for_loop6 $end
$upscope $end
$scope begin $ivl_for_loop7 $end
$var integer 32 [ i [31:0] $end
$upscope $end
$scope begin $ivl_for_loop8 $end
$var integer 32 \ i [31:0] $end
$upscope $end
$upscope $end
$upscope $end
$scope begin $ivl_for_loop10 $end
$var integer 32 ] i [31:0] $end
$upscope $end
$scope begin $ivl_for_loop11 $end
$var integer 32 ^ i [31:0] $end
$scope begin $ivl_for_loop12 $end
$var integer 32 _ j [31:0] $end
$upscope $end
$scope begin $ivl_for_loop13 $end
$var integer 32 ` k [31:0] $end
$scope begin $ivl_for_loop14 $end
$var integer 32 a j [31:0] $end
$upscope $end
$upscope $end
$upscope $end
$upscope $end
$enddefinitions $end
$comment Show the parameter values. $end
$dumpall
b1000 R
b1 Q
b100 P
b11 O
b1000 E
b1 D
b100 C
b1 B
b1000 6
b1 5
b11 4
b100 *
b1000 )
b11 (
$end
#0
$dumpvars
b0 a
b0 `
b0 _
b0 ^
b0 ]
b0 \
b0 [
b0 Z
b0 Y
b0 X
0W
b0 V
0U
b0 T
b0 S
b0 N
b0 M
b0 L
b0 K
b0 J
0I
0H
b0 G
b0 F
b0 A
0@
b1 ?
b0 >
b0 =
0<
b0 ;
0:
09
08
b0 7
03
b0 2
01
00
0/
1.
0-
x,
0+
0'
0&
1%
0$
0#
b0 "
1!
$end
#1
1<
11
b1 ]
1+
#2
b10 ]
0+
#3
b11 ]
1+
#4
b100 ]
0+
#5
b10 ?
b1 A
b0x0 =
b101 ]
1+
0.
#6
b110 ]
0+
#7
b11 ?
1$
b10 A
b111 ]
1+
#8
b1000 ]
0+
#9
13
0$
b11 A
b1001 ]
1+
#10
b1010 ]
0+
b11 _
#11
b1011 ]
1+
#12
b1100 ]
0+
#13
b1101 ]
1+
#14
b1110 ]
0+
#15
b100 ?
18
0!
b1 ;
b1 7
b1111 ]
1+
1/
#16
b10000 ]
0+
#17
b11 7
b110 ?
03
b100 A
b1 >
b10001 ]
1+
#18
b10010 ]
0+
#19
0<
b1 G
b1 K
b1000 L
1I
b1 ?
1@
08
b110 A
b11 ;
b10011 ]
1+
#20
b10100 ]
0+
#21
0@
b10 G
b1 A
b1 J
b10101 ]
1+
#22
b1 M
b10110 ]
0+
#23
b10 J
b1 M
b10111 ]
1+
#24
b1 F
1'
b11000 ]
0+
#25
0'
b1 N
b11001 ]
1+
b1 `
0/
#26
b10 F
1'
b11010 ]
0+
#27
0'
b1 N
b11011 ]
1+
#28
b11 F
1'
b11100 ]
0+
#29
0'
b1 N
b11101 ]
1+
#30
b100 F
1'
b11110 ]
0+
b1 a
#31
0'
b1 N
b11111 ]
1+
#32
b101 F
1'
b100000 ]
0+
#33
0'
b1 N
b100001 ]
1+
#34
b110 F
1'
b100010 ]
0+
#35
x&
0'
b1 N
b100011 ]
1+
b10 a
#36
b111 F
1'
b100100 ]
0+
#37
0&
0'
b1 N
b100101 ]
1+
#38
0I
1H
b0 G
b1000 F
1'
b100110 ]
0+
#39
0H
0'
b0 J
b100111 ]
1+
#40
b101000 ]
0+
b11 a
#41
b10 ?
1<
b101001 ]
1+
#42
b101010 ]
0+
#43
b11 ?
1$
b10 A
b101011 ]
1+
#44
b101100 ]
0+
#45
b100 7
13
0$
b11 A
b101101 ]
1+
b100 a
#46
b101110 ]
0+
#47
b101 7
01
b1 T
b11 Y
b1000 Z
1W
1:
b100 ;
b101111 ]
1+
#48
b110000 ]
0+
#49
0:
b10 T
b101 ;
b1 X
b110001 ]
1+
#50
b11 [
b110010 ]
0+
b101 a
#51
b10 X
b11 [
b110011 ]
1+
#52
b1 S
1#
b110100 ]
0+
#53
0#
b11 \
b110101 ]
1+
#54
b10 S
1#
b110110 ]
0+
#55
0#
b11 \
b110111 ]
1+
b110 a
#56
b11 S
1#
b111000 ]
0+
#57
0#
b11 \
b111001 ]
1+
#58
b100 S
1#
b111010 ]
0+
#59
b111 "
b111 2
b111 V
0#
b11 \
b111011 ]
1+
#60
b101 S
1#
b111100 ]
0+
b111 a
#61
0#
b11 \
b111101 ]
1+
#62
b110 S
1#
b111110 ]
0+
#63
0#
b11 \
b111111 ]
1+
#64
b111 S
1#
b1000000 ]
0+
#65
0#
b11 \
b1000001 ]
1+
b1000 a
#66
0W
1U
b0 T
b1000 S
1#
b1000010 ]
0+
#67
0U
b0 "
b0 2
b0 V
0#
b0 X
b1000011 ]
1+
#68
b1000100 ]
0+
#69
b0 7
11
b1000101 ]
1+
#70
b1000110 ]
0+
b1001 a
#71
1!
b0 ;
b1000111 ]
1+
#72
b1001000 ]
0+
#73
b1001001 ]
1+
#74
b1001010 ]
0+
#75
01
b1000 Z
b11 Y
b1 T
1W
b0 S
1:
0!
b100 ;
b101 7
b1001011 ]
1+
1-
#76
b1001100 ]
0+
#77
0:
b10 T
b101 ;
b1 X
b1001101 ]
1+
#78
b11 [
b1001110 ]
0+
#79
b10 X
b11 [
b1001111 ]
1+
#80
b1 S
1#
b1010000 ]
0+
#81
0#
b11 \
b1010001 ]
1+
#82
b10 S
1#
b1010010 ]
0+
#83
0#
b11 \
b1010011 ]
1+
#84
b11 S
1#
b1010100 ]
0+
#85
0#
b11 \
b1010101 ]
1+
b0 a
b10 `
0-
#86
b100 S
1#
b1010110 ]
0+
#87
b111 "
b111 2
b111 V
0#
b11 \
b1010111 ]
1+
#88
b101 S
1#
b1011000 ]
0+
#89
0#
b11 \
b1011001 ]
1+
#90
b110 S
1#
b1011010 ]
0+
b1 a
#91
0#
b11 \
b1011011 ]
1+
#92
b111 S
1#
b1011100 ]
0+
#93
0#
b11 \
b1011101 ]
1+
#94
0W
1U
b0 T
b1000 S
1#
b1011110 ]
0+
#95
0U
b0 "
b0 2
b0 V
0#
b0 X
b1011111 ]
1+
b10 a
#96
b1100000 ]
0+
#97
b0 7
11
b1100001 ]
1+
#98
b1100010 ]
0+
#99
1!
b0 ;
b1100011 ]
1+
#100
b100 7
b1100100 ]
0+
1-
#101
b101 7
01
b1000 Z
b11 Y
b1 T
1W
b0 S
1:
0!
b100 ;
b1100101 ]
1+
#102
b1100110 ]
0+
#103
b10 T
0:
b1 X
b101 ;
b1100111 ]
1+
#104
b11 [
b1101000 ]
0+
#105
b10 X
b11 [
b1101001 ]
1+
#106
b1 S
1#
b1101010 ]
0+
#107
0#
b11 \
b1101011 ]
1+
#108
b10 S
1#
b1101100 ]
0+
#109
0#
b11 \
b1101101 ]
1+
#110
b11 S
1#
b1101110 ]
0+
b0 a
b11 `
0-
#111
0#
b11 \
b1101111 ]
1+
#112
b100 S
1#
b1110000 ]
0+
#113
b111 "
b111 2
b111 V
0#
b11 \
b1110001 ]
1+
#114
b101 S
1#
b1110010 ]
0+
#115
0#
b11 \
b1110011 ]
1+
b1 a
#116
b110 S
1#
b1110100 ]
0+
#117
0#
b11 \
b1110101 ]
1+
#118
b111 S
1#
b1110110 ]
0+
#119
0#
b11 \
b1110111 ]
1+
#120
0W
1U
b0 T
b1000 S
1#
b1111000 ]
0+
b10 a
#121
0U
b0 "
b0 2
b0 V
0#
b0 X
b1111001 ]
1+
#122
b1111010 ]
0+
#123
b0 7
11
b1111011 ]
1+
#124
b1111100 ]
0+
#125
1!
b0 ;
b1111101 ]
1+
b11 a
#126
b1111110 ]
0+
#127
b1111111 ]
1+
#128
b10000000 ]
0+
#129
b10000001 ]
1+
#130
b100 7
b10000010 ]
0+
1-
#131
b101 7
01
b1000 Z
b11 Y
b1 T
1W
b0 S
1:
0!
b100 ;
b10000011 ]
1+
#132
b10000100 ]
0+
#133
0:
b10 T
b101 ;
b1 X
b10000101 ]
1+
#134
b11 [
b10000110 ]
0+
#135
b10 X
b11 [
b10000111 ]
1+
#136
b1 S
1#
b10001000 ]
0+
#137
0#
b11 \
b10001001 ]
1+
#138
b10 S
1#
b10001010 ]
0+
#139
0#
b11 \
b10001011 ]
1+
#140
b11 S
1#
b10001100 ]
0+
b0 a
b11 _
b1 ^
b0 `
0-
#141
0#
b11 \
b10001101 ]
1+
#142
b100 S
1#
b10001110 ]
0+
#143
b111 "
b111 2
b111 V
0#
b11 \
b10001111 ]
1+
#144
b101 S
1#
b10010000 ]
0+
#145
0#
b11 \
b10010001 ]
1+
b1 a
#146
b110 S
1#
b10010010 ]
0+
#147
0#
b11 \
b10010011 ]
1+
#148
b111 S
1#
b10010100 ]
0+
#149
0#
b11 \
b10010101 ]
1+
#150
0W
1U
b0 T
b1000 S
1#
b10010110 ]
0+
b10 a
#151
0U
b0 "
b0 2
b0 V
0#
b0 X
b10010111 ]
1+
#152
b10011000 ]
0+
#153
b0 7
11
b10011001 ]
1+
#154
b10011010 ]
0+
#155
1!
b0 ;
b10011011 ]
1+
b11 a
#156
b10011100 ]
0+
#157
b10011101 ]
1+
#158
b10011110 ]
0+
#159
b10011111 ]
1+
#160
b10 7
b10100000 ]
0+
10
#161
b101 ?
19
0!
b10 ;
b10100001 ]
1+
#162
b10100010 ]
0+
#163
b11 7
b110 ?
03
b101 A
b0x1 =
b10100011 ]
1+
#164
b10100100 ]
0+
#165
0<
b1000 L
b1 K
b1 G
1I
b0 F
09
b1 ?
1@
b11 ;
b110 A
b10100101 ]
1+
#166
b10100110 ]
0+
#167
b10 G
0@
b1 J
b1 A
b10100111 ]
1+
#168
b1 M
b10101000 ]
0+
#169
b10 J
b1 M
b10101001 ]
1+
#170
b1 F
1'
b10101010 ]
0+
b0 a
b1 `
00
#171
0'
b1 N
b10101011 ]
1+
#172
b10 F
1'
b10101100 ]
0+
#173
0'
b1 N
b10101101 ]
1+
#174
b11 F
1'
b10101110 ]
0+
#175
0'
b1 N
b10101111 ]
1+
b1 a
#176
b100 F
1'
b10110000 ]
0+
#177
0'
b1 N
b10110001 ]
1+
#178
b101 F
1'
b10110010 ]
0+
#179
0'
b1 N
b10110011 ]
1+
#180
b110 F
1'
b10110100 ]
0+
b10 a
#181
x&
0'
b1 N
b10110101 ]
1+
#182
b111 F
1'
b10110110 ]
0+
#183
1&
0'
b1 N
b10110111 ]
1+
#184
0I
1H
b0 G
b1000 F
1'
b10111000 ]
0+
#185
0H
0&
0'
b0 J
b10111001 ]
1+
b11 a
#186
b10111010 ]
0+
#187
b10 ?
1<
b10111011 ]
1+
#188
b10111100 ]
0+
#189
b11 ?
1$
b10 A
b10111101 ]
1+
#190
b10111110 ]
0+
b100 a
#191
b100 7
13
0$
b11 A
b10111111 ]
1+
#192
b11000000 ]
0+
#193
b101 7
01
b1000 Z
b11 Y
b1 T
1W
b0 S
1:
b100 ;
b11000001 ]
1+
#194
b11000010 ]
0+
#195
b10 T
0:
b1 X
b101 ;
b11000011 ]
1+
b101 a
#196
b111 "
b111 2
b111 V
b11 [
b11000100 ]
0+
#197
b10 X
b11 [
b11000101 ]
1+
#198
b1 S
1#
b11000110 ]
0+
#199
0#
b11 \
b11000111 ]
1+
#200
b10 S
1#
b11001000 ]
0+
b110 a
#201
0#
b11 \
b11001001 ]
1+
#202
b11 S
1#
b11001010 ]
0+
#203
0#
b11 \
b11001011 ]
1+
#204
b100 S
1#
b11001100 ]
0+
#205
b0 "
b0 2
b0 V
0#
b11 \
b11001101 ]
1+
b111 a
#206
b101 S
1#
b11001110 ]
0+
#207
0#
b11 \
b11001111 ]
1+
#208
b110 S
1#
b11010000 ]
0+
#209
0#
b11 \
b11010001 ]
1+
#210
b111 S
1#
b11010010 ]
0+
b1000 a
#211
0#
b11 \
b11010011 ]
1+
#212
0W
1U
b0 T
b1000 S
1#
b11010100 ]
0+
#213
0U
0#
b0 X
b11010101 ]
1+
#214
b11010110 ]
0+
#215
b0 7
11
b11010111 ]
1+
b1001 a
#216
b11011000 ]
0+
#217
1!
b0 ;
b11011001 ]
1+
#218
b11011010 ]
0+
#219
b11011011 ]
1+
#220
b100 7
b11011100 ]
0+
1-
#221
b101 7
01
b1000 Z
b11 Y
b1 T
1W
b0 S
1:
0!
b100 ;
b11011101 ]
1+
#222
b11011110 ]
0+
#223
b10 T
0:
b1 X
b101 ;
b11011111 ]
1+
#224
b111 "
b111 2
b111 V
b11 [
b11100000 ]
0+
#225
b10 X
b11 [
b11100001 ]
1+
#226
b1 S
1#
b11100010 ]
0+
#227
0#
b11 \
b11100011 ]
1+
#228
b10 S
1#
b11100100 ]
0+
#229
0#
b11 \
b11100101 ]
1+
#230
b11 S
1#
b11100110 ]
0+
b0 a
b10 `
0-
#231
0#
b11 \
b11100111 ]
1+
#232
b100 S
1#
b11101000 ]
0+
#233
b0 "
b0 2
b0 V
0#
b11 \
b11101001 ]
1+
#234
b101 S
1#
b11101010 ]
0+
#235
0#
b11 \
b11101011 ]
1+
b1 a
#236
b110 S
1#
b11101100 ]
0+
#237
0#
b11 \
b11101101 ]
1+
#238
b111 S
1#
b11101110 ]
0+
#239
0#
b11 \
b11101111 ]
1+
#240
0W
1U
b0 T
b1000 S
1#
b11110000 ]
0+
b10 a
#241
0U
0#
b0 X
b11110001 ]
1+
#242
b11110010 ]
0+
#243
b0 7
11
b11110011 ]
1+
#244
b11110100 ]
0+
#245
1!
b0 ;
b11110101 ]
1+
b11 a
#246
b11110110 ]
0+
#247
b11110111 ]
1+
#248
b11111000 ]
0+
#249
b11111001 ]
1+
#250
b100 7
b11111010 ]
0+
1-
#251
b101 7
01
b1000 Z
b11 Y
b1 T
1W
b0 S
1:
0!
b100 ;
b11111011 ]
1+
#252
b11111100 ]
0+
#253
0:
b10 T
b101 ;
b1 X
b11111101 ]
1+
#254
b111 "
b111 2
b111 V
b11 [
b11111110 ]
0+
#255
b10 X
b11 [
b11111111 ]
1+
#256
b1 S
1#
b100000000 ]
0+
#257
0#
b11 \
b100000001 ]
1+
#258
b10 S
1#
b100000010 ]
0+
#259
0#
b11 \
b100000011 ]
1+
#260
b11 S
1#
b100000100 ]
0+
b0 a
b11 `
0-
#261
0#
b11 \
b100000101 ]
1+
#262
b100 S
1#
b100000110 ]
0+
#263
b0 "
b0 2
b0 V
0#
b11 \
b100000111 ]
1+
#264
b101 S
1#
b100001000 ]
0+
#265
0#
b11 \
b100001001 ]
1+
b1 a
#266
b110 S
1#
b100001010 ]
0+
#267
0#
b11 \
b100001011 ]
1+
#268
b111 S
1#
b100001100 ]
0+
#269
0#
b11 \
b100001101 ]
1+
#270
0W
1U
b0 T
b1000 S
1#
b100001110 ]
0+
b10 a
#271
0U
0#
b0 X
b100001111 ]
1+
#272
b100010000 ]
0+
#273
b0 7
11
b100010001 ]
1+
#274
b100010010 ]
0+
#275
1!
b0 ;
b100010011 ]
1+
b11 a
#276
b100010100 ]
0+
#277
b100010101 ]
1+
#278
b100010110 ]
0+
#279
b100010111 ]
1+
#280
b100 7
b100011000 ]
0+
1-
#281
b101 7
01
b1000 Z
b11 Y
b1 T
1W
b0 S
1:
0!
b100 ;
b100011001 ]
1+
#282
b100011010 ]
0+
#283
b10 T
0:
b1 X
b101 ;
b100011011 ]
1+
#284
b111 "
b111 2
b111 V
b11 [
b100011100 ]
0+
#285
b10 X
b11 [
b100011101 ]
1+
#286
b1 S
1#
b100011110 ]
0+
#287
0#
b11 \
b100011111 ]
1+
#288
b10 S
1#
b100100000 ]
0+
#289
0#
b11 \
b100100001 ]
1+
#290
b11 S
1#
b100100010 ]
0+
b0 a
b11 _
b10 ^
b0 `
0-
#291
0#
b11 \
b100100011 ]
1+
#292
b100 S
1#
b100100100 ]
0+
#293
b0 "
b0 2
b0 V
0#
b11 \
b100100101 ]
1+
#294
b101 S
1#
b100100110 ]
0+
#295
0#
b11 \
b100100111 ]
1+
b1 a
#296
b110 S
1#
b100101000 ]
0+
#297
0#
b11 \
b100101001 ]
1+
#298
b111 S
1#
b100101010 ]
0+
#299
0#
b11 \
b100101011 ]
1+
#300
0W
1U
b0 T
b1000 S
1#
b100101100 ]
0+
b10 a
#301
0U
0#
b0 X
b100101101 ]
1+
#302
b100101110 ]
0+
#303
b0 7
11
b100101111 ]
1+
#304
b100110000 ]
0+
#305
1!
b0 ;
b100110001 ]
1+
b11 a
#306
b100110010 ]
0+
#307
b100110011 ]
1+
#308
b100110100 ]
0+
#309
b100110101 ]
1+
#310
b10 7
b100110110 ]
0+
10
#311
b101 ?
19
0!
b10 ;
b100110111 ]
1+
#312
b100111000 ]
0+
#313
b11 7
b110 ?
03
b101 A
b100111001 ]
1+
#314
b100111010 ]
0+
#315
0<
b1000 L
b1 K
b1 G
1I
b0 F
b1 ?
1@
09
b110 A
b11 ;
b100111011 ]
1+
#316
b100111100 ]
0+
#317
0@
b10 G
b1 A
b1 J
b100111101 ]
1+
#318
b1 M
b100111110 ]
0+
#319
b10 J
b1 M
b100111111 ]
1+
#320
b1 F
1'
b101000000 ]
0+
b0 a
b1 `
00
#321
0'
b1 N
b101000001 ]
1+
#322
b10 F
1'
b101000010 ]
0+
#323
0'
b1 N
b101000011 ]
1+
#324
b11 F
1'
b101000100 ]
0+
#325
0'
b1 N
b101000101 ]
1+
b1 a
#326
b100 F
1'
b101000110 ]
0+
#327
0'
b1 N
b101000111 ]
1+
#328
b101 F
1'
b101001000 ]
0+
#329
0'
b1 N
b101001001 ]
1+
#330
b110 F
1'
b101001010 ]
0+
b10 a
#331
x&
0'
b1 N
b101001011 ]
1+
#332
b111 F
1'
b101001100 ]
0+
#333
1&
0'
b1 N
b101001101 ]
1+
#334
0I
1H
b0 G
b1000 F
1'
b101001110 ]
0+
#335
0H
0&
0'
b0 J
b101001111 ]
1+
b11 a
#336
b101010000 ]
0+
#337
b10 ?
1<
b101010001 ]
1+
#338
b101010010 ]
0+
#339
b11 ?
1$
b10 A
b101010011 ]
1+
#340
b101010100 ]
0+
b100 a
#341
b100 7
13
0$
b11 A
b101010101 ]
1+
#342
b101010110 ]
0+
#343
b101 7
01
b1000 Z
b11 Y
b1 T
1W
b0 S
1:
b100 ;
b101010111 ]
1+
#344
b101011000 ]
0+
#345
0:
b10 T
b101 ;
b1 X
b101011001 ]
1+
b101 a
#346
b111 "
b111 2
b111 V
b11 [
b101011010 ]
0+
#347
b10 X
b11 [
b101011011 ]
1+
#348
b1 S
1#
b101011100 ]
0+
#349
0#
b11 \
b101011101 ]
1+
#350
b10 S
1#
b101011110 ]
0+
b110 a
#351
0#
b11 \
b101011111 ]
1+
#352
b11 S
1#
b101100000 ]
0+
#353
0#
b11 \
b101100001 ]
1+
#354
b100 S
1#
b101100010 ]
0+
#355
0#
b11 \
b101100011 ]
1+
b111 a
#356
b101 S
1#
b101100100 ]
0+
#357
0#
b11 \
b101100101 ]
1+
#358
b110 S
1#
b101100110 ]
0+
#359
0#
b11 \
b101100111 ]
1+
#360
b111 S
1#
b101101000 ]
0+
b1000 a
#361
0#
b11 \
b101101001 ]
1+
#362
0W
1U
b0 T
b1000 S
1#
b101101010 ]
0+
#363
0U
b0 "
b0 2
b0 V
0#
b0 X
b101101011 ]
1+
#364
b101101100 ]
0+
#365
b0 7
11
b101101101 ]
1+
b1001 a
#366
b101101110 ]
0+
#367
1!
b0 ;
b101101111 ]
1+
#368
b101110000 ]
0+
#369
b101110001 ]
1+
#370
b100 7
b101110010 ]
0+
1-
#371
b101 7
01
b1000 Z
b11 Y
b1 T
1W
b0 S
1:
0!
b100 ;
b101110011 ]
1+
#372
b101110100 ]
0+
#373
0:
b10 T
b101 ;
b1 X
b101110101 ]
1+
#374
b111 "
b111 2
b111 V
b11 [
b101110110 ]
0+
#375
b10 X
b11 [
b101110111 ]
1+
#376
b1 S
1#
b101111000 ]
0+
#377
0#
b11 \
b101111001 ]
1+
#378
b10 S
1#
b101111010 ]
0+
#379
0#
b11 \
b101111011 ]
1+
#380
b11 S
1#
b101111100 ]
0+
b0 a
b10 `
0-
#381
0#
b11 \
b101111101 ]
1+
#382
b100 S
1#
b101111110 ]
0+
#383
0#
b11 \
b101111111 ]
1+
#384
b101 S
1#
b110000000 ]
0+
#385
0#
b11 \
b110000001 ]
1+
b1 a
#386
b110 S
1#
b110000010 ]
0+
#387
0#
b11 \
b110000011 ]
1+
#388
b111 S
1#
b110000100 ]
0+
#389
0#
b11 \
b110000101 ]
1+
#390
0W
1U
b0 T
b1000 S
1#
b110000110 ]
0+
b10 a
#391
0U
b0 "
b0 2
b0 V
0#
b0 X
b110000111 ]
1+
#392
b110001000 ]
0+
#393
b0 7
11
b110001001 ]
1+
#394
b110001010 ]
0+
#395
1!
b0 ;
b110001011 ]
1+
b11 a
#396
b110001100 ]
0+
#397
b110001101 ]
1+
#398
b110001110 ]
0+
#399
b110001111 ]
1+
#400
b100 7
b110010000 ]
0+
1-
#401
b101 7
01
b1000 Z
b11 Y
b1 T
1W
b0 S
1:
0!
b100 ;
b110010001 ]
1+
#402
b110010010 ]
0+
#403
b10 T
0:
b1 X
b101 ;
b110010011 ]
1+
#404
b111 "
b111 2
b111 V
b11 [
b110010100 ]
0+
#405
b10 X
b11 [
b110010101 ]
1+
#406
b1 S
1#
b110010110 ]
0+
#407
0#
b11 \
b110010111 ]
1+
#408
b10 S
1#
b110011000 ]
0+
#409
0#
b11 \
b110011001 ]
1+
#410
b11 S
1#
b110011010 ]
0+
b0 a
b11 `
0-
#411
0#
b11 \
b110011011 ]
1+
#412
b100 S
1#
b110011100 ]
0+
#413
0#
b11 \
b110011101 ]
1+
#414
b101 S
1#
b110011110 ]
0+
#415
0#
b11 \
b110011111 ]
1+
b1 a
#416
b110 S
1#
b110100000 ]
0+
#417
0#
b11 \
b110100001 ]
1+
#418
b111 S
1#
b110100010 ]
0+
#419
0#
b11 \
b110100011 ]
1+
#420
0W
1U
b0 T
b1000 S
1#
b110100100 ]
0+
b10 a
#421
0U
b0 "
b0 2
b0 V
0#
b0 X
b110100101 ]
1+
#422
b110100110 ]
0+
#423
b0 7
11
b110100111 ]
1+
#424
b110101000 ]
0+
#425
1!
b0 ;
b110101001 ]
1+
b11 a
#426
b110101010 ]
0+
#427
b110101011 ]
1+
#428
b110101100 ]
0+
#429
b110101101 ]
1+
#430
b100 7
b110101110 ]
0+
1-
#431
b101 7
01
b1000 Z
b11 Y
b1 T
1W
b0 S
1:
0!
b100 ;
b110101111 ]
1+
#432
b110110000 ]
0+
#433
0:
b10 T
b101 ;
b1 X
b110110001 ]
1+
#434
b111 "
b111 2
b111 V
b11 [
b110110010 ]
0+
#435
b10 X
b11 [
b110110011 ]
1+
#436
b1 S
1#
b110110100 ]
0+
#437
0#
b11 \
b110110101 ]
1+
#438
b10 S
1#
b110110110 ]
0+
#439
0#
b11 \
b110110111 ]
1+
#440
b11 S
1#
b110111000 ]
0+
b11 ^
b100 `
0-
