HDMI_to_Matrix_FPGA/Test_Project/Nano9K_Test/sim/output_module.vcd
$date
	Thu Mar 20 15:49:08 2025
$end
$version
	Icarus Verilog
$end
$timescale
	1s
$end
$scope module output_module_tb $end
$var wire 1 ! tx_finish $end
$var wire 3 " spi_mosi [2:0] $end
$var wire 1 # spi_clk $end
$var wire 1 $ ser_stcp $end
$var wire 1 % ser_n_enable $end
$var wire 1 & ser_data $end
$var wire 1 ' ser_clk $end
$var parameter 32 ( CHANNEL_NUMBER $end
$var parameter 32 ) SPI_SIZE $end
$var parameter 32 * TEST_SIZE $end
$var reg 1 + clk $end
$var reg 1 , extra_bit $end
$var reg 1 - next_data $end
$var reg 1 . rst $end
$var reg 1 / start_first_column $end
$var reg 1 0 start_next_column $end
$scope module dut $end
$var wire 1 + clk $end
$var wire 1 , extra_bit $end
$var wire 1 - next_data $end
$var wire 1 . rst $end
$var wire 1 / start_first_column $end
$var wire 1 0 start_next_column $end
$var wire 1 1 spi_tx_finish $end
$var wire 3 2 spi_mosi [2:0] $end
$var wire 1 # spi_clk $end
$var wire 1 $ ser_stcp $end
$var wire 1 % ser_n_enable $end
$var wire 1 & ser_data $end
$var wire 1 ' ser_clk $end
$var wire 1 3 column_select_ready $end
$var parameter 32 4 CHANNEL_NUMBER $end
$var parameter 32 5 MSB_FIRST $end
$var parameter 32 6 SPI_SIZE $end
$var reg 3 7 next_state [2:0] $end
$var reg 1 8 select_first $end
$var reg 1 9 select_next $end
$var reg 1 : spi_start_tx $end
$var reg 3 ; state [2:0] $end
$var reg 1 ! tx_finish $end
$scope module cs $end
$var wire 1 + clk $end
$var wire 1 , extra_bit $end
$var wire 1 . rst $end
$var wire 1 8 select_first $end
$var wire 1 9 select_next $end
$var wire 1 < tx_finish $end
$var wire 1 & ser_data $end
$var wire 1 ' ser_clk $end
$var reg 8 = column_data [7:0] $end
$var reg 2 > counter [1:0] $end
$var reg 3 ? next_state [2:0] $end
$var reg 1 3 ready $end
$var reg 1 % ser_n_enable $end
$var reg 1 $ ser_stcp $end
$var reg 1 @ start_tx $end
$var reg 3 A state [2:0] $end
$scope module shift_reg $end
$var wire 1 + clk $end
$var wire 1 . rst $end
$var wire 1 @ start_tx $end
$var wire 1 B w_xor_clk $end
$var parameter 32 C CHANNEL_NUMBER $end
$var parameter 32 D COUNTER_WIDTH $end
$var parameter 32 E MSB_FIRST $end
$var parameter 32 F SPI_SIZE $end
$var reg 4 G counter [3:0] $end
$var reg 2 H next_state [1:0] $end
$var reg 1 I overflow_finish $end
$var reg 1 J r_clk $end
$var reg 1 ' spi_clk $end
$var reg 1 & spi_mosi $end
$var reg 1 K start_tx_internal $end
$var reg 2 L state [1:0] $end
$var reg 1 < tx_finish $end
$scope begin $ivl_for_loop5 $end
$var integer 32 M i [31:0] $end
$scope begin $ivl_for_loop6 $end
$var integer 32 N j [31:0] $end
$upscope $end
$upscope $end
$scope begin $ivl_for_loop7 $end
$upscope $end
$scope begin $ivl_for_loop8 $end
$var integer 32 O i [31:0] $end
$upscope $end
$scope begin $ivl_for_loop9 $end
$var integer 32 P i [31:0] $end
$upscope $end
$upscope $end
$upscope $end
$scope module spi_tx $end
$var wire 1 + clk $end
$var wire 1 . rst $end
$var wire 1 : start_tx $end
$var wire 1 Q w_xor_clk $end
$var parameter 32 R CHANNEL_NUMBER $end
$var parameter 32 S COUNTER_WIDTH $end
$var parameter 32 T MSB_FIRST $end
$var parameter 32 U SPI_SIZE $end
$var reg 4 V counter [3:0] $end
$var reg 2 W next_state [1:0] $end
$var reg 1 X overflow_finish $end
$var reg 1 Y r_clk $end
$var reg 1 # spi_clk $end
$var reg 3 Z spi_mosi [2:0] $end
$var reg 1 [ start_tx_internal $end
$var reg 2 \ state [1:0] $end
$var reg 1 1 tx_finish $end
$scope begin $ivl_for_loop5 $end
$var integer 32 ] i [31:0] $end
$scope begin $ivl_for_loop6 $end
$var integer 32 ^ j [31:0] $end
$upscope $end
$upscope $end
$scope begin $ivl_for_loop7 $end
$upscope $end
$scope begin $ivl_for_loop8 $end
$var integer 32 _ i [31:0] $end
$upscope $end
$scope begin $ivl_for_loop9 $end
$var integer 32 ` i [31:0] $end
$upscope $end
$upscope $end
$upscope $end
$scope begin $ivl_for_loop11 $end
$var integer 32 a i [31:0] $end
$upscope $end
$scope begin $ivl_for_loop12 $end
$var integer 32 b i [31:0] $end
$scope begin $ivl_for_loop13 $end
$var integer 32 c j [31:0] $end
$upscope $end
$scope begin $ivl_for_loop14 $end
$var integer 32 d k [31:0] $end
$scope begin $ivl_for_loop15 $end
$var integer 32 e j [31:0] $end
$upscope $end
$upscope $end
$upscope $end
$upscope $end
$enddefinitions $end
$comment Show the parameter values. $end
$dumpall
b1000 U
b1 T
b100 S
b11 R
b1000 F
b1 E
b100 D
b1 C
b1000 6
b1 5
b11 4
b100 *
b1000 )
b11 (
$end
#0
$dumpvars
b0 e
b0 d
b0 c
b0 b
b0 a
b0 `
b0 _
b0 ^
b0 ]
b0 \
0[
bx Z
0Y
0X
b0 W
b0 V
0Q
b0 P
b0 O
b0 N
b0 M
b0 L
0K
0J
0I
b0 H
b0 G
0B
b0 A
0@
b1 ?
b0 >
b0 =
x<
b0 ;
0:
09
08
b0 7
03
bx 2
x1
00
0/
1.
0-
x,
0+
x'
x&
1%
0$
x#
bx "
1!
$end
#1
0&
0'
1J
b0 "
b0 2
b0 Z
0#
1Y
1<
11
0B
0Q
b1 a
1+
#2
0J
0Y
0B
0Q
b10 a
0+
#3
1J
1Y
0B
0Q
b11 a
1+
#4
0J
0Y
0B
0Q
b100 a
0+
#5
b10 ?
1J
1Y
b1 A
0B
b0x0 =
0Q
b101 a
1+
0.
#6
0J
0Y
0B
0Q
b110 a
0+
#7
b11 ?
1$
1J
1Y
b10 A
0B
0Q
b111 a
1+
#8
0J
0Y
0B
0Q
b1000 a
0+
#9
13
0$
1J
1Y
b11 A
0B
0Q
b1001 a
1+
#10
0J
0Y
0B
0Q
b1010 a
0+
b11 c
#11
1J
1Y
0B
0Q
b1011 a
1+
#12
0J
0Y
0B
0Q
b1100 a
0+
#13
1J
1Y
0B
0Q
b1101 a
1+
#14
0J
0Y
0B
0Q
b1110 a
0+
#15
b100 ?
18
0!
1J
1Y
b1 ;
0B
0Q
b1 7
b1111 a
1+
1/
#16
0J
0Y
0B
0Q
b10000 a
0+
#17
b11 7
b110 ?
03
1J
1Y
b100 A
0B
b1 >
0Q
b10001 a
1+
#18
0J
0Y
0B
0Q
b10010 a
0+
#19
b1 ?
1@
08
1J
1Y
b110 A
b11 ;
0B
0Q
b10011 a
1+
#20
0J
0Y
0B
0Q
b10100 a
0+
#21
0<
b1 ?
0@
b1 H
b1 M
b1000 N
1J
1Y
b1 A
1K
0B
0Q
b10101 a
1+
#22
0J
0Y
0B
0Q
b10110 a
0+
#23
b10 H
1J
1Y
b1 L
0B
0Q
b10111 a
1+
#24
0J
0Y
b1 O
0B
0Q
b11000 a
0+
#25
1J
1Y
b10 L
b1 O
0B
0Q
b11001 a
1+
b1 d
0/
#26
b1 G
1'
0J
0Y
0B
0Q
b11010 a
0+
#27
0'
1J
1Y
b1 P
0B
0Q
b11011 a
1+
#28
b10 G
1'
0J
0Y
0B
0Q
b11100 a
0+
#29
0'
1J
1Y
b1 P
0B
0Q
b11101 a
1+
#30
b11 G
1'
0J
0Y
0B
0Q
b11110 a
0+
b1 e
#31
0'
1J
1Y
b1 P
0B
0Q
b11111 a
1+
#32
b100 G
1'
0J
0Y
0B
0Q
b100000 a
0+
#33
0'
1J
1Y
b1 P
0B
0Q
b100001 a
1+
#34
b101 G
1'
0J
0Y
0B
0Q
b100010 a
0+
#35
0'
1J
1Y
b1 P
0B
0Q
b100011 a
1+
b10 e
#36
b110 G
1'
0J
0Y
0B
0Q
b100100 a
0+
#37
x&
0'
1J
1Y
b1 P
0B
0Q
b100101 a
1+
#38
b111 G
1'
0J
0Y
0B
0Q
b100110 a
0+
#39
0&
0'
1J
1Y
b1 P
0B
0Q
b100111 a
1+
#40
b0 H
b1000 G
1'
0J
0Y
0B
0Q
b101000 a
0+
b11 e
#41
b1 H
0'
1J
1Y
b0 L
0B
0Q
b101001 a
1+
#42
0J
0Y
0B
0Q
b101010 a
0+
#43
b10 H
1J
1Y
b1 L
0B
0Q
b101011 a
1+
#44
x&
0J
0Y
b1 O
0B
0Q
b101100 a
0+
#45
b0 H
1J
1Y
b10 L
b1 O
0B
1I
0Q
b101101 a
1+
b100 e
#46
b10 H
b1001 G
1'
0J
0Y
0B
0Q
b101110 a
0+
#47
0&
0'
1J
1Y
0K
0B
0Q
b101111 a
1+
#48
b1010 G
1'
0J
0Y
0B
0Q
b110000 a
0+
#49
0'
1J
1Y
0B
0Q
b110001 a
1+
#50
b1011 G
1'
0J
0Y
0B
0Q
b110010 a
0+
b101 e
#51
0'
1J
1Y
0B
0Q
b110011 a
1+
#52
b1100 G
1'
0J
0Y
0B
0Q
b110100 a
0+
#53
0'
1J
1Y
0B
0Q
b110101 a
1+
#54
b1101 G
1'
0J
0Y
0B
0Q
b110110 a
0+
#55
0'
1J
1Y
0B
0Q
b110111 a
1+
b110 e
#56
b1110 G
1'
0J
0Y
0B
0Q
b111000 a
0+
#57
0'
1J
1Y
0B
0Q
b111001 a
1+
#58
b1111 G
1'
0J
0Y
0B
0Q
b111010 a
0+
#59
0'
1J
1Y
0B
0Q
b111011 a
1+
#60
b0 G
1'
0J
0Y
0B
0Q
b111100 a
0+
b111 e
#61
0'
1J
1Y
b1 P
0B
0Q
b111101 a
1+
#62
b1 G
1'
0J
0Y
0B
0Q
b111110 a
0+
#63
0'
1J
1Y
b1 P
0B
0Q
b111111 a
1+
#64
b10 G
1'
0J
0Y
0B
0Q
b1000000 a
0+
#65
0'
1J
1Y
b1 P
0B
0Q
b1000001 a
1+
b1000 e
#66
b11 G
1'
0J
0Y
0B
0Q
b1000010 a
0+
#67
0'
1J
1Y
b1 P
0B
0Q
b1000011 a
1+
#68
b100 G
1'
0J
0Y
0B
0Q
b1000100 a
0+
#69
0'
1J
1Y
b1 P
0B
0Q
b1000101 a
1+
#70
b101 G
1'
0J
0Y
0B
0Q
b1000110 a
0+
b1001 e
#71
0'
1J
1Y
b1 P
0B
0Q
b1000111 a
1+
#72
b110 G
1'
0J
0Y
0B
0Q
b1001000 a
0+
#73
x&
0'
1J
1Y
b1 P
0B
0Q
b1001001 a
1+
#74
b111 G
1'
0J
0Y
0B
0Q
b1001010 a
0+
#75
0&
0'
1J
1Y
b1 P
0B
0Q
b1001011 a
1+
b1010 e
#76
b0 H
b1000 G
1'
0J
0Y
0B
0Q
b1001100 a
0+
#77
0'
1J
1Y
b0 L
0B
0I
0Q
b1001101 a
1+
#78
0J
0Y
0B
0Q
b1001110 a
0+
#79
b10 ?
1J
1Y
1<
0B
0Q
b1001111 a
1+
#80
0J
0Y
0B
0Q
b1010000 a
0+
b1011 e
#81
b11 ?
1$
1J
1Y
b10 A
0B
0Q
b1010001 a
1+
#82
0J
0Y
0B
0Q
b1010010 a
0+
#83
b100 7
13
0$
1J
1Y
b11 A
0B
0Q
b1010011 a
1+
#84
0J
0Y
0B
0Q
b1010100 a
0+
#85
1:
1J
1Y
b100 ;
0B
0Q
b1010101 a
1+
b1100 e
#86
0J
0Y
0B
0Q
b1010110 a
0+
#87
b101 7
01
b1 W
b11 ]
b1000 ^
1J
1Y
1[
0B
0Q
b1010111 a
1+
#88
0J
0Y
0B
0Q
b1011000 a
0+
#89
0:
b10 W
1J
1Y
b101 ;
b1 \
0B
0Q
b1011001 a
1+
#90
0J
0Y
b11 _
0B
0Q
b1011010 a
0+
b1101 e
#91
1J
1Y
b10 \
b11 _
0B
0Q
b1011011 a
1+
#92
b1 V
0J
1#
0Y
0B
0Q
b1011100 a
0+
#93
1J
0#
1Y
b11 `
0B
0Q
b1011101 a
1+
#94
b10 V
0J
1#
0Y
0B
0Q
b1011110 a
0+
#95
1J
0#
1Y
b11 `
0B
0Q
b1011111 a
1+
b1110 e
#96
b11 V
0J
1#
0Y
0B
0Q
b1100000 a
0+
#97
1J
0#
1Y
b11 `
0B
0Q
b1100001 a
1+
#98
b100 V
0J
1#
0Y
0B
0Q
b1100010 a
0+
#99
1J
b111 "
b111 2
b111 Z
0#
1Y
b11 `
0B
0Q
b1100011 a
1+
#100
b101 V
0J
1#
0Y
0B
0Q
b1100100 a
0+
b1111 e
#101
1J
0#
1Y
b11 `
0B
0Q
b1100101 a
1+
#102
b110 V
0J
1#
0Y
0B
0Q
b1100110 a
0+
#103
1J
0#
1Y
b11 `
0B
0Q
b1100111 a
1+
#104
b111 V
0J
1#
0Y
0B
0Q
b1101000 a
0+
#105
1J
0#
1Y
b11 `
0B
0Q
b1101001 a
1+
b10000 e
#106
b0 W
b1000 V
0J
1#
0Y
0B
0Q
b1101010 a
0+
#107
b1 W
1J
b0 "
b0 2
b0 Z
0#
1Y
b0 \
0B
0Q
b1101011 a
1+
#108
0J
0Y
0B
0Q
b1101100 a
0+
#109
b10 W
1J
1Y
b1 \
0B
0Q
b1101101 a
1+
#110
0J
bx "
bx 2
bx Z
0Y
b11 _
0B
0Q
b1101110 a
0+
b10001 e
#111
b0 W
1J
1Y
0[
b10 \
b11 _
0B
1X
0Q
b1101111 a
1+
#112
b10 W
b1001 V
0J
1#
0Y
0B
0Q
b1110000 a
0+
#113
1J
b0 "
b0 2
b0 Z
0#
1Y
0B
0Q
b1110001 a
1+
#114
b1010 V
0J
1#
0Y
0B
0Q
b1110010 a
0+
#115
1J
0#
1Y
0B
0Q
b1110011 a
1+
b10010 e
#116
b1011 V
0J
1#
0Y
0B
0Q
b1110100 a
0+
#117
1J
0#
1Y
0B
0Q
b1110101 a
1+
#118
b1100 V
0J
1#
0Y
0B
0Q
b1110110 a
0+
#119
1J
0#
1Y
0B
0Q
b1110111 a
1+
#120
b1101 V
0J
1#
0Y
0B
0Q
b1111000 a
0+
b10011 e
#121
1J
0#
1Y
0B
0Q
b1111001 a
1+
#122
b1110 V
0J
1#
0Y
0B
0Q
b1111010 a
0+
#123
1J
0#
1Y
0B
0Q
b1111011 a
1+
#124
b1111 V
0J
1#
0Y
0B
0Q
b1111100 a
0+
#125
1J
0#
1Y
0B
0Q
b1111101 a
1+
b10100 e
#126
b0 V
0J
1#
0Y
0B
0Q
b1111110 a
0+
#127
1J
0#
1Y
b11 `
0B
0Q
b1111111 a
1+
#128
b1 V
0J
1#
0Y
0B
0Q
b10000000 a
0+
#129
1J
0#
1Y
b11 `
0B
0Q
b10000001 a
1+
#130
b10 V
0J
1#
0Y
0B
0Q
b10000010 a
0+
b10101 e
#131
1J
0#
1Y
b11 `
0B
0Q
b10000011 a
1+
#132
b11 V
0J
1#
0Y
0B
0Q
b10000100 a
0+
#133
1J
0#
1Y
b11 `
0B
0Q
b10000101 a
1+
#134
b100 V
0J
1#
0Y
0B
0Q
b10000110 a
0+
#135
1J
b111 "
b111 2
b111 Z
0#
1Y
b11 `
0B
0Q
b10000111 a
1+
b10110 e
#136
b101 V
0J
1#
0Y
0B
0Q
b10001000 a
0+
#137
1J
0#
1Y
b11 `
0B
0Q
b10001001 a
1+
#138
b110 V
0J
1#
0Y
0B
0Q
b10001010 a
0+
#139
1J
0#
1Y
b11 `
0B
0Q
b10001011 a
1+
#140
b111 V
0J
1#
0Y
0B
0Q
b10001100 a
0+
b10111 e
#141
1J
0#
1Y
b11 `
0B
0Q
b10001101 a
1+
#142
b0 W
b1000 V
0J
1#
0Y
0B
0Q
b10001110 a
0+
#143
1J
b0 "
b0 2
b0 Z
0#
1Y
b0 \
0B
0X
0Q
b10001111 a
1+
#144
0J
0Y
0B
0Q
b10010000 a
0+
#145
b0 7
1J
1Y
11
0B
0Q
b10010001 a
1+
b11000 e
#146
0J
0Y
0B
0Q
b10010010 a
0+
#147
1!
1J
1Y
b0 ;
0B
0Q
b10010011 a
1+
#148
0J
0Y
0B
0Q
b10010100 a
0+
#149
1J
1Y
0B
0Q
b10010101 a
1+
#150
0J
0Y
0B
0Q
b100 7
b10010110 a
0+
1-
#151
1:
0!
1J
1Y
b100 ;
0B
0Q
b10010111 a
1+
#152
0J
0Y
0B
0Q
b10011000 a
0+
#153
b101 7
b0 V
01
b1 W
b1000 ^
b11 ]
1J
1Y
1[
0B
0Q
b10011001 a
1+
#154
0J
0Y
0B
0Q
b10011010 a
0+
#155
b10 W
0:
1J
1Y
b1 \
b101 ;
0B
0Q
b10011011 a
1+
#156
0J
0Y
b11 _
0B
0Q
b10011100 a
0+
#157
1J
1Y
b10 \
b11 _
0B
0Q
b10011101 a
1+
#158
b1 V
0J
1#
0Y
0B
0Q
b10011110 a
0+
#159
1J
0#
1Y
b11 `
0B
0Q
b10011111 a
1+
#160
b10 V
0J
1#
0Y
0B
0Q
b10100000 a
0+
b0 e
b10 d
0-
#161
1J
0#
1Y
b11 `
0B
0Q
b10100001 a
1+
#162
b11 V
0J
1#
0Y
0B
0Q
b10100010 a
0+
#163
1J
0#
1Y
b11 `
0B
0Q
b10100011 a
1+
#164
b100 V
0J
1#
0Y
0B
0Q
b10100100 a
0+
#165
1J
b111 "
b111 2
b111 Z
0#
1Y
b11 `
0B
0Q
b10100101 a
1+
b1 e
#166
b101 V
0J
1#
0Y
0B
0Q
b10100110 a
0+
#167
1J
0#
1Y
b11 `
0B
0Q
b10100111 a
1+
#168
b110 V
0J
1#
0Y
0B
0Q
b10101000 a
0+
#169
1J
0#
1Y
b11 `
0B
0Q
b10101001 a
1+
#170
b111 V
0J
1#
0Y
0B
0Q
b10101010 a
0+
b10 e
#171
1J
0#
1Y
b11 `
0B
0Q
b10101011 a
1+
#172
b0 W
b1000 V
0J
1#
0Y
0B
0Q
b10101100 a
0+
#173
b1 W
1J
b0 "
b0 2
b0 Z
0#
1Y
b0 \
0B
0Q
b10101101 a
1+
#174
0J
0Y
0B
0Q
b10101110 a
0+
#175
b10 W
1J
1Y
b1 \
0B
0Q
b10101111 a
1+
b11 e
#176
0J
bx "
bx 2
bx Z
0Y
b11 _
0B
0Q
b10110000 a
0+
#177
b0 W
1J
1Y
b10 \
b11 _
0B
1X
0Q
b10110001 a
1+
#178
b10 W
b1001 V
0J
1#
0Y
0B
0Q
b10110010 a
0+
#179
1J
b0 "
b0 2
b0 Z
0#
1Y
0[
0B
0Q
b10110011 a
1+
#180
b1010 V
0J
1#
0Y
0B
0Q
b10110100 a
0+
b100 e
#181
1J
0#
1Y
0B
0Q
b10110101 a
1+
#182
b1011 V
0J
1#
0Y
0B
0Q
b10110110 a
0+
#183
1J
0#
1Y
0B
0Q
b10110111 a
1+
#184
b1100 V
0J
1#
0Y
0B
0Q
b10111000 a
0+
#185
1J
0#
1Y
0B
0Q
b10111001 a
1+
b101 e
#186
b1101 V
0J
1#
0Y
0B
0Q
b10111010 a
0+
#187
1J
0#
1Y
0B
0Q
b10111011 a
1+
#188
b1110 V
0J
1#
0Y
0B
0Q
b10111100 a
0+
#189
1J
0#
1Y
0B
0Q
b10111101 a
1+
#190
b1111 V
0J
1#
0Y
0B
0Q
b10111110 a
0+
b110 e
#191
1J
0#
1Y
0B
0Q
b10111111 a
1+
#192
b0 V
0J
1#
0Y
0B
0Q
b11000000 a
0+
#193
1J
0#
1Y
b11 `
0B
0Q
b11000001 a
1+
#194
b1 V
0J
1#
0Y
0B
0Q
b11000010 a
0+
#195
1J
0#
1Y
b11 `
0B
0Q
b11000011 a
1+
b111 e
#196
b10 V
0J
1#
0Y
0B
0Q
b11000100 a
0+
#197
1J
0#
1Y
b11 `
0B
0Q
b11000101 a
1+
#198
b11 V
0J
1#
0Y
0B
0Q
b11000110 a
0+
#199
1J
0#
1Y
b11 `
0B
0Q
b11000111 a
1+
#200
b100 V
0J
1#
0Y
0B
0Q
b11001000 a
0+
b1000 e
#201
1J
b111 "
b111 2
b111 Z
0#
1Y
b11 `
0B
0Q
b11001001 a
1+
#202
b101 V
0J
1#
0Y
0B
0Q
b11001010 a
0+
#203
1J
0#
1Y
b11 `
0B
0Q
b11001011 a
1+
#204
b110 V
0J
1#
0Y
0B
0Q
b11001100 a
0+
#205
1J
0#
1Y
b11 `
0B
0Q
b11001101 a
1+
b1001 e
#206
b111 V
0J
1#
0Y
0B
0Q
b11001110 a
0+
#207
1J
0#
1Y
b11 `
0B
0Q
b11001111 a
1+
#208
b0 W
b1000 V
0J
1#
0Y
0B
0Q
b11010000 a
0+
#209
1J
b0 "
b0 2
b0 Z
0#
1Y
b0 \
0B
0X
0Q
b11010001 a
1+
#210
0J
0Y
0B
0Q
b11010010 a
0+
b1010 e
#211
b0 7
1J
1Y
11
0B
0Q
b11010011 a
1+
#212
0J
0Y
0B
0Q
b11010100 a
0+
#213
1!
1J
1Y
b0 ;
0B
0Q
b11010101 a
1+
#214
0J
0Y
0B
0Q
b11010110 a
0+
#215
1:
0!
1J
1Y
b100 ;
0B
0Q
b100 7
b11010111 a
1+
1-
#216
0J
0Y
0B
0Q
b11011000 a
0+
#217
b101 7
b0 V
01
b1 W
b1000 ^
b11 ]
1J
1Y
1[
0B
0Q
b11011001 a
1+
#218
0J
0Y
0B
0Q
b11011010 a
0+
#219
b10 W
0:
1J
1Y
b1 \
b101 ;
0B
0Q
b11011011 a
1+
#220
0J
0Y
b11 _
0B
0Q
b11011100 a
0+
#221
1J
1Y
b10 \
b11 _
0B
0Q
b11011101 a
1+
#222
b1 V
0J
1#
0Y
0B
0Q
b11011110 a
0+
#223
1J
0#
1Y
b11 `
0B
0Q
b11011111 a
1+
#224
b10 V
0J
1#
0Y
0B
0Q
b11100000 a
0+
#225
1J
0#
1Y
b11 `
0B
0Q
b11100001 a
1+
b0 e
b11 d
0-
#226
b11 V
0J
1#
0Y
0B
0Q
b11100010 a
0+
#227
1J
0#
1Y
b11 `
0B
0Q
b11100011 a
1+
#228
b100 V
0J
1#
0Y
0B
0Q
b11100100 a
0+
#229
1J
b111 "
b111 2
b111 Z
0#
1Y
b11 `
0B
0Q
b11100101 a
1+
#230
b101 V
0J
1#
0Y
0B
0Q
b11100110 a
0+
b1 e
#231
1J
0#
1Y
b11 `
0B
0Q
b11100111 a
1+
#232
b110 V
0J
1#
0Y
0B
0Q
b11101000 a
0+
#233
1J
0#
1Y
b11 `
0B
0Q
b11101001 a
1+
#234
b111 V
0J
1#
0Y
0B
0Q
b11101010 a
0+
#235
1J
0#
1Y
b11 `
0B
0Q
b11101011 a
1+
b10 e
#236
b0 W
b1000 V
0J
1#
0Y
0B
0Q
b11101100 a
0+
#237
b1 W
1J
b0 "
b0 2
b0 Z
0#
1Y
b0 \
0B
0Q
b11101101 a
1+
#238
0J
0Y
0B
0Q
b11101110 a
0+
#239
b10 W
1J
1Y
b1 \
0B
0Q
b11101111 a
1+
#240
0J
bx "
bx 2
bx Z
0Y
b11 _
0B
0Q
b11110000 a
0+
b11 e
#241
b0 W
1J
1Y
b10 \
b11 _
0B
1X
0Q
b11110001 a
1+
#242
b10 W
b1001 V
0J
1#
0Y
0B
0Q
b11110010 a
0+
#243
1J
b0 "
b0 2
b0 Z
0#
1Y
0[
0B
0Q
b11110011 a
1+
#244
b1010 V
0J
1#
0Y
0B
0Q
b11110100 a
0+
#245
1J
0#
1Y
0B
0Q
b11110101 a
1+
b100 e
#246
b1011 V
0J
1#
0Y
0B
0Q
b11110110 a
0+
#247
1J
0#
1Y
0B
0Q
b11110111 a
1+
#248
b1100 V
0J
1#
0Y
0B
0Q
b11111000 a
0+
#249
1J
0#
1Y
0B
0Q
b11111001 a
1+
#250
b1101 V
0J
1#
0Y
0B
0Q
b11111010 a
0+
b101 e
#251
1J
0#
1Y
0B
0Q
b11111011 a
1+
#252
b1110 V
0J
1#
0Y
0B
0Q
b11111100 a
0+
#253
1J
0#
1Y
0B
0Q
b11111101 a
1+
#254
b1111 V
0J
1#
0Y
0B
0Q
b11111110 a
0+
#255
1J
0#
1Y
0B
0Q
b11111111 a
1+
b110 e
#256
b0 V
0J
1#
0Y
0B
0Q
b100000000 a
0+
#257
1J
0#
1Y
b11 `
0B
0Q
b100000001 a
1+
#258
b1 V
0J
1#
0Y
0B
0Q
b100000010 a
0+
#259
1J
0#
1Y
b11 `
0B
0Q
b100000011 a
1+
#260
b10 V
0J
1#
0Y
0B
0Q
b100000100 a
0+
b111 e
#261
1J
0#
1Y
b11 `
0B
0Q
b100000101 a
1+
#262
b11 V
0J
1#
0Y
0B
0Q
b100000110 a
0+
#263
1J
0#
1Y
b11 `
0B
0Q
b100000111 a
1+
#264
b100 V
0J
1#
0Y
0B
0Q
b100001000 a
0+
#265
1J
b111 "
b111 2
b111 Z
0#
1Y
b11 `
0B
0Q
b100001001 a
1+
b1000 e
#266
b101 V
0J
1#
0Y
0B
0Q
b100001010 a
0+
#267
1J
0#
1Y
b11 `
0B
0Q
b100001011 a
1+
#268
b110 V
0J
1#
0Y
0B
0Q
b100001100 a
0+
#269
1J
0#
1Y
b11 `
0B
0Q
b100001101 a
1+
#270
b111 V
0J
1#
0Y
0B
0Q
b100001110 a
0+
b1001 e
#271
1J
0#
1Y
b11 `
0B
0Q
b100001111 a
1+
#272
b0 W
b1000 V
0J
1#
0Y
0B
0Q
b100010000 a
0+
#273
1J
b0 "
b0 2
b0 Z
0#
1Y
b0 \
0B
0X
0Q
b100010001 a
1+
#274
0J
0Y
0B
0Q
b100010010 a
0+
#275
b0 7
1J
1Y
11
0B
0Q
b100010011 a
1+
b1010 e
#276
0J
0Y
0B
0Q
b100010100 a
0+
#277
1!
1J
1Y
b0 ;
0B
0Q
b100010101 a
1+
#278
0J
0Y
0B
0Q
b100010110 a
0+
#279
1J
1Y
0B
0Q
b100010111 a
1+
#280
0J
0Y
0B
0Q
b100 7
b100011000 a
0+
1-
#281
1:
0!
1J
1Y
b100 ;
0B
0Q
b100011001 a
1+
#282
0J
0Y
0B
0Q
b100011010 a
0+
#283
b101 7
b0 V
01
b1 W
b1000 ^
b11 ]
1J
1Y
1[
0B
0Q
b100011011 a
1+
#284
0J
0Y
0B
0Q
b100011100 a
0+
#285
0:
b10 W
1J
1Y
b101 ;
b1 \
0B
0Q
b100011101 a
1+
#286
0J
0Y
b11 _
0B
0Q
b100011110 a
0+
#287
1J
1Y
b10 \
b11 _
0B
0Q
b100011111 a
1+
#288
b1 V
0J
1#
0Y
0B
0Q
b100100000 a
0+
#289
1J
0#
1Y
b11 `
0B
0Q
b100100001 a
1+
#290
b10 V
0J
1#
0Y
0B
0Q
b100100010 a
0+
b0 e
b11 c
b1 b
b0 d
0-
#291
1J
0#
1Y
b11 `
0B
0Q
b100100011 a
1+
#292
b11 V
0J
1#
0Y
0B
0Q
b100100100 a
0+
#293
1J
0#
1Y
b11 `
0B
0Q
b100100101 a
1+
#294
b100 V
0J
1#
0Y
0B
0Q
b100100110 a
0+
#295
1J
b111 "
b111 2
b111 Z
0#
1Y
b11 `
0B
0Q
b100100111 a
1+
b1 e
#296
b101 V
0J
1#
0Y
0B
0Q
b100101000 a
0+
#297
1J
0#
1Y
b11 `
0B
0Q
b100101001 a
1+
#298
b110 V
0J
1#
0Y
0B
0Q
b100101010 a
0+
#299
1J
0#
1Y
b11 `
0B
0Q
b100101011 a
1+
#300
b111 V
0J
1#
0Y
0B
0Q
b100101100 a
0+
b10 e
#301
1J
0#
1Y
b11 `
0B
0Q
b100101101 a
1+
#302
b0 W
b1000 V
0J
1#
0Y
0B
0Q
b100101110 a
0+
#303
b1 W
1J
b0 "
b0 2
b0 Z
0#
1Y
b0 \
0B
0Q
b100101111 a
1+
#304
0J
0Y
0B
0Q
b100110000 a
0+
#305
b10 W
1J
1Y
b1 \
0B
0Q
b100110001 a
1+
b11 e
#306
0J
bx "
bx 2
bx Z
0Y
b11 _
0B
0Q
b100110010 a
0+
#307
b0 W
1J
1Y
0[
b10 \
b11 _
0B
1X
0Q
b100110011 a
1+
#308
b10 W
b1001 V
0J
1#
0Y
0B
0Q
b100110100 a
0+
#309
1J
b0 "
b0 2
b0 Z
0#
1Y
0B
0Q
b100110101 a
1+
#310
b1010 V
0J
1#
0Y
0B
0Q
b100110110 a
0+
b100 e
#311
1J
0#
1Y
0B
0Q
b100110111 a
1+
#312
b1011 V
0J
1#
0Y
0B
0Q
b100111000 a
0+
#313
1J
0#
1Y
0B
0Q
b100111001 a
1+
#314
b1100 V
0J
1#
0Y
0B
0Q
b100111010 a
0+
#315
1J
0#
1Y
0B
0Q
b100111011 a
1+
b101 e
#316
b1101 V
0J
1#
0Y
0B
0Q
b100111100 a
0+
#317
1J
0#
1Y
0B
0Q
b100111101 a
1+
#318
b1110 V
0J
1#
0Y
0B
0Q
b100111110 a
0+
#319
1J
0#
1Y
0B
0Q
b100111111 a
1+
#320
b1111 V
0J
1#
0Y
0B
0Q
b101000000 a
0+
b110 e
#321
1J
0#
1Y
0B
0Q
b101000001 a
1+
#322
b0 V
0J
1#
0Y
0B
0Q
b101000010 a
0+
#323
1J
0#
1Y
b11 `
0B
0Q
b101000011 a
1+
#324
b1 V
0J
1#
0Y
0B
0Q
b101000100 a
0+
#325
1J
0#
1Y
b11 `
0B
0Q
b101000101 a
1+
b111 e
#326
b10 V
0J
1#
0Y
0B
0Q
b101000110 a
0+
#327
1J
0#
1Y
b11 `
0B
0Q
b101000111 a
1+
#328
b11 V
0J
1#
0Y
0B
0Q
b101001000 a
0+
#329
1J
0#
1Y
b11 `
0B
0Q
b101001001 a
1+
#330
b100 V
0J
1#
0Y
0B
0Q
b101001010 a
0+
b1000 e
#331
1J
b111 "
b111 2
b111 Z
0#
1Y
b11 `
0B
0Q
b101001011 a
1+
#332
b101 V
0J
1#
0Y
0B
0Q
b101001100 a
0+
#333
1J
0#
1Y
b11 `
0B
0Q
b101001101 a
1+
