HDMI_to_Matrix_FPGA/Test_Project/Nano9K_Test/sim/output_module.vcd
$date
	Fri Mar 21 18:03:08 2025
$end
$version
	Icarus Verilog
$end
$timescale
	1s
$end
$scope module output_module_tb $end
$var wire 1 ! tx_finish $end
$var wire 3 " spi_mosi [2:0] $end
$var wire 1 # spi_clk $end
$var wire 1 $ ser_stcp $end
$var wire 1 % ser_n_enable $end
$var wire 1 & ser_data $end
$var wire 1 ' ser_clk $end
$var parameter 32 ( CHANNEL_NUMBER $end
$var parameter 32 ) SPI_SIZE $end
$var parameter 32 * TEST_SIZE $end
$var reg 1 + clk $end
$var reg 1 , extra_bit $end
$var reg 1 - new_column $end
$var reg 1 . new_image $end
$var reg 1 / next_data $end
$var reg 1 0 rst $end
$scope module ouput_module_inst $end
$var wire 1 + clk $end
$var wire 1 , extra_bit $end
$var wire 1 - new_column $end
$var wire 1 . new_image $end
$var wire 1 / next_data $end
$var wire 1 0 rst $end
$var wire 1 1 spi_tx_finish $end
$var wire 3 2 spi_mosi [2:0] $end
$var wire 1 # spi_clk $end
$var wire 1 $ ser_stcp $end
$var wire 1 % ser_n_enable $end
$var wire 1 & ser_data $end
$var wire 1 ' ser_clk $end
$var wire 1 3 column_select_ready $end
$var parameter 32 4 CHANNEL_NUMBER $end
$var parameter 32 5 MSB_FIRST $end
$var parameter 32 6 SPI_SIZE $end
$var reg 3 7 next_state [2:0] $end
$var reg 1 8 select_first $end
$var reg 1 9 select_next $end
$var reg 1 : spi_start_tx $end
$var reg 3 ; state [2:0] $end
$var reg 1 ! tx_finish $end
$scope module cs $end
$var wire 1 + clk $end
$var wire 1 , extra_bit $end
$var wire 1 0 rst $end
$var wire 1 8 select_first $end
$var wire 1 9 select_next $end
$var wire 1 < tx_finish $end
$var wire 1 & ser_data $end
$var wire 1 ' ser_clk $end
$var reg 8 = column_data [7:0] $end
$var reg 2 > counter [1:0] $end
$var reg 3 ? next_state [2:0] $end
$var reg 1 3 ready $end
$var reg 1 % ser_n_enable $end
$var reg 1 $ ser_stcp $end
$var reg 1 @ start_tx $end
$var reg 3 A state [2:0] $end
$scope module shift_reg $end
$var wire 1 + clk $end
$var wire 1 0 rst $end
$var wire 1 @ start_tx $end
$var parameter 32 B CHANNEL_NUMBER $end
$var parameter 32 C COUNTER_WIDTH $end
$var parameter 32 D MSB_FIRST $end
$var parameter 32 E SPI_SIZE $end
$var reg 4 F counter [3:0] $end
$var reg 1 G counter_overflow_flag $end
$var reg 1 H next $end
$var reg 2 I next_state [1:0] $end
$var reg 1 ' spi_clk $end
$var reg 1 & spi_mosi $end
$var reg 1 J start_tx_internal $end
$var reg 2 K state [1:0] $end
$var reg 1 < tx_finish $end
$scope begin $ivl_for_loop4 $end
$var integer 32 L i [31:0] $end
$scope begin $ivl_for_loop5 $end
$var integer 32 M j [31:0] $end
$upscope $end
$upscope $end
$scope begin $ivl_for_loop6 $end
$upscope $end
$scope begin $ivl_for_loop7 $end
$var integer 32 N i [31:0] $end
$upscope $end
$scope begin $ivl_for_loop8 $end
$var integer 32 O i [31:0] $end
$upscope $end
$upscope $end
$upscope $end
$scope module spi_tx $end
$var wire 1 + clk $end
$var wire 1 0 rst $end
$var wire 1 : start_tx $end
$var parameter 32 P CHANNEL_NUMBER $end
$var parameter 32 Q COUNTER_WIDTH $end
$var parameter 32 R MSB_FIRST $end
$var parameter 32 S SPI_SIZE $end
$var reg 4 T counter [3:0] $end
$var reg 1 U counter_overflow_flag $end
$var reg 1 V next $end
$var reg 2 W next_state [1:0] $end
$var reg 1 # spi_clk $end
$var reg 3 X spi_mosi [2:0] $end
$var reg 1 Y start_tx_internal $end
$var reg 2 Z state [1:0] $end
$var reg 1 1 tx_finish $end
$scope begin $ivl_for_loop4 $end
$var integer 32 [ i [31:0] $end
$scope begin $ivl_for_loop5 $end
$var integer 32 \ j [31:0] $end
$upscope $end
$upscope $end
$scope begin $ivl_for_loop6 $end
$upscope $end
$scope begin $ivl_for_loop7 $end
$var integer 32 ] i [31:0] $end
$upscope $end
$scope begin $ivl_for_loop8 $end
$var integer 32 ^ i [31:0] $end
$upscope $end
$upscope $end
$upscope $end
$scope begin $ivl_for_loop13 $end
$var integer 32 _ i [31:0] $end
$upscope $end
$scope begin $ivl_for_loop14 $end
$var integer 32 ` i [31:0] $end
$scope begin $ivl_for_loop15 $end
$var integer 32 a j [31:0] $end
$upscope $end
$scope begin $ivl_for_loop16 $end
$var integer 32 b k [31:0] $end
$scope begin $ivl_for_loop17 $end
$var integer 32 c j [31:0] $end
$upscope $end
$upscope $end
$upscope $end
$upscope $end
$enddefinitions $end
$comment Show the parameter values. $end
$dumpall
b1000 S
b1 R
b100 Q
b11 P
b1000 E
b1 D
b100 C
b1 B
b1000 6
b1 5
b11 4
b100 *
b1000 )
b11 (
$end
#0
$dumpvars
b0 c
b0 b
b0 a
b0 `
b0 _
b0 ^
b0 ]
b0 \
b0 [
b0 Z
0Y
b0 X
b0 W
1V
0U
b0 T
b0 O
b0 N
b0 M
b0 L
b0 K
0J
b0 I
1H
0G
b0 F
b0 A
0@
b1 ?
b0 >
b0 =
0<
b0 ;
0:
09
08
b0 7
03
b0 2
01
10
0/
0.
0-
x,
0+
0'
0&
1%
0$
0#
b0 "
0!
$end
#1
b1 _
1+
#2
b10 _
0+
#3
b11 _
1+
#4
b100 _
0+
#5
b10 ?
b1 A
1<
11
b0x0 =
b101 _
1+
00
#6
b110 _
0+
#7
b11 ?
1$
b10 A
b111 _
1+
#8
b1000 _
0+
#9
b1 7
13
0$
b11 A
b1001 _
1+
#10
b1010 _
0+
b11 a
#11
1!
b1 ;
b1011 _
1+
#12
b1100 _
0+
#13
b1101 _
1+
#14
b1110 _
0+
#15
b100 ?
18
0!
b10 ;
b10 7
b1111 _
1+
1.
#16
b10000 _
0+
#17
b100 7
b110 ?
03
b100 A
b1 >
b10001 _
1+
#18
b10010 _
0+
#19
1@
08
b110 A
b100 ;
b10011 _
1+
#20
b10100 _
0+
#21
b1 I
b1 L
b1000 M
1J
b10101 _
1+
#22
b10110 _
0+
#23
b1 ?
b10 I
0<
b1 K
b10111 _
1+
#24
b11000 _
0+
#25
0@
b1 A
b10 K
b1 N
b11001 _
1+
b1 b
0.
#26
b11010 _
0+
#27
0H
b1 O
b11011 _
1+
#28
b11100 _
0+
#29
b1 F
1'
1H
b11101 _
1+
#30
b11110 _
0+
b1 c
#31
0'
0H
b1 O
b11111 _
1+
#32
b100000 _
0+
#33
b10 F
1'
1H
b100001 _
1+
#34
b100010 _
0+
#35
0'
0H
b1 O
b100011 _
1+
b10 c
#36
b100100 _
0+
#37
b11 F
1'
1H
b100101 _
1+
#38
b100110 _
0+
#39
0'
0H
b1 O
b100111 _
1+
#40
b101000 _
0+
b11 c
#41
b100 F
1'
1H
b101001 _
1+
#42
b101010 _
0+
#43
0'
0H
b1 O
b101011 _
1+
#44
b101100 _
0+
#45
b101 F
1'
1H
b101101 _
1+
b100 c
#46
b101110 _
0+
#47
0'
0H
b1 O
b101111 _
1+
#48
b110000 _
0+
#49
b110 F
1'
1H
b110001 _
1+
#50
b110010 _
0+
b101 c
#51
x&
0'
0H
b1 O
b110011 _
1+
#52
b110100 _
0+
#53
b111 F
1'
1H
b110101 _
1+
#54
b110110 _
0+
#55
b0 I
0&
0'
0H
1G
b1 O
b110111 _
1+
b110 c
#56
b111000 _
0+
#57
b10 ?
b0 K
0G
b0 F
1<
0J
1'
1H
b111001 _
1+
#58
b111010 _
0+
#59
b11 ?
1$
0'
b10 A
b111011 _
1+
#60
b111100 _
0+
b111 c
#61
b101 7
13
0$
b11 A
b111101 _
1+
#62
b111110 _
0+
#63
1:
b101 ;
b111111 _
1+
#64
b1000000 _
0+
#65
b1 W
b11 [
b1000 \
1Y
b1000001 _
1+
b1000 c
#66
b1000010 _
0+
#67
b110 7
b10 W
01
b1 Z
b1000011 _
1+
#68
b1000100 _
0+
#69
0:
b110 ;
b10 Z
b11 ]
b1000101 _
1+
#70
b1000110 _
0+
b1001 c
#71
0V
b11 ^
b1000111 _
1+
#72
b1001000 _
0+
#73
b1 T
1#
1V
b1001001 _
1+
#74
b1001010 _
0+
#75
0#
0V
b11 ^
b1001011 _
1+
b1010 c
#76
b1001100 _
0+
#77
b10 T
1#
1V
b1001101 _
1+
#78
b1001110 _
0+
#79
0#
0V
b11 ^
b1001111 _
1+
#80
b1010000 _
0+
b1011 c
#81
b11 T
1#
1V
b1010001 _
1+
#82
b1010010 _
0+
#83
0#
0V
b11 ^
b1010011 _
1+
#84
b1010100 _
0+
#85
b100 T
1#
1V
b1010101 _
1+
b1100 c
#86
b1010110 _
0+
#87
b111 "
b111 2
b111 X
0#
0V
b11 ^
b1010111 _
1+
#88
b1011000 _
0+
#89
b101 T
1#
1V
b1011001 _
1+
#90
b1011010 _
0+
b1101 c
#91
0#
0V
b11 ^
b1011011 _
1+
#92
b1011100 _
0+
#93
b110 T
1#
1V
b1011101 _
1+
#94
b1011110 _
0+
#95
0#
0V
b11 ^
b1011111 _
1+
b1110 c
#96
b1100000 _
0+
#97
b111 T
1#
1V
b1100001 _
1+
#98
b1100010 _
0+
#99
b0 W
0#
0V
1U
b11 ^
b1100011 _
1+
#100
b1100100 _
0+
b1111 c
#101
b1 7
b0 Z
0U
b0 T
11
0Y
1#
1V
b1100101 _
1+
#102
b1100110 _
0+
#103
1!
b0 "
b0 2
b0 X
0#
b1 ;
b1100111 _
1+
#104
b1101000 _
0+
#105
1:
0!
b101 ;
b101 7
b1101001 _
1+
1/
#106
b1101010 _
0+
#107
b1 W
b1000 \
b11 [
1Y
b1101011 _
1+
#108
b1101100 _
0+
#109
b10 W
b110 7
b1 Z
01
b1101101 _
1+
#110
b1101110 _
0+
#111
0:
b10 Z
b110 ;
b11 ]
b1101111 _
1+
#112
b1110000 _
0+
#113
0V
b11 ^
b1110001 _
1+
#114
b1110010 _
0+
#115
b1 T
1#
1V
b1110011 _
1+
b0 c
b10 b
0/
#116
b1110100 _
0+
#117
0#
0V
b11 ^
b1110101 _
1+
#118
b1110110 _
0+
#119
b10 T
1#
1V
b1110111 _
1+
#120
b1111000 _
0+
b1 c
#121
0#
0V
b11 ^
b1111001 _
1+
#122
b1111010 _
0+
#123
b11 T
1#
1V
b1111011 _
1+
#124
b1111100 _
0+
#125
0#
0V
b11 ^
b1111101 _
1+
b10 c
#126
b1111110 _
0+
#127
b100 T
1#
1V
b1111111 _
1+
#128
b10000000 _
0+
#129
b111 "
b111 2
b111 X
0#
0V
b11 ^
b10000001 _
1+
#130
b10000010 _
0+
b11 c
#131
b101 T
1#
1V
b10000011 _
1+
#132
b10000100 _
0+
#133
0#
0V
b11 ^
b10000101 _
1+
#134
b10000110 _
0+
#135
b110 T
1#
1V
b10000111 _
1+
b100 c
#136
b10001000 _
0+
#137
0#
0V
b11 ^
b10001001 _
1+
#138
b10001010 _
0+
#139
b111 T
1#
1V
b10001011 _
1+
#140
b10001100 _
0+
b101 c
#141
b0 W
0#
0V
1U
b11 ^
b10001101 _
1+
#142
b10001110 _
0+
#143
b1 7
0Y
11
0U
b0 T
b0 Z
1#
1V
b10001111 _
1+
#144
b10010000 _
0+
#145
1!
b0 "
b0 2
b0 X
0#
b1 ;
b10010001 _
1+
b110 c
#146
b10010010 _
0+
#147
b10010011 _
1+
#148
b10010100 _
0+
#149
b10010101 _
1+
#150
b101 7
b10010110 _
0+
1/
#151
1:
0!
b101 ;
b10010111 _
1+
#152
b10011000 _
0+
#153
b1 W
b1000 \
b11 [
1Y
b10011001 _
1+
#154
b10011010 _
0+
#155
b110 7
b10 W
01
b1 Z
b10011011 _
1+
#156
b10011100 _
0+
#157
0:
b110 ;
b10 Z
b11 ]
b10011101 _
1+
#158
b10011110 _
0+
#159
0V
b11 ^
b10011111 _
1+
#160
b10100000 _
0+
b0 c
b11 b
0/
#161
b1 T
1#
1V
b10100001 _
1+
#162
b10100010 _
0+
#163
0#
0V
b11 ^
b10100011 _
1+
#164
b10100100 _
0+
#165
b10 T
1#
1V
b10100101 _
1+
b1 c
#166
b10100110 _
0+
#167
0#
0V
b11 ^
b10100111 _
1+
#168
b10101000 _
0+
#169
b11 T
1#
1V
b10101001 _
1+
#170
b10101010 _
0+
b10 c
#171
0#
0V
b11 ^
b10101011 _
1+
#172
b10101100 _
0+
#173
b100 T
1#
1V
b10101101 _
1+
#174
b10101110 _
0+
#175
b111 "
b111 2
b111 X
0#
0V
b11 ^
b10101111 _
1+
b11 c
#176
b10110000 _
0+
#177
b101 T
1#
1V
b10110001 _
1+
#178
b10110010 _
0+
#179
0#
0V
b11 ^
b10110011 _
1+
#180
b10110100 _
0+
b100 c
#181
b110 T
1#
1V
b10110101 _
1+
#182
b10110110 _
0+
#183
0#
0V
b11 ^
b10110111 _
1+
#184
b10111000 _
0+
#185
b111 T
1#
1V
b10111001 _
1+
b101 c
#186
b10111010 _
0+
#187
b0 W
0#
0V
1U
b11 ^
b10111011 _
1+
#188
b10111100 _
0+
#189
b1 7
b0 Z
0U
b0 T
11
0Y
1#
1V
b10111101 _
1+
#190
b10111110 _
0+
b110 c
#191
1!
b0 "
b0 2
b0 X
0#
b1 ;
b10111111 _
1+
#192
b11000000 _
0+
#193
b11000001 _
1+
#194
b11000010 _
0+
#195
1:
0!
b101 ;
b101 7
b11000011 _
1+
1/
#196
b11000100 _
0+
#197
b1 W
b1000 \
b11 [
1Y
b11000101 _
1+
#198
b11000110 _
0+
#199
b110 7
b10 W
01
b1 Z
b11000111 _
1+
#200
b11001000 _
0+
#201
0:
b110 ;
b10 Z
b11 ]
b11001001 _
1+
#202
b11001010 _
0+
#203
0V
b11 ^
b11001011 _
1+
#204
b11001100 _
0+
#205
b1 T
1#
1V
b11001101 _
1+
b0 c
b11 a
b1 `
b0 b
0/
#206
b11001110 _
0+
#207
0#
0V
b11 ^
b11001111 _
1+
#208
b11010000 _
0+
#209
b10 T
1#
1V
b11010001 _
1+
#210
b11010010 _
0+
b1 c
#211
0#
0V
b11 ^
b11010011 _
1+
#212
b11010100 _
0+
#213
b11 T
1#
1V
b11010101 _
1+
#214
b11010110 _
0+
#215
0#
0V
b11 ^
b11010111 _
1+
b10 c
#216
b11011000 _
0+
#217
b100 T
1#
1V
b11011001 _
1+
#218
b11011010 _
0+
#219
b111 "
b111 2
b111 X
0#
0V
b11 ^
b11011011 _
1+
#220
b11011100 _
0+
b11 c
#221
b101 T
1#
1V
b11011101 _
1+
#222
b11011110 _
0+
#223
0#
0V
b11 ^
b11011111 _
1+
#224
b11100000 _
0+
#225
b110 T
1#
1V
b11100001 _
1+
b100 c
#226
b11100010 _
0+
#227
0#
0V
b11 ^
b11100011 _
1+
#228
b11100100 _
0+
#229
b111 T
1#
1V
b11100101 _
1+
#230
b11100110 _
0+
b101 c
#231
b0 W
0#
0V
1U
b11 ^
b11100111 _
1+
#232
b11101000 _
0+
#233
b1 7
b0 Z
0U
b0 T
11
0Y
1#
1V
b11101001 _
1+
#234
b11101010 _
0+
#235
1!
b0 "
b0 2
b0 X
0#
b1 ;
b11101011 _
1+
b110 c
#236
b11101100 _
0+
#237
b11101101 _
1+
#238
b11101110 _
0+
#239
b11101111 _
1+
#240
b11 7
b11110000 _
0+
1-
#241
b101 ?
19
0!
b11 ;
b11110001 _
1+
#242
b11110010 _
0+
#243
b100 7
b110 ?
03
b101 A
b0x1 =
b11110011 _
1+
#244
b11110100 _
0+
#245
09
1@
b100 ;
b110 A
b11110101 _
1+
#246
b11110110 _
0+
#247
b1 I
b1000 M
b1 L
1J
b11110111 _
1+
#248
b11111000 _
0+
#249
b10 I
b1 ?
b1 K
0<
b11111001 _
1+
#250
b11111010 _
0+
b0 c
b1 b
0-
#251
0@
b10 K
b1 A
b1 N
b11111011 _
1+
#252
b11111100 _
0+
#253
0H
b1 O
b11111101 _
1+
#254
b11111110 _
0+
#255
b1 F
1'
1H
b11111111 _
1+
b1 c
#256
b100000000 _
0+
#257
0'
0H
b1 O
b100000001 _
1+
#258
b100000010 _
0+
#259
b10 F
1'
1H
b100000011 _
1+
#260
b100000100 _
0+
b10 c
#261
0'
0H
b1 O
b100000101 _
1+
#262
b100000110 _
0+
#263
b11 F
1'
1H
b100000111 _
1+
#264
b100001000 _
0+
#265
0'
0H
b1 O
b100001001 _
1+
b11 c
#266
b100001010 _
0+
#267
b100 F
1'
1H
b100001011 _
1+
#268
b100001100 _
0+
#269
0'
0H
b1 O
b100001101 _
1+
#270
b100001110 _
0+
b100 c
#271
b101 F
1'
1H
b100001111 _
1+
#272
b100010000 _
0+
#273
0'
0H
b1 O
b100010001 _
1+
#274
b100010010 _
0+
#275
b110 F
1'
1H
b100010011 _
1+
b101 c
#276
b100010100 _
0+
#277
x&
0'
0H
b1 O
b100010101 _
1+
#278
b100010110 _
0+
#279
b111 F
1'
1H
b100010111 _
1+
#280
b100011000 _
0+
b110 c
#281
b0 I
1&
0'
0H
1G
b1 O
b100011001 _
1+
#282
b100011010 _
0+
#283
b10 ?
0J
1<
0G
b0 F
b0 K
1'
1H
b100011011 _
1+
#284
b100011100 _
0+
#285
b11 ?
1$
0&
0'
b10 A
b100011101 _
1+
b111 c
#286
b100011110 _
0+
#287
b101 7
13
0$
b11 A
b100011111 _
1+
#288
b100100000 _
0+
#289
1:
b101 ;
b100100001 _
1+
#290
b100100010 _
0+
b1000 c
#291
b1 W
b1000 \
b11 [
1Y
b100100011 _
1+
#292
b100100100 _
0+
#293
b10 W
b110 7
b1 Z
01
b100100101 _
1+
#294
b100100110 _
0+
#295
0:
b111 "
b111 2
b111 X
b10 Z
b110 ;
b11 ]
b100100111 _
1+
b1001 c
#296
b100101000 _
0+
#297
0V
b11 ^
b100101001 _
1+
#298
b100101010 _
0+
#299
b1 T
1#
1V
b100101011 _
1+
#300
b100101100 _
0+
b1010 c
#301
0#
0V
b11 ^
b100101101 _
1+
#302
b100101110 _
0+
#303
b10 T
1#
1V
b100101111 _
1+
#304
b100110000 _
0+
#305
0#
0V
b11 ^
b100110001 _
1+
b1011 c
#306
b100110010 _
0+
#307
b11 T
1#
1V
b100110011 _
1+
#308
b100110100 _
0+
#309
0#
0V
b11 ^
b100110101 _
1+
#310
b100110110 _
0+
b1100 c
#311
b100 T
1#
1V
b100110111 _
1+
#312
b100111000 _
0+
#313
b0 "
b0 2
b0 X
0#
0V
b11 ^
b100111001 _
1+
#314
b100111010 _
0+
#315
b101 T
1#
1V
b100111011 _
1+
b1101 c
#316
b100111100 _
0+
#317
0#
0V
b11 ^
b100111101 _
1+
#318
b100111110 _
0+
#319
b110 T
1#
1V
b100111111 _
1+
#320
b101000000 _
0+
b1110 c
#321
0#
0V
b11 ^
b101000001 _
1+
#322
b101000010 _
0+
#323
b111 T
1#
1V
b101000011 _
1+
#324
b101000100 _
0+
#325
b0 W
0#
0V
1U
b11 ^
b101000101 _
1+
b1111 c
#326
b101000110 _
0+
#327
b1 7
0Y
11
0U
b0 T
b0 Z
1#
1V
b101000111 _
1+
#328
b101001000 _
0+
#329
1!
0#
b1 ;
b101001001 _
1+
#330
b101 7
b101001010 _
0+
1/
#331
1:
0!
b101 ;
b101001011 _
1+
#332
b101001100 _
0+
#333
b1 W
b1000 \
b11 [
1Y
b101001101 _
1+
#334
b101001110 _
0+
#335
b110 7
b10 W
01
b1 Z
b101001111 _
1+
#336
b101010000 _
0+
#337
0:
b111 "
b111 2
b111 X
b110 ;
b10 Z
b11 ]
b101010001 _
1+
#338
b101010010 _
0+
#339
0V
b11 ^
b101010011 _
1+
#340
b101010100 _
0+
b0 c
b10 b
0/
#341
b1 T
1#
1V
b101010101 _
1+
#342
b101010110 _
0+
#343
0#
0V
b11 ^
b101010111 _
1+
#344
b101011000 _
0+
#345
b10 T
1#
1V
b101011001 _
1+
b1 c
#346
b101011010 _
0+
#347
0#
0V
b11 ^
b101011011 _
1+
#348
b101011100 _
0+
#349
b11 T
1#
1V
b101011101 _
1+
#350
b101011110 _
0+
b10 c
#351
0#
0V
b11 ^
b101011111 _
1+
#352
b101100000 _
0+
#353
b100 T
1#
1V
b101100001 _
1+
#354
b101100010 _
0+
#355
b0 "
b0 2
b0 X
0#
0V
b11 ^
b101100011 _
1+
b11 c
#356
b101100100 _
0+
#357
b101 T
1#
1V
b101100101 _
1+
#358
b101100110 _
0+
#359
0#
0V
b11 ^
b101100111 _
1+
#360
b101101000 _
0+
b100 c
#361
b110 T
1#
1V
b101101001 _
1+
#362
b101101010 _
0+
#363
0#
0V
b11 ^
b101101011 _
1+
#364
b101101100 _
0+
#365
b111 T
1#
1V
b101101101 _
1+
b101 c
#366
b101101110 _
0+
#367
b0 W
0#
0V
1U
b11 ^
b101101111 _
1+
#368
b101110000 _
0+
#369
b1 7
b0 Z
0U
b0 T
11
0Y
1#
1V
b101110001 _
1+
#370
b101110010 _
0+
b110 c
#371
1!
0#
b1 ;
b101110011 _
1+
#372
b101110100 _
0+
#373
b101110101 _
1+
#374
b101110110 _
0+
#375
1:
0!
b101 ;
b101 7
b101110111 _
1+
1/
#376
b101111000 _
0+
#377
b1 W
b1000 \
b11 [
1Y
b101111001 _
1+
#378
b101111010 _
0+
#379
b110 7
b10 W
01
b1 Z
b101111011 _
1+
#380
b101111100 _
0+
#381
0:
b111 "
b111 2
b111 X
b110 ;
b10 Z
b11 ]
b101111101 _
1+
#382
b101111110 _
0+
#383
0V
b11 ^
b101111111 _
1+
#384
b110000000 _
0+
#385
b1 T
1#
1V
b110000001 _
1+
b0 c
b11 b
0/
#386
b110000010 _
0+
#387
0#
0V
b11 ^
b110000011 _
1+
#388
b110000100 _
0+
#389
b10 T
1#
1V
b110000101 _
1+
#390
b110000110 _
0+
b1 c
#391
0#
0V
b11 ^
b110000111 _
1+
#392
b110001000 _
0+
#393
b11 T
1#
1V
b110001001 _
1+
#394
b110001010 _
0+
#395
0#
0V
b11 ^
b110001011 _
1+
b10 c
#396
b110001100 _
0+
#397
b100 T
1#
1V
b110001101 _
1+
#398
b110001110 _
0+
#399
b0 "
b0 2
b0 X
0#
0V
b11 ^
b110001111 _
1+
#400
b110010000 _
0+
b11 c
#401
b101 T
1#
1V
b110010001 _
1+
#402
b110010010 _
0+
#403
0#
0V
b11 ^
b110010011 _
1+
#404
b110010100 _
0+
#405
b110 T
1#
1V
b110010101 _
1+
b100 c
#406
b110010110 _
0+
#407
0#
0V
b11 ^
b110010111 _
1+
#408
b110011000 _
0+
#409
b111 T
1#
1V
b110011001 _
1+
#410
b110011010 _
0+
b101 c
#411
b0 W
0#
0V
1U
b11 ^
b110011011 _
1+
#412
b110011100 _
0+
#413
b1 7
b0 Z
0U
b0 T
11
0Y
1#
1V
b110011101 _
1+
#414
b110011110 _
0+
#415
1!
0#
b1 ;
b110011111 _
1+
b110 c
#416
b110100000 _
0+
#417
b110100001 _
1+
#418
b110100010 _
0+
#419
b110100011 _
1+
#420
b101 7
b110100100 _
0+
1/
#421
1:
0!
b101 ;
b110100101 _
1+
#422
b110100110 _
0+
#423
b1 W
b1000 \
b11 [
1Y
b110100111 _
1+
#424
b110101000 _
0+
#425
b10 W
b110 7
b1 Z
01
b110101001 _
1+
#426
b110101010 _
0+
#427
0:
b111 "
b111 2
b111 X
b10 Z
b110 ;
b11 ]
b110101011 _
1+
#428
b110101100 _
0+
#429
0V
b11 ^
b110101101 _
1+
#430
b110101110 _
0+
b0 c
b11 a
b10 `
b0 b
0/
#431
b1 T
1#
1V
b110101111 _
1+
#432
b110110000 _
0+
#433
0#
0V
b11 ^
b110110001 _
1+
#434
b110110010 _
0+
#435
b10 T
1#
1V
b110110011 _
1+
b1 c
#436
b110110100 _
0+
#437
0#
0V
b11 ^
b110110101 _
1+
#438
b110110110 _
0+
#439
b11 T
1#
1V
b110110111 _
1+
#440
b110111000 _
0+
b10 c
#441
0#
0V
b11 ^
b110111001 _
1+
#442
b110111010 _
0+
#443
b100 T
1#
1V
b110111011 _
1+
#444
b110111100 _
0+
#445
b0 "
b0 2
b0 X
0#
0V
b11 ^
b110111101 _
1+
b11 c
#446
b110111110 _
0+
#447
b101 T
1#
1V
b110111111 _
1+
#448
b111000000 _
0+
#449
0#
0V
b11 ^
b111000001 _
1+
#450
b111000010 _
0+
b100 c
#451
b110 T
1#
1V
b111000011 _
1+
#452
b111000100 _
0+
#453
0#
0V
b11 ^
b111000101 _
1+
#454
b111000110 _
0+
#455
b111 T
1#
1V
b111000111 _
1+
b101 c
#456
b111001000 _
0+
#457
b0 W
0#
0V
1U
b11 ^
b111001001 _
1+
#458
b111001010 _
0+
#459
b1 7
0Y
11
0U
b0 T
b0 Z
1#
1V
b111001011 _
1+
#460
b111001100 _
0+
b110 c
#461
1!
0#
b1 ;
b111001101 _
1+
#462
b111001110 _
0+
#463
b111001111 _
1+
#464
b111010000 _
0+
#465
b101 ?
19
0!
b11 ;
b11 7
b111010001 _
1+
1-
#466
b111010010 _
0+
#467
b100 7
b110 ?
03
b101 A
b111010011 _
1+
#468
b111010100 _
0+
#469
09
1@
b100 ;
b110 A
b111010101 _
1+
#470
b111010110 _
0+
#471
b1 I
b1000 M
b1 L
1J
b111010111 _
1+
#472
b111011000 _
0+
#473
b10 I
b1 ?
b1 K
0<
b111011001 _
1+
#474
b111011010 _
0+
#475
0@
b10 K
b1 A
b1 N
b111011011 _
1+
b0 c
b1 b
0-
#476
b111011100 _
0+
#477
0H
b1 O
b111011101 _
1+
#478
b111011110 _
0+
#479
b1 F
1'
1H
b111011111 _
1+
#480
b111100000 _
0+
b1 c
#481
0'
0H
b1 O
b111100001 _
1+
#482
b111100010 _
0+
#483
b10 F
1'
1H
b111100011 _
1+
#484
b111100100 _
0+
#485
0'
0H
b1 O
b111100101 _
1+
b10 c
#486
b111100110 _
0+
#487
b11 F
1'
1H
b111100111 _
1+
#488
b111101000 _
0+
#489
0'
0H
b1 O
b111101001 _
1+
#490
b111101010 _
0+
b11 c
#491
b100 F
1'
1H
b111101011 _
1+
#492
b111101100 _
0+
#493
0'
0H
b1 O
b111101101 _
1+
#494
b111101110 _
0+
#495
b101 F
1'
1H
b111101111 _
1+
b100 c
#496
b111110000 _
0+
#497
0'
0H
b1 O
b111110001 _
1+
#498
b111110010 _
0+
#499
b110 F
1'
1H
b111110011 _
1+
#500
b111110100 _
0+
b101 c
#501
x&
0'
0H
b1 O
b111110101 _
1+
#502
b111110110 _
0+
#503
b111 F
1'
1H
b111110111 _
1+
#504
b111111000 _
0+
#505
b0 I
1&
0'
0H
1G
b1 O
b111111001 _
1+
b110 c
#506
b111111010 _
0+
#507
b10 ?
0J
1<
0G
b0 F
b0 K
1'
1H
b111111011 _
1+
#508
b111111100 _
0+
#509
b11 ?
1$
0&
0'
b10 A
b111111101 _
1+
#510
b111111110 _
0+
b111 c
#511
b101 7
13
0$
b11 A
b111111111 _
1+
#512
b1000000000 _
0+
#513
1:
b101 ;
b1000000001 _
1+
#514
b1000000010 _
0+
#515
b1 W
b1000 \
b11 [
1Y
b1000000011 _
1+
b1000 c
#516
b1000000100 _
0+
#517
b10 W
b110 7
b1 Z
01
b1000000101 _
1+
#518
b1000000110 _
0+
#519
0:
b111 "
b111 2
b111 X
b10 Z
b110 ;
b11 ]
b1000000111 _
1+
#520
b1000001000 _
0+
b1001 c
#521
0V
b11 ^
b1000001001 _
1+
#522
b1000001010 _
0+
#523
b1 T
1#
1V
b1000001011 _
1+
#524
b1000001100 _
0+
#525
0#
0V
b11 ^
b1000001101 _
1+
b1010 c
#526
b1000001110 _
0+
#527
b10 T
1#
1V
b1000001111 _
1+
#528
b1000010000 _
0+
#529
0#
0V
b11 ^
b1000010001 _
1+
#530
b1000010010 _
0+
b1011 c
#531
b11 T
1#
1V
b1000010011 _
1+
#532
b1000010100 _
0+
#533
0#
0V
b11 ^
b1000010101 _
1+
#534
b1000010110 _
0+
#535
b100 T
1#
1V
b1000010111 _
1+
b1100 c
#536
b1000011000 _
0+
#537
0#
0V
b11 ^
b1000011001 _
1+
#538
b1000011010 _
0+
#539
b101 T
1#
1V
b1000011011 _
1+
#540
b1000011100 _
0+
b1101 c
#541
0#
0V
b11 ^
b1000011101 _
1+
#542
b1000011110 _
0+
#543
b110 T
1#
1V
b1000011111 _
1+
#544
b1000100000 _
0+
#545
0#
0V
b11 ^
b1000100001 _
1+
b1110 c
#546
b1000100010 _
0+
#547
b111 T
1#
1V
b1000100011 _
1+
#548
b1000100100 _
0+
#549
b0 W
0#
0V
1U
b11 ^
b1000100101 _
1+
#550
b1000100110 _
0+
b1111 c
#551
b1 7
0Y
11
0U
b0 T
b0 Z
1#
1V
b1000100111 _
1+
#552
b1000101000 _
0+
#553
1!
b0 "
b0 2
b0 X
0#
b1 ;
b1000101001 _
1+
#554
b1000101010 _
0+
#555
1:
0!
b101 ;
b101 7
b1000101011 _
1+
1/
#556
b1000101100 _
0+
#557
b1 W
b1000 \
b11 [
1Y
b1000101101 _
1+
#558
b1000101110 _
0+
#559
b110 7
b10 W
01
b1 Z
b1000101111 _
1+
#560
b1000110000 _
0+
#561
0:
b111 "
b111 2
b111 X
b110 ;
b10 Z
b11 ]
b1000110001 _
1+
#562
b1000110010 _
0+
#563
0V
b11 ^
b1000110011 _
1+
#564
b1000110100 _
0+
#565
b1 T
1#
1V
b1000110101 _
1+
b0 c
b10 b
0/
#566
b1000110110 _
0+
#567
0#
0V
b11 ^
b1000110111 _
1+
#568
b1000111000 _
0+
#569
b10 T
1#
1V
b1000111001 _
1+
#570
b1000111010 _
0+
b1 c
#571
0#
0V
b11 ^
b1000111011 _
1+
#572
b1000111100 _
0+
#573
b11 T
1#
1V
b1000111101 _
1+
#574
b1000111110 _
0+
#575
0#
0V
b11 ^
b1000111111 _
1+
b10 c
#576
b1001000000 _
0+
