HDMI_to_Matrix_FPGA/HDMI_to_Matrix/sim/Sync_Manager_tb.vcd
$date
	Sat Apr 19 00:00:15 2025
$end
$version
	Icarus Verilog
$end
$timescale
	1ps
$end
$scope module Sync_Manager_tb $end
$var wire 4 ! pll_phase [3:0] $end
$var wire 1 " pll_phase_lock $end
$var wire 1 # width_valid $end
$var wire 1 $ rgb_vs $end
$var wire 8 % rgb_r [7:0] $end
$var wire 1 & rgb_hs $end
$var wire 8 ' rgb_g [7:0] $end
$var wire 1 ( rgb_de $end
$var wire 1 ) rgb_clk $end
$var wire 8 * rgb_b [7:0] $end
$var wire 1 + new_row $end
$var wire 1 , new_frame $end
$var wire 11 - image_width [10:0] $end
$var wire 11 . image_height [10:0] $end
$var wire 1 / height_valid $end
$var parameter 32 0 DELAY $end
$var parameter 32 1 H_ACTIVE $end
$var parameter 32 2 H_TOTAL $end
$var parameter 32 3 V_ACTIVE $end
$var parameter 32 4 V_TOTAL $end
$var reg 1 5 clk $end
$var reg 1 6 rst_n $end
$scope module dut $end
$var wire 1 6 I_rst_n $end
$var wire 1 7 new_frame_internal $end
$var wire 1 8 new_row_internal $end
$var wire 1 9 rgb_de $end
$var wire 1 + O_new_row $end
$var wire 1 , O_new_frame $end
$var wire 1 $ I_rgb_vsync $end
$var wire 1 & I_rgb_hsync $end
$var wire 1 ( I_rgb_de $end
$var wire 1 ) I_rgb_clk $end
$var parameter 32 : DELAY $end
$var parameter 32 ; MAX_HEIGHT $end
$var parameter 32 < MAX_WIDTH $end
$var reg 1 / O_height_valid $end
$var reg 11 = O_image_height [10:0] $end
$var reg 11 > O_image_width [10:0] $end
$var reg 1 # O_width_valid $end
$var reg 11 ? height_counter [10:0] $end
$var reg 1 @ rgb_hsync_d $end
$var reg 1 A rgb_vsync_d $end
$var reg 11 B width_counter [10:0] $end
$scope begin genblk1 $end
$var reg 10 C new_frame_delay [9:0] $end
$var reg 10 D new_row_delay [9:0] $end
$var reg 10 E rgb_de_internal_delay [9:0] $end
$upscope $end
$upscope $end
$scope module dvi_rx $end
$var wire 1 6 I_rst_n $end
$var wire 1 F I_tmds_clk_n $end
$var wire 1 G I_tmds_clk_p $end
$var wire 3 H I_tmds_data_n [2:0] $end
$var wire 3 I I_tmds_data_p [2:0] $end
$var wire 4 J O_pll_phase [3:0] $end
$var wire 1 " O_pll_phase_lock $end
$var wire 1 5 clk $end
$var wire 1 $ O_rgb_vs $end
$var wire 8 K O_rgb_r [7:0] $end
$var wire 1 & O_rgb_hs $end
$var wire 8 L O_rgb_g [7:0] $end
$var wire 1 ( O_rgb_de $end
$var wire 1 ) O_rgb_clk $end
$var wire 8 M O_rgb_b [7:0] $end
$var parameter 32 N H_ACTIVE $end
$var parameter 32 O H_TOTAL $end
$var parameter 32 P V_ACTIVE $end
$var parameter 32 Q V_TOTAL $end
$scope module dvi_sim_inst $end
$var wire 4 R O_pll_phase [3:0] $end
$var wire 1 " O_pll_phase_lock $end
$var wire 1 5 clk $end
$var wire 1 6 rst_n $end
$var parameter 32 S H_ACTIVE $end
$var parameter 32 T H_SYNC_END $end
$var parameter 32 U H_SYNC_START $end
$var parameter 32 V H_TOTAL $end
$var parameter 32 W V_ACTIVE $end
$var parameter 32 X V_SYNC_END $end
$var parameter 32 Y V_SYNC_START $end
$var parameter 32 Z V_TOTAL $end
$var reg 8 [ O_rgb_b [7:0] $end
$var reg 1 ) O_rgb_clk $end
$var reg 1 ( O_rgb_de $end
$var reg 8 \ O_rgb_g [7:0] $end
$var reg 1 & O_rgb_hs $end
$var reg 8 ] O_rgb_r [7:0] $end
$var reg 1 $ O_rgb_vs $end
$var reg 1 ^ pixclk $end
$var reg 32 _ hcount [31:0] $end
$var reg 32 ` vcount [31:0] $end
$scope begin $unm_blk_8 $end
$var reg 4 a region [3:0] $end
$upscope $end
$upscope $end
$upscope $end
$upscope $end
$enddefinitions $end
$comment Show the parameter values. $end
$dumpall
b10000 Z
b101 Y
b111 X
b100 W
b10000 V
b1100 U
b10100 T
b100 S
b10000 Q
b100 P
b10000 O
b100 N
b11110000000 <
b10000111000 ;
b1010 :
b10000 4
b100 3
b10000 2
b100 1
b1010 0
$end
#0
$dumpvars
b0 a
b0 `
b0 _
0^
b11111111 ]
b0 \
b0 [
b100 R
b0 M
b0 L
b11111111 K
b100 J
b0 I
b0 H
0G
0F
b0 E
b0 D
b0 C
b0 B
0A
0@
b0 ?
b0 >
b0 =
09
08
07
06
05
0/
b0 .
b0 -
0,
0+
b0 *
x)
1(
b0 '
0&
b11111111 %
0$
0#
1"
b100 !
$end
#5000
0)
15
#10000
05
#15000
15
#20000
05
#25000
15
#30000
05
#35000
15
#40000
05
#45000
15
#50000
05
16
#55000
b1 _
1^
15
#60000
05
#65000
b1 E
1)
0^
15
#70000
05
#75000
b10 _
0)
1^
15
#80000
05
#85000
b11 E
1)
0^
15
#90000
05
#95000
b11 _
0)
1^
15
#100000
05
#105000
b111 E
1)
0^
15
#110000
05
#115000
b0 %
b0 K
b0 ]
0(
b100 _
0)
1^
15
#120000
05
#125000
b1110 E
1)
0^
15
#130000
05
#135000
b101 _
0)
1^
15
#140000
05
#145000
b11100 E
1)
0^
15
#150000
05
#155000
b110 _
0)
1^
15
#160000
05
#165000
b111000 E
1)
0^
15
#170000
05
#175000
b111 _
0)
1^
15
#180000
05
#185000
b1110000 E
1)
0^
15
#190000
05
#195000
b1000 _
0)
1^
15
#200000
05
#205000
b11100000 E
1)
0^
15
#210000
05
#215000
b1001 _
0)
1^
15
#220000
05
#225000
b111000000 E
1)
0^
15
#230000
05
#235000
b1010 _
0)
1^
15
#240000
05
#245000
19
b1110000000 E
1)
0^
15
#250000
05
#255000
b1011 _
0)
1^
15
#260000
05
#265000
b1 B
b1100000000 E
1)
0^
15
#270000
05
#275000
1&
b1100 _
0)
1^
15
#280000
05
#285000
b1000000000 E
1@
b10 B
1)
0^
15
#290000
05
#295000
b1101 _
0)
1^
15
#300000
05
#305000
09
b11 B
b0 E
1)
0^
15
#310000
05
#315000
b1110 _
0)
1^
15
#320000
05
#325000
1)
0^
15
#330000
05
#335000
b1111 _
0)
1^
15
#340000
05
#345000
1)
0^
15
#350000
05
#355000
18
b11111111 %
b11111111 K
b11111111 ]
0&
1(
b1 `
b0 _
0)
1^
15
#360000
05
#365000
08
b1 E
b1 D
0@
1)
0^
15
#370000
05
#375000
b1 _
0)
1^
15
#380000
05
#385000
b11 E
b10 D
1)
0^
15
#390000
05
#395000
b10 _
0)
1^
15
#400000
05
#405000
b111 E
b100 D
1)
0^
15
#410000
05
#415000
b11 _
0)
1^
15
#420000
05
#425000
b1111 E
b1000 D
1)
0^
15
#430000
05
#435000
b0 %
b0 K
b0 ]
0(
b100 _
0)
1^
15
#440000
05
#445000
b11110 E
b10000 D
1)
0^
15
#450000
05
#455000
b101 _
0)
1^
15
#460000
05
#465000
b111100 E
b100000 D
1)
0^
15
#470000
05
#475000
b110 _
0)
1^
15
#480000
05
#485000
b1111000 E
b1000000 D
1)
0^
15
#490000
05
#495000
b111 _
0)
1^
15
#500000
05
#505000
b11110000 E
b10000000 D
1)
0^
15
#510000
05
#515000
b1000 _
0)
1^
15
#520000
05
#525000
b111100000 E
b100000000 D
1)
0^
15
#530000
05
#535000
b1001 _
0)
1^
15
#540000
05
#545000
19
1+
b1111000000 E
b1000000000 D
1)
0^
15
#550000
05
#555000
b1010 _
0)
1^
15
#560000
05
#565000
0+
b1110000000 E
b0 D
b11 -
b11 >
b1 ?
1#
b0 B
1)
0^
15
#570000
05
#575000
b1011 _
0)
1^
15
#580000
05
#585000
b1 B
b1100000000 E
1)
0^
15
#590000
05
#595000
1&
b1100 _
0)
1^
15
#600000
05
#605000
b1000000000 E
1@
b10 B
1)
0^
15
#610000
05
#615000
b1101 _
0)
1^
15
#620000
05
#625000
09
b11 B
b0 E
1)
0^
15
#630000
05
#635000
b1110 _
0)
1^
15
#640000
05
#645000
1)
0^
15
#650000
05
#655000
b1111 _
0)
1^
15
#660000
05
#665000
1)
0^
15
#670000
05
#675000
18
b11111111 %
b11111111 K
b11111111 ]
0&
1(
b10 `
b0 _
0)
1^
15
#680000
05
#685000
08
b1 E
b1 D
0@
1)
0^
15
#690000
05
#695000
b1 _
0)
1^
15
#700000
05
#705000
b11 E
b10 D
1)
0^
15
#710000
05
#715000
b10 _
0)
1^
15
#720000
05
#725000
b111 E
b100 D
1)
0^
15
#730000
05
#735000
b11 _
0)
1^
15
#740000
05
#745000
b1111 E
b1000 D
1)
0^
15
#750000
05
#755000
b0 %
b0 K
b0 ]
0(
b100 _
0)
1^
15
#760000
05
#765000
b11110 E
b10000 D
1)
0^
15
#770000
05
#775000
b101 _
0)
1^
15
#780000
05
#785000
b111100 E
b100000 D
1)
0^
15
#790000
05
#795000
b110 _
0)
1^
15
#800000
05
#805000
b1111000 E
b1000000 D
1)
0^
15
#810000
05
#815000
b111 _
0)
1^
15
#820000
05
#825000
b11110000 E
b10000000 D
1)
0^
15
#830000
05
#835000
b1000 _
0)
1^
15
#840000
05
#845000
b111100000 E
b100000000 D
1)
0^
15
#850000
05
#855000
b1001 _
0)
1^
15
#860000
05
#865000
19
1+
b1111000000 E
b1000000000 D
1)
0^
15
#870000
05
#875000
b1010 _
0)
1^
15
#880000
05
#885000
0+
b1110000000 E
b0 D
b10 ?
b0 B
1)
0^
15
#890000
05
#895000
b1011 _
0)
1^
15
#900000
05
#905000
b1 B
b1100000000 E
1)
0^
15
#910000
05
#915000
1&
b1100 _
0)
1^
15
#920000
05
#925000
b1000000000 E
1@
b10 B
1)
0^
15
#930000
05
#935000
b1101 _
0)
1^
15
#940000
05
#945000
09
b11 B
b0 E
1)
0^
15
#950000
05
#955000
b1110 _
0)
1^
15
#960000
05
#965000
1)
0^
15
#970000
05
#975000
b1111 _
0)
1^
15
#980000
05
#985000
1)
0^
15
#990000
05
#995000
18
b11111111 %
b11111111 K
b11111111 ]
0&
1(
b11 `
b0 _
0)
1^
15
#1000000
05
#1005000
08
b1 E
b1 D
0@
1)
0^
15
#1010000
05
#1015000
b1 _
0)
1^
15
#1020000
05
#1025000
b11 E
b10 D
1)
0^
15
#1030000
05
#1035000
b10 _
0)
1^
15
#1040000
05
#1045000
b111 E
b100 D
1)
0^
15
#1050000
05
#1055000
b11 _
0)
1^
15
#1060000
05
#1065000
b1111 E
b1000 D
1)
0^
15
#1070000
05
#1075000
b0 %
b0 K
b0 ]
0(
b100 _
0)
1^
15
#1080000
05
#1085000
b11110 E
b10000 D
1)
0^
15
#1090000
05
#1095000
b101 _
0)
1^
15
#1100000
05
#1105000
b111100 E
b100000 D
1)
0^
15
#1110000
05
#1115000
b110 _
0)
1^
15
#1120000
05
#1125000
b1111000 E
b1000000 D
1)
0^
15
#1130000
05
#1135000
b111 _
0)
1^
15
#1140000
05
#1145000
b11110000 E
b10000000 D
1)
0^
15
#1150000
05
#1155000
b1000 _
0)
1^
15
#1160000
05
#1165000
b111100000 E
b100000000 D
1)
0^
15
#1170000
05
#1175000
b1001 _
0)
1^
15
#1180000
05
#1185000
19
1+
b1111000000 E
b1000000000 D
1)
0^
15
#1190000
05
#1195000
b1010 _
0)
1^
15
#1200000
05
#1205000
0+
b1110000000 E
b0 D
b11 ?
b0 B
1)
0^
15
#1210000
05
#1215000
b1011 _
0)
1^
15
#1220000
05
#1225000
b1 B
b1100000000 E
1)
0^
15
#1230000
05
#1235000
1&
b1100 _
0)
1^
15
#1240000
05
#1245000
b1000000000 E
1@
b10 B
1)
0^
15
#1250000
05
#1255000
b1101 _
0)
1^
15
#1260000
05
#1265000
09
b11 B
b0 E
1)
0^
15
#1270000
05
#1275000
b1110 _
0)
1^
15
#1280000
05
#1285000
1)
0^
15
#1290000
05
#1295000
b1111 _
0)
1^
15
#1300000
05
#1305000
1)
0^
15
#1310000
05
#1315000
18
0&
b100 `
b0 _
0)
1^
15
#1320000
05
#1325000
08
b1 D
0@
1)
0^
15
#1330000
05
#1335000
b1 _
0)
1^
15
#1340000
05
#1345000
b10 D
1)
0^
15
#1350000
05
#1355000
b10 _
0)
1^
15
#1360000
05
#1365000
b100 D
1)
0^
15
#1370000
05
#1375000
b11 _
0)
1^
15
#1380000
05
#1385000
b1000 D
1)
0^
15
#1390000
05
#1395000
b100 _
0)
1^
15
#1400000
05
#1405000
b10000 D
1)
0^
15
#1410000
05
#1415000
b101 _
0)
1^
15
#1420000
05
#1425000
b100000 D
1)
0^
15
#1430000
05
#1435000
b110 _
0)
1^
15
#1440000
05
#1445000
b1000000 D
1)
0^
15
#1450000
05
#1455000
b111 _
0)
1^
15
#1460000
05
#1465000
b10000000 D
1)
0^
15
#1470000
05
#1475000
b1000 _
0)
1^
15
#1480000
05
#1485000
b100000000 D
1)
0^
15
#1490000
05
#1495000
b1001 _
0)
1^
15
#1500000
05
#1505000
1+
b1000000000 D
1)
0^
15
#1510000
05
#1515000
b1010 _
0)
1^
15
#1520000
05
#1525000
0+
b0 D
b100 ?
b0 B
1)
0^
15
#1530000
05
#1535000
b1011 _
0)
1^
15
#1540000
05
#1545000
1)
0^
15
#1550000
05
#1555000
1&
b1100 _
0)
1^
15
#1560000
05
#1565000
1@
1)
0^
15
#1570000
05
#1575000
b1101 _
0)
1^
15
#1580000
05
#1585000
1)
0^
15
#1590000
05
#1595000
b1110 _
0)
1^
15
#1600000
05
#1605000
1)
0^
15
#1610000
05
#1615000
b1111 _
0)
1^
15
#1620000
05
#1625000
1)
0^
15
#1630000
05
#1635000
18
1$
0&
b101 `
b0 _
0)
1^
15
#1640000
05
#1645000
08
b1 D
1A
0@
1)
0^
15
#1650000
05
#1655000
b1 _
0)
1^
15
#1660000
05
#1665000
b10 D
1)
0^
15
#1670000
05
#1675000
b10 _
0)
1^
15
#1680000
05
#1685000
b100 D
1)
0^
15
#1690000
05
#1695000
b11 _
0)
1^
15
#1700000
05
#1705000
b1000 D
1)
0^
15
#1710000
05
#1715000
b100 _
0)
1^
15
#1720000
05
#1725000
b10000 D
1)
0^
15
#1730000
05
#1735000
b101 _
0)
1^
15
#1740000
05
#1745000
b100000 D
1)
0^
15
#1750000
05
#1755000
b110 _
0)
1^
15
#1760000
05
#1765000
b1000000 D
1)
0^
15
#1770000
05
#1775000
b111 _
0)
1^
15
#1780000
05
#1785000
b10000000 D
1)
0^
15
#1790000
05
#1795000
b1000 _
0)
1^
15
#1800000
05
#1805000
b100000000 D
1)
0^
15
#1810000
05
#1815000
b1001 _
0)
1^
15
#1820000
05
#1825000
1+
b1000000000 D
1)
0^
15
#1830000
05
#1835000
b1010 _
0)
1^
15
#1840000
05
#1845000
0+
b0 D
1)
0^
15
#1850000
05
#1855000
b1011 _
0)
1^
15
#1860000
05
#1865000
1)
0^
15
#1870000
05
#1875000
1&
b1100 _
0)
1^
15
#1880000
05
#1885000
1@
1)
0^
15
#1890000
05
#1895000
b1101 _
0)
1^
15
#1900000
05
#1905000
1)
0^
15
#1910000
05
#1915000
b1110 _
0)
1^
15
#1920000
05
#1925000
1)
0^
15
#1930000
05
#1935000
b1111 _
0)
1^
15
#1940000
05
#1945000
1)
0^
15
#1950000
05
#1955000
18
0&
b110 `
b0 _
0)
1^
15
#1960000
05
#1965000
08
b1 D
0@
1)
0^
15
#1970000
05
#1975000
b1 _
0)
1^
15
#1980000
05
#1985000
b10 D
1)
0^
15
#1990000
05
#1995000
b10 _
0)
1^
15
#2000000
05
#2005000
b100 D
1)
0^
15
#2010000
05
#2015000
b11 _
0)
1^
15
#2020000
05
#2025000
b1000 D
1)
0^
15
#2030000
05
#2035000
b100 _
0)
1^
15
#2040000
05
#2045000
b10000 D
1)
0^
15
#2050000
05
#2055000
b101 _
0)
1^
15
#2060000
05
#2065000
b100000 D
1)
0^
15
#2070000
05
#2075000
b110 _
0)
1^
15
#2080000
05
#2085000
b1000000 D
1)
0^
15
#2090000
05
#2095000
b111 _
0)
1^
15
#2100000
05
#2105000
b10000000 D
1)
0^
15
#2110000
05
#2115000
b1000 _
0)
1^
15
#2120000
05
#2125000
b100000000 D
1)
0^
15
#2130000
05
#2135000
b1001 _
0)
1^
15
#2140000
05
#2145000
1+
b1000000000 D
1)
0^
15
#2150000
05
#2155000
b1010 _
0)
1^
15
#2160000
05
#2165000
0+
b0 D
1)
0^
15
#2170000
05
#2175000
b1011 _
0)
1^
15
#2180000
05
#2185000
1)
0^
15
#2190000
05
#2195000
1&
b1100 _
0)
1^
15
#2200000
05
#2205000
1@
1)
0^
15
#2210000
05
#2215000
b1101 _
0)
1^
15
#2220000
05
#2225000
1)
0^
15
#2230000
05
#2235000
b1110 _
0)
1^
15
#2240000
05
#2245000
1)
0^
15
#2250000
05
#2255000
b1111 _
0)
1^
15
#2260000
05
#2265000
1)
0^
15
#2270000
05
#2275000
17
18
0$
0&
b111 `
b0 _
0)
1^
15
#2280000
05
#2285000
07
08
b1 C
b1 D
0A
0@
1)
0^
15
#2290000
05
#2295000
b1 _
0)
1^
15
#2300000
05
#2305000
b10 C
b10 D
1)
0^
15
#2310000
05
#2315000
b10 _
0)
1^
15
#2320000
05
#2325000
b100 C
b100 D
1)
0^
15
#2330000
05
#2335000
b11 _
0)
1^
15
#2340000
05
#2345000
b1000 C
b1000 D
1)
0^
15
#2350000
05
#2355000
b100 _
0)
1^
15
#2360000
05
#2365000
b10000 C
b10000 D
1)
0^
15
#2370000
05
#2375000
b101 _
0)
1^
15
#2380000
05
#2385000
b100000 C
b100000 D
1)
0^
15
#2390000
05
#2395000
b110 _
0)
1^
15
#2400000
05
#2405000
b1000000 C
b1000000 D
1)
0^
15
#2410000
05
#2415000
b111 _
0)
1^
15
#2420000
05
#2425000
b10000000 C
b10000000 D
1)
0^
15
#2430000
05
#2435000
b1000 _
0)
1^
15
#2440000
05
#2445000
b100000000 C
b100000000 D
1)
0^
15
#2450000
05
#2455000
b1001 _
0)
1^
15
#2460000
05
#2465000
1,
1+
b1000000000 C
b1000000000 D
1)
0^
15
#2470000
05
#2475000
b1010 _
0)
1^
15
#2480000
05
#2485000
0,
0+
b0 C
b0 D
1/
b100 .
b100 =
b0 ?
1)
0^
15
#2490000
05
#2495000
b1011 _
0)
1^
15
#2500000
05
#2505000
1)
0^
15
#2510000
05
#2515000
1&
b1100 _
0)
1^
15
#2520000
05
#2525000
1@
1)
0^
15
#2530000
05
#2535000
b1101 _
0)
1^
15
#2540000
05
#2545000
1)
0^
15
#2550000
05
#2555000
b1110 _
0)
1^
15
#2560000
05
#2565000
1)
0^
15
#2570000
05
#2575000
b1111 _
0)
1^
15
#2580000
05
#2585000
1)
0^
15
#2590000
05
#2595000
18
0&
b1000 `
b0 _
0)
1^
15
#2600000
05
#2605000
08
b1 D
0@
1)
0^
15
#2610000
05
#2615000
b1 _
0)
1^
15
#2620000
05
#2625000
b10 D
1)
0^
15
#2630000
05
#2635000
b10 _
0)
1^
15
#2640000
05
#2645000
b100 D
1)
0^
15
#2650000
05
#2655000
b11 _
0)
1^
15
#2660000
05
#2665000
b1000 D
1)
0^
15
#2670000
05
#2675000
b100 _
0)
1^
15
#2680000
05
#2685000
b10000 D
1)
0^
15
#2690000
05
#2695000
b101 _
0)
1^
15
#2700000
05
#2705000
b100000 D
1)
0^
15
#2710000
05
#2715000
b110 _
0)
1^
15
#2720000
05
#2725000
b1000000 D
1)
0^
15
#2730000
05
#2735000
b111 _
0)
1^
15
#2740000
05
#2745000
b10000000 D
1)
0^
15
#2750000
05
#2755000
b1000 _
0)
1^
15
#2760000
05
#2765000
b100000000 D
1)
0^
15
#2770000
05
#2775000
b1001 _
0)
1^
15
#2780000
05
#2785000
1+
b1000000000 D
1)
0^
15
#2790000
05
#2795000
b1010 _
0)
1^
15
#2800000
05
#2805000
0+
b0 D
1)
0^
15
#2810000
05
#2815000
b1011 _
0)
1^
15
#2820000
05
#2825000
1)
0^
15
#2830000
05
#2835000
1&
b1100 _
0)
1^
15
#2840000
05
#2845000
1@
1)
0^
15
#2850000
05
#2855000
b1101 _
0)
1^
15
#2860000
05
#2865000
1)
0^
15
#2870000
05
#2875000
b1110 _
0)
1^
15
#2880000
05
#2885000
1)
0^
15
#2890000
05
#2895000
b1111 _
0)
1^
15
#2900000
05
#2905000
1)
0^
15
#2910000
05
#2915000
18
0&
b1001 `
b0 _
0)
1^
15
#2920000
05
#2925000
08
b1 D
0@
1)
0^
15
#2930000
05
#2935000
b1 _
0)
1^
15
#2940000
05
#2945000
b10 D
1)
0^
15
#2950000
05
#2955000
b10 _
0)
1^
15
#2960000
05
#2965000
b100 D
1)
0^
15
#2970000
05
#2975000
b11 _
0)
1^
15
#2980000
05
#2985000
b1000 D
1)
0^
15
#2990000
05
#2995000
b100 _
0)
1^
15
#3000000
05
#3005000
b10000 D
1)
0^
15
#3010000
05
#3015000
b101 _
0)
1^
15
#3020000
05
#3025000
b100000 D
1)
0^
15
#3030000
05
#3035000
b110 _
0)
1^
15
#3040000
05
#3045000
b1000000 D
1)
0^
15
#3050000
05
#3055000
b111 _
0)
1^
15
#3060000
05
#3065000
b10000000 D
1)
0^
15
#3070000
05
#3075000
b1000 _
0)
1^
15
#3080000
05
#3085000
b100000000 D
1)
0^
15
#3090000
05
#3095000
b1001 _
0)
1^
15
#3100000
05
#3105000
1+
b1000000000 D
1)
0^
15
#3110000
05
#3115000
b1010 _
0)
1^
15
#3120000
05
#3125000
0+
b0 D
1)
0^
15
#3130000
05
#3135000
b1011 _
0)
1^
15
#3140000
05
#3145000
1)
0^
15
#3150000
05
#3155000
1&
b1100 _
0)
1^
15
#3160000
05
#3165000
1@
1)
0^
15
#3170000
05
#3175000
b1101 _
0)
1^
15
#3180000
05
#3185000
1)
0^
15
#3190000
05
#3195000
b1110 _
0)
1^
15
#3200000
05
#3205000
1)
0^
15
#3210000
05
#3215000
b1111 _
0)
1^
15
#3220000
05
#3225000
1)
0^
15
#3230000
05
#3235000
18
0&
b1010 `
b0 _
0)
1^
15
#3240000
05
#3245000
08
b1 D
0@
1)
0^
15
#3250000
05
#3255000
b1 _
0)
1^
15
#3260000
05
#3265000
b10 D
1)
0^
15
#3270000
05
#3275000
b10 _
0)
1^
15
#3280000
05
#3285000
b100 D
1)
0^
15
#3290000
05
#3295000
b11 _
0)
1^
15
#3300000
05
#3305000
b1000 D
1)
0^
15
#3310000
05
#3315000
b100 _
0)
1^
15
#3320000
05
#3325000
b10000 D
1)
0^
15
#3330000
05
#3335000
b101 _
0)
1^
15
#3340000
05
#3345000
b100000 D
1)
0^
15
#3350000
05
#3355000
b110 _
0)
1^
15
#3360000
05
#3365000
b1000000 D
1)
0^
15
#3370000
05
#3375000
b111 _
0)
1^
15
#3380000
05
#3385000
b10000000 D
1)
0^
15
#3390000
05
#3395000
b1000 _
0)
1^
15
#3400000
05
#3405000
b100000000 D
1)
0^
15
#3410000
05
#3415000
b1001 _
0)
1^
15
#3420000
05
#3425000
1+
b1000000000 D
1)
0^
15
#3430000
05
#3435000
b1010 _
0)
1^
15
#3440000
05
#3445000
0+
b0 D
1)
0^
15
#3450000
05
#3455000
b1011 _
0)
1^
15
#3460000
05
#3465000
1)
0^
15
#3470000
05
#3475000
1&
b1100 _
0)
1^
15
#3480000
05
#3485000
1@
1)
0^
15
#3490000
05
#3495000
b1101 _
0)
1^
15
#3500000
05
#3505000
1)
0^
15
#3510000
05
#3515000
b1110 _
0)
1^
15
#3520000
05
#3525000
1)
0^
15
#3530000
05
#3535000
b1111 _
0)
1^
15
#3540000
05
#3545000
1)
0^
15
#3550000
05
#3555000
18
0&
b1011 `
b0 _
0)
1^
15
#3560000
05
#3565000
08
b1 D
0@
1)
0^
15
#3570000
05
#3575000
b1 _
0)
1^
15
#3580000
05
#3585000
b10 D
1)
0^
15
#3590000
05
#3595000
b10 _
0)
1^
15
#3600000
05
#3605000
b100 D
1)
0^
15
#3610000
05
#3615000
b11 _
0)
1^
15
#3620000
05
#3625000
b1000 D
1)
0^
15
#3630000
05
#3635000
b100 _
0)
1^
15
#3640000
05
#3645000
b10000 D
1)
0^
15
#3650000
05
#3655000
b101 _
0)
1^
15
#3660000
05
#3665000
b100000 D
1)
0^
15
#3670000
05
#3675000
b110 _
0)
1^
15
#3680000
05
#3685000
b1000000 D
1)
0^
15
#3690000
05
#3695000
b111 _
0)
1^
15
#3700000
05
#3705000
b10000000 D
1)
0^
15
#3710000
05
#3715000
b1000 _
0)
1^
15
#3720000
05
#3725000
b100000000 D
1)
0^
15
#3730000
05
#3735000
b1001 _
0)
1^
15
#3740000
05
#3745000
1+
b1000000000 D
1)
0^
15
#3750000
05
#3755000
b1010 _
0)
1^
15
#3760000
05
#3765000
0+
b0 D
1)
0^
15
#3770000
05
#3775000
b1011 _
0)
1^
15
#3780000
05
#3785000
1)
0^
15
#3790000
05
#3795000
1&
b1100 _
0)
1^
15
#3800000
05
#3805000
1@
1)
0^
15
#3810000
05
#3815000
b1101 _
0)
1^
15
#3820000
05
#3825000
1)
0^
15
#3830000
05
#3835000
b1110 _
0)
1^
15
#3840000
05
#3845000
1)
0^
15
#3850000
05
#3855000
b1111 _
0)
1^
15
#3860000
05
#3865000
1)
0^
15
#3870000
05
#3875000
18
0&
b1100 `
b0 _
0)
1^
15
#3880000
05
#3885000
08
b1 D
0@
1)
0^
15
#3890000
05
#3895000
b1 _
0)
1^
15
#3900000
05
#3905000
b10 D
1)
0^
15
#3910000
05
#3915000
b10 _
0)
1^
15
#3920000
05
#3925000
b100 D
1)
0^
15
#3930000
05
#3935000
b11 _
0)
1^
15
#3940000
05
#3945000
b1000 D
1)
0^
15
#3950000
05
#3955000
b100 _
0)
1^
15
#3960000
05
#3965000
b10000 D
1)
0^
15
#3970000
05
#3975000
b101 _
0)
1^
15
#3980000
05
#3985000
b100000 D
1)
0^
15
#3990000
05
#3995000
b110 _
0)
1^
15
#4000000
05
#4005000
b1000000 D
1)
0^
15
#4010000
05
#4015000
b111 _
0)
1^
15
#4020000
05
#4025000
b10000000 D
1)
0^
15
#4030000
05
#4035000
b1000 _
0)
1^
15
#4040000
05
#4045000
b100000000 D
1)
0^
15
#4050000
05
#4055000
b1001 _
0)
1^
15
#4060000
05
#4065000
1+
b1000000000 D
1)
0^
15
#4070000
05
#4075000
b1010 _
0)
1^
15
#4080000
05
#4085000
0+
b0 D
1)
0^
15
#4090000
05
#4095000
b1011 _
0)
1^
15
#4100000
05
#4105000
1)
0^
15
#4110000
05
#4115000
1&
b1100 _
0)
1^
15
#4120000
05
#4125000
1@
1)
0^
15
#4130000
05
#4135000
b1101 _
0)
1^
15
#4140000
05
#4145000
1)
0^
15
#4150000
05
#4155000
b1110 _
0)
1^
15
#4160000
05
#4165000
1)
0^
15
#4170000
05
#4175000
b1111 _
0)
1^
15
#4180000
05
#4185000
1)
0^
15
#4190000
05
#4195000
18
0&
b1101 `
b0 _
0)
1^
15
#4200000
05
#4205000
08
b1 D
0@
1)
0^
15
#4210000
05
#4215000
b1 _
0)
1^
15
#4220000
05
#4225000
b10 D
1)
0^
15
#4230000
05
#4235000
b10 _
0)
1^
15
#4240000
05
#4245000
b100 D
1)
0^
15
#4250000
05
#4255000
b11 _
0)
1^
15
#4260000
05
#4265000
b1000 D
1)
0^
15
#4270000
05
#4275000
b100 _
0)
1^
15
#4280000
05
#4285000
b10000 D
1)
0^
15
#4290000
05
#4295000
b101 _
0)
1^
15
#4300000
05
#4305000
b100000 D
1)
0^
15
#4310000
05
#4315000
b110 _
0)
1^
15
#4320000
05
#4325000
b1000000 D
1)
0^
15
#4330000
05
#4335000
b111 _
0)
1^
15
#4340000
05
#4345000
b10000000 D
1)
0^
15
#4350000
05
#4355000
b1000 _
0)
1^
15
#4360000
05
#4365000
b100000000 D
1)
0^
15
#4370000
05
#4375000
b1001 _
0)
1^
15
#4380000
05
#4385000
1+
b1000000000 D
1)
0^
15
#4390000
05
#4395000
b1010 _
0)
1^
15
#4400000
05
#4405000
0+
b0 D
1)
0^
15
#4410000
05
#4415000
b1011 _
0)
1^
15
#4420000
05
#4425000
1)
0^
15
#4430000
05
#4435000
1&
b1100 _
0)
1^
15
#4440000
05
#4445000
1@
1)
0^
15
#4450000
05
#4455000
b1101 _
0)
1^
15
#4460000
05
#4465000
1)
0^
15
#4470000
05
#4475000
b1110 _
0)
1^
15
#4480000
05
#4485000
1)
0^
15
#4490000
05
#4495000
b1111 _
0)
1^
15
#4500000
05
#4505000
1)
0^
15
#4510000
05
#4515000
18
0&
b1110 `
b0 _
0)
1^
15
#4520000
05
#4525000
08
b1 D
0@
1)
0^
15
#4530000
05
#4535000
b1 _
0)
1^
15
#4540000
05
#4545000
b10 D
1)
0^
15
#4550000
05
#4555000
b10 _
0)
1^
15
#4560000
05
#4565000
b100 D
1)
0^
15
#4570000
05
#4575000
b11 _
0)
1^
15
#4580000
05
#4585000
b1000 D
1)
0^
15
#4590000
05
#4595000
b100 _
0)
1^
15
#4600000
05
#4605000
b10000 D
1)
0^
15
#4610000
05
#4615000
b101 _
0)
1^
15
#4620000
05
#4625000
b100000 D
1)
0^
15
#4630000
05
#4635000
b110 _
0)
1^
15
#4640000
05
#4645000
b1000000 D
1)
0^
15
#4650000
05
#4655000
b111 _
0)
1^
15
#4660000
05
#4665000
b10000000 D
1)
0^
15
#4670000
05
#4675000
b1000 _
0)
1^
15
#4680000
05
#4685000
b100000000 D
1)
0^
15
#4690000
05
#4695000
b1001 _
0)
1^
15
#4700000
05
#4705000
1+
b1000000000 D
1)
0^
15
#4710000
05
#4715000
b1010 _
0)
1^
15
#4720000
05
#4725000
0+
b0 D
1)
0^
15
#4730000
05
#4735000
b1011 _
0)
1^
15
#4740000
05
#4745000
1)
0^
15
#4750000
05
#4755000
1&
b1100 _
0)
1^
15
#4760000
05
#4765000
1@
1)
0^
15
#4770000
05
